G04 #@! TF.GenerationSoftware,KiCad,Pcbnew,5.1.5-52549c5~86~ubuntu18.04.1*
G04 #@! TF.CreationDate,2020-05-01T14:48:44+02:00*
G04 #@! TF.ProjectId,catracker,63617472-6163-46b6-9572-2e6b69636164,rev?*
G04 #@! TF.SameCoordinates,Original*
G04 #@! TF.FileFunction,Legend,Top*
G04 #@! TF.FilePolarity,Positive*
%FSLAX46Y46*%
G04 Gerber Fmt 4.6, Leading zero omitted, Abs format (unit mm)*
G04 Created by KiCad (PCBNEW 5.1.5-52549c5~86~ubuntu18.04.1) date 2020-05-01 14:48:44*
%MOMM*%
%LPD*%
G04 APERTURE LIST*
%ADD10C,0.150000*%
%ADD11C,0.127000*%
%ADD12C,0.200000*%
%ADD13C,0.120000*%
%ADD14C,0.015000*%
G04 APERTURE END LIST*
D10*
X125250000Y-73432142D02*
X125202380Y-73479761D01*
X125059523Y-73527380D01*
X124964285Y-73527380D01*
X124821428Y-73479761D01*
X124726190Y-73384523D01*
X124678571Y-73289285D01*
X124630952Y-73098809D01*
X124630952Y-72955952D01*
X124678571Y-72765476D01*
X124726190Y-72670238D01*
X124821428Y-72575000D01*
X124964285Y-72527380D01*
X125059523Y-72527380D01*
X125202380Y-72575000D01*
X125250000Y-72622619D01*
X125630952Y-73241666D02*
X126107142Y-73241666D01*
X125535714Y-73527380D02*
X125869047Y-72527380D01*
X126202380Y-73527380D01*
X126392857Y-72527380D02*
X126964285Y-72527380D01*
X126678571Y-73527380D02*
X126678571Y-72527380D01*
X125583333Y-75177380D02*
X125250000Y-74701190D01*
X125011904Y-75177380D02*
X125011904Y-74177380D01*
X125392857Y-74177380D01*
X125488095Y-74225000D01*
X125535714Y-74272619D01*
X125583333Y-74367857D01*
X125583333Y-74510714D01*
X125535714Y-74605952D01*
X125488095Y-74653571D01*
X125392857Y-74701190D01*
X125011904Y-74701190D01*
X126535714Y-75177380D02*
X125964285Y-75177380D01*
X126250000Y-75177380D02*
X126250000Y-74177380D01*
X126154761Y-74320238D01*
X126059523Y-74415476D01*
X125964285Y-74463095D01*
D11*
X105350000Y-94990000D02*
X105350000Y-95550000D01*
X105350000Y-92450000D02*
X105350000Y-93010000D01*
X107950000Y-94990000D02*
X107950000Y-95550000D01*
X107950000Y-93010000D02*
X107950000Y-92450000D01*
D12*
X107745000Y-91910000D02*
G75*
G03X107745000Y-91910000I-100000J0D01*
G01*
D13*
X122980000Y-73550000D02*
X122980000Y-74880000D01*
X122980000Y-74880000D02*
X121650000Y-74880000D01*
X120380000Y-74880000D02*
X112700000Y-74880000D01*
X112700000Y-72220000D02*
X112700000Y-74880000D01*
X120380000Y-72220000D02*
X112700000Y-72220000D01*
X120380000Y-72220000D02*
X120380000Y-74880000D01*
X101100000Y-88950000D02*
X101100000Y-88700000D01*
X101350000Y-88700000D02*
X101100000Y-88950000D01*
X101100000Y-88450000D02*
X101350000Y-88700000D01*
X101100000Y-88700000D02*
X101100000Y-88450000D01*
X104600000Y-88450000D02*
X101600000Y-88450000D01*
X104600000Y-90450000D02*
X104600000Y-88450000D01*
X101600000Y-90450000D02*
X104600000Y-90450000D01*
X101600000Y-88450000D02*
X101600000Y-90450000D01*
D11*
X108550000Y-91600000D02*
X109900000Y-91600000D01*
X108550000Y-90700000D02*
X108550000Y-91600000D01*
X121250000Y-91600000D02*
X121250000Y-90700000D01*
X119900000Y-91600000D02*
X121250000Y-91600000D01*
X121250000Y-79800000D02*
X121250000Y-80700000D01*
X119900000Y-79800000D02*
X121250000Y-79800000D01*
X108550000Y-79800000D02*
X109900000Y-79800000D01*
X108550000Y-80700000D02*
X108550000Y-79800000D01*
D12*
X108200000Y-81300000D02*
G75*
G03X108200000Y-81300000I-100000J0D01*
G01*
D13*
X124037221Y-89960000D02*
X124362779Y-89960000D01*
X124037221Y-88940000D02*
X124362779Y-88940000D01*
X127501000Y-87300000D02*
G75*
G03X127501000Y-87300000I-1251000J0D01*
G01*
X109500000Y-78650000D02*
X113500000Y-78650000D01*
X109500000Y-75350000D02*
X109500000Y-78650000D01*
D11*
X107700000Y-97000000D02*
X107700000Y-98000000D01*
X110800000Y-97000000D02*
X110800000Y-98000000D01*
D12*
X110850000Y-95550000D02*
G75*
G03X110850000Y-95550000I-100000J0D01*
G01*
D13*
X115200000Y-96360000D02*
X117650000Y-96360000D01*
X117000000Y-93140000D02*
X115200000Y-93140000D01*
X122937221Y-80810000D02*
X123262779Y-80810000D01*
X122937221Y-79790000D02*
X123262779Y-79790000D01*
X119437221Y-93160000D02*
X119762779Y-93160000D01*
X119437221Y-92140000D02*
X119762779Y-92140000D01*
X106690000Y-89637221D02*
X106690000Y-89962779D01*
X107710000Y-89637221D02*
X107710000Y-89962779D01*
X105140000Y-89637221D02*
X105140000Y-89962779D01*
X106160000Y-89637221D02*
X106160000Y-89962779D01*
X106712779Y-79590000D02*
X106387221Y-79590000D01*
X106712779Y-80610000D02*
X106387221Y-80610000D01*
X119560000Y-76912779D02*
X119560000Y-76587221D01*
X118540000Y-76912779D02*
X118540000Y-76587221D01*
X118010000Y-76912779D02*
X118010000Y-76587221D01*
X116990000Y-76912779D02*
X116990000Y-76587221D01*
X124862779Y-91140000D02*
X124537221Y-91140000D01*
X124862779Y-92160000D02*
X124537221Y-92160000D01*
X116460000Y-76912779D02*
X116460000Y-76587221D01*
X115440000Y-76912779D02*
X115440000Y-76587221D01*
X126160000Y-81362779D02*
X126160000Y-81037221D01*
X125140000Y-81362779D02*
X125140000Y-81037221D01*
X126160000Y-84362779D02*
X126160000Y-84037221D01*
X125140000Y-84362779D02*
X125140000Y-84037221D01*
X112890000Y-94287221D02*
X112890000Y-94612779D01*
X113910000Y-94287221D02*
X113910000Y-94612779D01*
X122310000Y-79130000D02*
X120850000Y-79130000D01*
X122310000Y-75970000D02*
X120150000Y-75970000D01*
X122310000Y-75970000D02*
X122310000Y-76900000D01*
X122310000Y-79130000D02*
X122310000Y-78200000D01*
X102190000Y-85987221D02*
X102190000Y-86312779D01*
X103210000Y-85987221D02*
X103210000Y-86312779D01*
X111910000Y-94158578D02*
X111910000Y-93641422D01*
X110490000Y-94158578D02*
X110490000Y-93641422D01*
X106740000Y-73250000D02*
X106740000Y-72300000D01*
X106740000Y-72300000D02*
X107500000Y-72300000D01*
X108135000Y-72490000D02*
X108135000Y-72300000D01*
X108135000Y-72300000D02*
X110735000Y-72300000D01*
X110735000Y-74212470D02*
X110735000Y-73557530D01*
X110735000Y-75470000D02*
X110735000Y-74827530D01*
X110735000Y-72942470D02*
X110735000Y-72300000D01*
X106805000Y-75470000D02*
X110735000Y-75470000D01*
X106805000Y-74212470D02*
X106805000Y-74010000D01*
X106805000Y-75470000D02*
X106805000Y-74827530D01*
X118800000Y-99210000D02*
X117470000Y-99210000D01*
X117470000Y-99210000D02*
X117470000Y-98450000D01*
X117470000Y-97815000D02*
X117470000Y-95215000D01*
X118492470Y-95215000D02*
X117470000Y-95215000D01*
X120130000Y-95215000D02*
X119107530Y-95215000D01*
X120130000Y-97815000D02*
X120130000Y-95215000D01*
X118040000Y-97815000D02*
X117470000Y-97815000D01*
X120130000Y-97815000D02*
X119560000Y-97815000D01*
X117610000Y-98450000D02*
X117610000Y-99780000D01*
X117610000Y-99780000D02*
X116850000Y-99780000D01*
X116215000Y-99780000D02*
X114885000Y-99780000D01*
X114885000Y-98757530D02*
X114885000Y-99780000D01*
X114885000Y-97120000D02*
X114885000Y-98142470D01*
X116215000Y-97120000D02*
X114885000Y-97120000D01*
X116215000Y-99210000D02*
X116215000Y-99780000D01*
X116215000Y-97120000D02*
X116215000Y-97690000D01*
X121460001Y-93885000D02*
X123945001Y-93885000D01*
X121460001Y-92515000D02*
X121460001Y-93885000D01*
X123945001Y-92515000D02*
X121460001Y-92515000D01*
X104540000Y-97437221D02*
X104540000Y-97762779D01*
X105560000Y-97437221D02*
X105560000Y-97762779D01*
X103525279Y-90990000D02*
X103199721Y-90990000D01*
X103525279Y-92010000D02*
X103199721Y-92010000D01*
X113890000Y-76587221D02*
X113890000Y-76912779D01*
X114910000Y-76587221D02*
X114910000Y-76912779D01*
X108090000Y-77537221D02*
X108090000Y-77862779D01*
X109110000Y-77537221D02*
X109110000Y-77862779D01*
X123362779Y-82390000D02*
X123037221Y-82390000D01*
X123362779Y-83410000D02*
X123037221Y-83410000D01*
X121160000Y-97462779D02*
X121160000Y-97137221D01*
X120140000Y-97462779D02*
X120140000Y-97137221D01*
X103740000Y-85987221D02*
X103740000Y-86312779D01*
X104760000Y-85987221D02*
X104760000Y-86312779D01*
X105240000Y-85987221D02*
X105240000Y-86312779D01*
X106260000Y-85987221D02*
X106260000Y-86312779D01*
X106740000Y-85987221D02*
X106740000Y-86312779D01*
X107760000Y-85987221D02*
X107760000Y-86312779D01*
X106337221Y-82160000D02*
X106662779Y-82160000D01*
X106337221Y-81140000D02*
X106662779Y-81140000D01*
X103612779Y-79590000D02*
X103287221Y-79590000D01*
X103612779Y-80610000D02*
X103287221Y-80610000D01*
X106337221Y-83710000D02*
X106662779Y-83710000D01*
X106337221Y-82690000D02*
X106662779Y-82690000D01*
X103612779Y-82690000D02*
X103287221Y-82690000D01*
X103612779Y-83710000D02*
X103287221Y-83710000D01*
X103612779Y-81140000D02*
X103287221Y-81140000D01*
X103612779Y-82160000D02*
X103287221Y-82160000D01*
X123037221Y-85010000D02*
X123362779Y-85010000D01*
X123037221Y-83990000D02*
X123362779Y-83990000D01*
X109560000Y-93612779D02*
X109560000Y-93287221D01*
X108540000Y-93612779D02*
X108540000Y-93287221D01*
X111340000Y-97737221D02*
X111340000Y-98062779D01*
X112360000Y-97737221D02*
X112360000Y-98062779D01*
X119437221Y-94710000D02*
X119762779Y-94710000D01*
X119437221Y-93690000D02*
X119762779Y-93690000D01*
X112890000Y-97337221D02*
X112890000Y-97662779D01*
X113910000Y-97337221D02*
X113910000Y-97662779D01*
D14*
X108519904Y-95099523D02*
X109167523Y-95099523D01*
X109243714Y-95061428D01*
X109281809Y-95023333D01*
X109319904Y-94947142D01*
X109319904Y-94794761D01*
X109281809Y-94718571D01*
X109243714Y-94680476D01*
X109167523Y-94642380D01*
X108519904Y-94642380D01*
X108519904Y-93918571D02*
X108519904Y-94070952D01*
X108558000Y-94147142D01*
X108596095Y-94185238D01*
X108710380Y-94261428D01*
X108862761Y-94299523D01*
X109167523Y-94299523D01*
X109243714Y-94261428D01*
X109281809Y-94223333D01*
X109319904Y-94147142D01*
X109319904Y-93994761D01*
X109281809Y-93918571D01*
X109243714Y-93880476D01*
X109167523Y-93842380D01*
X108977047Y-93842380D01*
X108900857Y-93880476D01*
X108862761Y-93918571D01*
X108824666Y-93994761D01*
X108824666Y-94147142D01*
X108862761Y-94223333D01*
X108900857Y-94261428D01*
X108977047Y-94299523D01*
D10*
X120766666Y-74911904D02*
X120766666Y-75483333D01*
X120733333Y-75597619D01*
X120666666Y-75673809D01*
X120566666Y-75711904D01*
X120500000Y-75711904D01*
X121033333Y-74911904D02*
X121466666Y-74911904D01*
X121233333Y-75216666D01*
X121333333Y-75216666D01*
X121400000Y-75254761D01*
X121433333Y-75292857D01*
X121466666Y-75369047D01*
X121466666Y-75559523D01*
X121433333Y-75635714D01*
X121400000Y-75673809D01*
X121333333Y-75711904D01*
X121133333Y-75711904D01*
X121066666Y-75673809D01*
X121033333Y-75635714D01*
X100352380Y-90861904D02*
X101161904Y-90861904D01*
X101257142Y-90814285D01*
X101304761Y-90766666D01*
X101352380Y-90671428D01*
X101352380Y-90480952D01*
X101304761Y-90385714D01*
X101257142Y-90338095D01*
X101161904Y-90290476D01*
X100352380Y-90290476D01*
X100685714Y-89385714D02*
X101352380Y-89385714D01*
X100304761Y-89623809D02*
X101019047Y-89861904D01*
X101019047Y-89242857D01*
X106138095Y-78202380D02*
X106138095Y-79011904D01*
X106185714Y-79107142D01*
X106233333Y-79154761D01*
X106328571Y-79202380D01*
X106519047Y-79202380D01*
X106614285Y-79154761D01*
X106661904Y-79107142D01*
X106709523Y-79011904D01*
X106709523Y-78202380D01*
X107090476Y-78202380D02*
X107709523Y-78202380D01*
X107376190Y-78583333D01*
X107519047Y-78583333D01*
X107614285Y-78630952D01*
X107661904Y-78678571D01*
X107709523Y-78773809D01*
X107709523Y-79011904D01*
X107661904Y-79107142D01*
X107614285Y-79154761D01*
X107519047Y-79202380D01*
X107233333Y-79202380D01*
X107138095Y-79154761D01*
X107090476Y-79107142D01*
X111826190Y-74726190D02*
X112302380Y-74726190D01*
X111302380Y-75059523D02*
X111826190Y-74726190D01*
X111302380Y-74392857D01*
X112302380Y-73535714D02*
X112302380Y-74107142D01*
X112302380Y-73821428D02*
X111302380Y-73821428D01*
X111445238Y-73916666D01*
X111540476Y-74011904D01*
X111588095Y-74107142D01*
X111087699Y-95252096D02*
X111087699Y-96062040D01*
X111135342Y-96157328D01*
X111182986Y-96204972D01*
X111278274Y-96252616D01*
X111468849Y-96252616D01*
X111564137Y-96204972D01*
X111611780Y-96157328D01*
X111659424Y-96062040D01*
X111659424Y-95252096D01*
X112088219Y-95347383D02*
X112135862Y-95299740D01*
X112231150Y-95252096D01*
X112469369Y-95252096D01*
X112564657Y-95299740D01*
X112612300Y-95347383D01*
X112659944Y-95442671D01*
X112659944Y-95537959D01*
X112612300Y-95680890D01*
X112040575Y-96252616D01*
X112659944Y-96252616D01*
X115388095Y-91852380D02*
X115388095Y-92661904D01*
X115435714Y-92757142D01*
X115483333Y-92804761D01*
X115578571Y-92852380D01*
X115769047Y-92852380D01*
X115864285Y-92804761D01*
X115911904Y-92757142D01*
X115959523Y-92661904D01*
X115959523Y-91852380D01*
X116959523Y-92852380D02*
X116388095Y-92852380D01*
X116673809Y-92852380D02*
X116673809Y-91852380D01*
X116578571Y-91995238D01*
X116483333Y-92090476D01*
X116388095Y-92138095D01*
X106266666Y-75802380D02*
X106266666Y-76516666D01*
X106219047Y-76659523D01*
X106123809Y-76754761D01*
X105980952Y-76802380D01*
X105885714Y-76802380D01*
X107171428Y-76135714D02*
X107171428Y-76802380D01*
X106933333Y-75754761D02*
X106695238Y-76469047D01*
X107314285Y-76469047D01*
X119611904Y-99533333D02*
X120183333Y-99533333D01*
X120297619Y-99566666D01*
X120373809Y-99633333D01*
X120411904Y-99733333D01*
X120411904Y-99800000D01*
X119688095Y-99233333D02*
X119650000Y-99200000D01*
X119611904Y-99133333D01*
X119611904Y-98966666D01*
X119650000Y-98900000D01*
X119688095Y-98866666D01*
X119764285Y-98833333D01*
X119840476Y-98833333D01*
X119954761Y-98866666D01*
X120411904Y-99266666D01*
X120411904Y-98833333D01*
X116616666Y-96861904D02*
X116616666Y-97433333D01*
X116583333Y-97547619D01*
X116516666Y-97623809D01*
X116416666Y-97661904D01*
X116350000Y-97661904D01*
X117316666Y-97661904D02*
X116916666Y-97661904D01*
X117116666Y-97661904D02*
X117116666Y-96861904D01*
X117050000Y-96976190D01*
X116983333Y-97052380D01*
X116916666Y-97090476D01*
M02*
