%!PS-Adobe-3.0
%%Creator: PCBNEW
%%CreationDate: Fri May  1 14:48:49 2020
%%Title: /home/bastian/Projects/TheFullStack/cat-hardware/catracker/CAT_Rev1/catracker-NPTH-drl_map.ps
%%Pages: 1
%%PageOrder: Ascend
%%BoundingBox: 0 0 596 842
%%DocumentMedia: A4 595 842 0 () ()
%%Orientation: Landscape
%%EndComments
%%BeginProlog
/line { newpath moveto lineto stroke } bind def
/cir0 { newpath 0 360 arc stroke } bind def
/cir1 { newpath 0 360 arc gsave fill grestore stroke } bind def
/cir2 { newpath 0 360 arc gsave fill grestore stroke } bind def
/arc0 { newpath arc stroke } bind def
/arc1 { newpath 4 index 4 index moveto arc closepath gsave fill
    grestore stroke } bind def
/arc2 { newpath 4 index 4 index moveto arc closepath gsave fill
    grestore stroke } bind def
/poly0 { stroke } bind def
/poly1 { closepath gsave fill grestore stroke } bind def
/poly2 { closepath gsave fill grestore stroke } bind def
/rect0 { rectstroke } bind def
/rect1 { rectfill } bind def
/rect2 { rectfill } bind def
/linemode0 { 0 setlinecap 0 setlinejoin 0 setlinewidth } bind def
/linemode1 { 1 setlinecap 1 setlinejoin } bind def
/dashedline { [200] 100 setdash } bind def
/solidline { [] 0 setdash } bind def
/phantomshow { moveto
    /KicadFont findfont 0.000001 scalefont setfont
    show } bind def
/textshow { gsave
    findfont exch scalefont setfont concat 1 scale 0 0 moveto show
    } bind def
/reencodefont {
  findfont dup length dict begin
  { 1 index /FID ne
    { def }
    { pop pop } ifelse
  } forall
  /Encoding ISOLatin1Encoding def
  currentdict
  end } bind def
/KicadFont /Helvetica reencodefont definefont pop
/KicadFont-Bold /Helvetica-Bold reencodefont definefont pop
/KicadFont-Oblique /Helvetica-Oblique reencodefont definefont pop
/KicadFont-BoldOblique /Helvetica-BoldOblique reencodefont definefont pop
%%EndProlog
%%Page: 1 1
%%BeginPageSetup
gsave
0.0072 0.0072 scale
linemode1
82680 0 translate 90 rotate
150 setlinewidth
%%EndPageSetup
0 0 0 setrgbcolor
59.0551 setlinewidth
73819.3 49608.3 1181.1 -90 -0 arc0
0 0 0 setrgbcolor
45472.9 70868.1 3543.31 -90 -0 arc0
0 0 0 setrgbcolor
newpath
45472.9 67324.8 moveto
43110.7 67324.8 lineto
stroke
0 0 0 setrgbcolor
newpath
49016.2 70868.1 moveto
49016.2 73230.3 lineto
stroke
0 0 0 setrgbcolor
50197.3 73230.3 1181.1 90 180 arc0
0 0 0 setrgbcolor
43110.7 66143.7 1181.1 90 180 arc0
0 0 0 setrgbcolor
newpath
67913.8 44883.9 moveto
67913.8 42521.7 lineto
stroke
0 0 0 setrgbcolor
newpath
71457.1 48427.2 moveto
73819.3 48427.2 lineto
stroke
0 0 0 setrgbcolor
71457.1 44883.9 3543.31 90 180 arc0
0 0 0 setrgbcolor
66732.7 42521.7 1181.1 -90 -0 arc0
0 0 0 setrgbcolor
73819.3 73230.3 1181.1 -0 90 arc0
0 0 0 setrgbcolor
43110.7 42521.7 1181.1 180 270 arc0
0 0 0 setrgbcolor
newpath
41929.6 66143.7 moveto
41929.6 42521.7 lineto
stroke
0 0 0 setrgbcolor
newpath
73819.3 74411.4 moveto
50197.3 74411.4 lineto
stroke
0 0 0 setrgbcolor
newpath
75000.4 49608.3 moveto
75000.4 73230.3 lineto
stroke
0 0 0 setrgbcolor
newpath
43110.7 41340.6 moveto
66732.7 41340.6 lineto
stroke
78.7394 setlinewidth
newpath
43287.8 48840.6 moveto
45886.3 46242.1 lineto
stroke
newpath
45886.3 48840.6 moveto
43287.8 46242.1 lineto
stroke
newpath
71043.7 69509.9 moveto
73642.2 66911.4 lineto
stroke
newpath
73642.2 69509.9 moveto
71043.7 66911.4 lineto
stroke
118.11 setlinewidth
0 0 0 setrgbcolor
0 0 0 setrgbcolor
newpath
43027.7 39477.5 moveto
43027.7 40658.6 lineto
43308.9 40658.6 lineto
43477.7 40602.4 lineto
43590.1 40489.9 lineto
43646.4 40377.4 lineto
43702.6 40152.4 lineto
43702.6 39983.7 lineto
43646.4 39758.7 lineto
43590.1 39646.2 lineto
43477.7 39533.8 lineto
43308.9 39477.5 lineto
43027.7 39477.5 lineto
stroke
newpath
44208.8 39477.5 moveto
44208.8 40264.9 lineto
stroke
newpath
44208.8 40039.9 moveto
44265.1 40152.4 lineto
44321.3 40208.7 lineto
44433.8 40264.9 lineto
44546.3 40264.9 lineto
stroke
newpath
44940 39477.5 moveto
44940 40264.9 lineto
stroke
newpath
44940 40658.6 moveto
44883.7 40602.4 lineto
44940 40546.1 lineto
44996.2 40602.4 lineto
44940 40658.6 lineto
44940 40546.1 lineto
stroke
newpath
45671.1 39477.5 moveto
45558.6 39533.8 lineto
45502.4 39646.2 lineto
45502.4 40658.6 lineto
stroke
newpath
46289.8 39477.5 moveto
46177.3 39533.8 lineto
46121.1 39646.2 lineto
46121.1 40658.6 lineto
stroke
newpath
47639.6 39477.5 moveto
47639.6 40658.6 lineto
48033.3 39815 lineto
48427 40658.6 lineto
48427 39477.5 lineto
stroke
newpath
49495.7 39477.5 moveto
49495.7 40096.2 lineto
49439.4 40208.7 lineto
49326.9 40264.9 lineto
49102 40264.9 lineto
48989.5 40208.7 lineto
stroke
newpath
49495.7 39533.8 moveto
49383.2 39477.5 lineto
49102 39477.5 lineto
48989.5 39533.8 lineto
48933.2 39646.2 lineto
48933.2 39758.7 lineto
48989.5 39871.2 lineto
49102 39927.5 lineto
49383.2 39927.5 lineto
49495.7 39983.7 lineto
stroke
newpath
50058.1 40264.9 moveto
50058.1 39083.8 lineto
stroke
newpath
50058.1 40208.7 moveto
50170.6 40264.9 lineto
50395.5 40264.9 lineto
50508 40208.7 lineto
50564.3 40152.4 lineto
50620.5 40039.9 lineto
50620.5 39702.5 lineto
50564.3 39590 lineto
50508 39533.8 lineto
50395.5 39477.5 lineto
50170.6 39477.5 lineto
50058.1 39533.8 lineto
stroke
newpath
51126.7 39590 moveto
51182.9 39533.8 lineto
51126.7 39477.5 lineto
51070.5 39533.8 lineto
51126.7 39590 lineto
51126.7 39477.5 lineto
stroke
newpath
51126.7 40208.7 moveto
51182.9 40152.4 lineto
51126.7 40096.2 lineto
51070.5 40152.4 lineto
51126.7 40208.7 lineto
51126.7 40096.2 lineto
stroke
newpath
39301.6 38830.7 moveto
41900 36232.3 lineto
stroke
newpath
41900 38830.7 moveto
39301.6 36232.3 lineto
stroke
0 0 0 setrgbcolor
0 0 0 setrgbcolor
newpath
42971.5 38065.8 moveto
43027.7 38122.1 lineto
43140.2 38178.3 lineto
43421.4 38178.3 lineto
43533.9 38122.1 lineto
43590.1 38065.8 lineto
43646.4 37953.3 lineto
43646.4 37840.8 lineto
43590.1 37672.1 lineto
42915.2 36997.2 lineto
43646.4 36997.2 lineto
stroke
newpath
44152.6 37109.7 moveto
44208.8 37053.4 lineto
44152.6 36997.2 lineto
44096.3 37053.4 lineto
44152.6 37109.7 lineto
44152.6 36997.2 lineto
stroke
newpath
44658.8 38065.8 moveto
44715 38122.1 lineto
44827.5 38178.3 lineto
45108.7 38178.3 lineto
45221.2 38122.1 lineto
45277.4 38065.8 lineto
45333.7 37953.3 lineto
45333.7 37840.8 lineto
45277.4 37672.1 lineto
44602.5 36997.2 lineto
45333.7 36997.2 lineto
stroke
newpath
46064.8 38178.3 moveto
46177.3 38178.3 lineto
46289.8 38122.1 lineto
46346 38065.8 lineto
46402.3 37953.3 lineto
46458.5 37728.4 lineto
46458.5 37447.1 lineto
46402.3 37222.2 lineto
46346 37109.7 lineto
46289.8 37053.4 lineto
46177.3 36997.2 lineto
46064.8 36997.2 lineto
45952.3 37053.4 lineto
45896.1 37109.7 lineto
45839.9 37222.2 lineto
45783.6 37447.1 lineto
45783.6 37728.4 lineto
45839.9 37953.3 lineto
45896.1 38065.8 lineto
45952.3 38122.1 lineto
46064.8 38178.3 lineto
stroke
newpath
46964.7 36997.2 moveto
46964.7 37784.6 lineto
stroke
newpath
46964.7 37672.1 moveto
47021 37728.4 lineto
47133.4 37784.6 lineto
47302.2 37784.6 lineto
47414.7 37728.4 lineto
47470.9 37615.9 lineto
47470.9 36997.2 lineto
stroke
newpath
47470.9 37615.9 moveto
47527.1 37728.4 lineto
47639.6 37784.6 lineto
47808.4 37784.6 lineto
47920.8 37728.4 lineto
47977.1 37615.9 lineto
47977.1 36997.2 lineto
stroke
newpath
48539.5 36997.2 moveto
48539.5 37784.6 lineto
stroke
newpath
48539.5 37672.1 moveto
48595.8 37728.4 lineto
48708.3 37784.6 lineto
48877 37784.6 lineto
48989.5 37728.4 lineto
49045.7 37615.9 lineto
49045.7 36997.2 lineto
stroke
newpath
49045.7 37615.9 moveto
49102 37728.4 lineto
49214.4 37784.6 lineto
49383.2 37784.6 lineto
49495.7 37728.4 lineto
49551.9 37615.9 lineto
49551.9 36997.2 lineto
stroke
newpath
51857.9 38234.5 moveto
50845.5 36716 lineto
stroke
newpath
53376.4 38178.3 moveto
53488.9 38178.3 lineto
53601.4 38122.1 lineto
53657.6 38065.8 lineto
53713.9 37953.3 lineto
53770.1 37728.4 lineto
53770.1 37447.1 lineto
53713.9 37222.2 lineto
53657.6 37109.7 lineto
53601.4 37053.4 lineto
53488.9 36997.2 lineto
53376.4 36997.2 lineto
53263.9 37053.4 lineto
53207.7 37109.7 lineto
53151.4 37222.2 lineto
53095.2 37447.1 lineto
53095.2 37728.4 lineto
53151.4 37953.3 lineto
53207.7 38065.8 lineto
53263.9 38122.1 lineto
53376.4 38178.3 lineto
stroke
newpath
54276.3 37109.7 moveto
54332.5 37053.4 lineto
54276.3 36997.2 lineto
54220.1 37053.4 lineto
54276.3 37109.7 lineto
54276.3 36997.2 lineto
stroke
newpath
55063.7 38178.3 moveto
55176.2 38178.3 lineto
55288.7 38122.1 lineto
55344.9 38065.8 lineto
55401.2 37953.3 lineto
55457.4 37728.4 lineto
55457.4 37447.1 lineto
55401.2 37222.2 lineto
55344.9 37109.7 lineto
55288.7 37053.4 lineto
55176.2 36997.2 lineto
55063.7 36997.2 lineto
54951.2 37053.4 lineto
54895 37109.7 lineto
54838.7 37222.2 lineto
54782.5 37447.1 lineto
54782.5 37728.4 lineto
54838.7 37953.3 lineto
54895 38065.8 lineto
54951.2 38122.1 lineto
55063.7 38178.3 lineto
stroke
newpath
56132.3 37672.1 moveto
56019.8 37728.4 lineto
55963.6 37784.6 lineto
55907.4 37897.1 lineto
55907.4 37953.3 lineto
55963.6 38065.8 lineto
56019.8 38122.1 lineto
56132.3 38178.3 lineto
56357.3 38178.3 lineto
56469.8 38122.1 lineto
56526 38065.8 lineto
56582.3 37953.3 lineto
56582.3 37897.1 lineto
56526 37784.6 lineto
56469.8 37728.4 lineto
56357.3 37672.1 lineto
56132.3 37672.1 lineto
56019.8 37615.9 lineto
55963.6 37559.6 lineto
55907.4 37447.1 lineto
55907.4 37222.2 lineto
55963.6 37109.7 lineto
56019.8 37053.4 lineto
56132.3 36997.2 lineto
56357.3 36997.2 lineto
56469.8 37053.4 lineto
56526 37109.7 lineto
56582.3 37222.2 lineto
56582.3 37447.1 lineto
56526 37559.6 lineto
56469.8 37615.9 lineto
56357.3 37672.1 lineto
stroke
newpath
56976 38178.3 moveto
57763.4 38178.3 lineto
57257.2 36997.2 lineto
stroke
newpath
58157.1 38178.3 moveto
58157.1 37953.3 lineto
stroke
newpath
58607 38178.3 moveto
58607 37953.3 lineto
stroke
newpath
60350.5 36547.3 moveto
60294.3 36603.5 lineto
60181.8 36772.2 lineto
60125.6 36884.7 lineto
60069.3 37053.4 lineto
60013.1 37334.7 lineto
60013.1 37559.6 lineto
60069.3 37840.8 lineto
60125.6 38009.6 lineto
60181.8 38122.1 lineto
60294.3 38290.8 lineto
60350.5 38347 lineto
stroke
newpath
60744.2 38065.8 moveto
60800.5 38122.1 lineto
60913 38178.3 lineto
61194.2 38178.3 lineto
61306.7 38122.1 lineto
61362.9 38065.8 lineto
61419.2 37953.3 lineto
61419.2 37840.8 lineto
61362.9 37672.1 lineto
60688 36997.2 lineto
61419.2 36997.2 lineto
stroke
newpath
62825.2 36997.2 moveto
62825.2 38178.3 lineto
stroke
newpath
63331.4 36997.2 moveto
63331.4 37615.9 lineto
63275.2 37728.4 lineto
63162.7 37784.6 lineto
62994 37784.6 lineto
62881.5 37728.4 lineto
62825.2 37672.1 lineto
stroke
newpath
64062.6 36997.2 moveto
63950.1 37053.4 lineto
63893.9 37109.7 lineto
63837.6 37222.2 lineto
63837.6 37559.6 lineto
63893.9 37672.1 lineto
63950.1 37728.4 lineto
64062.6 37784.6 lineto
64231.3 37784.6 lineto
64343.8 37728.4 lineto
64400 37672.1 lineto
64456.3 37559.6 lineto
64456.3 37222.2 lineto
64400 37109.7 lineto
64343.8 37053.4 lineto
64231.3 36997.2 lineto
64062.6 36997.2 lineto
stroke
newpath
65131.2 36997.2 moveto
65018.7 37053.4 lineto
64962.5 37165.9 lineto
64962.5 38178.3 lineto
stroke
newpath
66031.1 37053.4 moveto
65918.6 36997.2 lineto
65693.6 36997.2 lineto
65581.1 37053.4 lineto
65524.9 37165.9 lineto
65524.9 37615.9 lineto
65581.1 37728.4 lineto
65693.6 37784.6 lineto
65918.6 37784.6 lineto
66031.1 37728.4 lineto
66087.3 37615.9 lineto
66087.3 37503.4 lineto
65524.9 37390.9 lineto
stroke
newpath
66537.3 37053.4 moveto
66649.8 36997.2 lineto
66874.7 36997.2 lineto
66987.2 37053.4 lineto
67043.5 37165.9 lineto
67043.5 37222.2 lineto
66987.2 37334.7 lineto
66874.7 37390.9 lineto
66706 37390.9 lineto
66593.5 37447.1 lineto
66537.3 37559.6 lineto
66537.3 37615.9 lineto
66593.5 37728.4 lineto
66706 37784.6 lineto
66874.7 37784.6 lineto
66987.2 37728.4 lineto
stroke
newpath
67437.2 36547.3 moveto
67493.4 36603.5 lineto
67605.9 36772.2 lineto
67662.1 36884.7 lineto
67718.4 37053.4 lineto
67774.6 37334.7 lineto
67774.6 37559.6 lineto
67718.4 37840.8 lineto
67662.1 38009.6 lineto
67605.9 38122.1 lineto
67493.4 38290.8 lineto
67437.2 38347 lineto
stroke
newpath
69574.4 36547.3 moveto
69518.1 36603.5 lineto
69405.7 36772.2 lineto
69349.4 36884.7 lineto
69293.2 37053.4 lineto
69236.9 37334.7 lineto
69236.9 37559.6 lineto
69293.2 37840.8 lineto
69349.4 38009.6 lineto
69405.7 38122.1 lineto
69518.1 38290.8 lineto
69574.4 38347 lineto
stroke
newpath
70024.3 37784.6 moveto
70024.3 36997.2 lineto
stroke
newpath
70024.3 37672.1 moveto
70080.6 37728.4 lineto
70193.1 37784.6 lineto
70361.8 37784.6 lineto
70474.3 37728.4 lineto
70530.5 37615.9 lineto
70530.5 36997.2 lineto
stroke
newpath
71261.7 36997.2 moveto
71149.2 37053.4 lineto
71093 37109.7 lineto
71036.7 37222.2 lineto
71036.7 37559.6 lineto
71093 37672.1 lineto
71149.2 37728.4 lineto
71261.7 37784.6 lineto
71430.4 37784.6 lineto
71542.9 37728.4 lineto
71599.1 37672.1 lineto
71655.4 37559.6 lineto
71655.4 37222.2 lineto
71599.1 37109.7 lineto
71542.9 37053.4 lineto
71430.4 36997.2 lineto
71261.7 36997.2 lineto
stroke
newpath
71992.8 37784.6 moveto
72442.8 37784.6 lineto
stroke
newpath
72161.6 38178.3 moveto
72161.6 37165.9 lineto
72217.8 37053.4 lineto
72330.3 36997.2 lineto
72442.8 36997.2 lineto
stroke
newpath
73736.4 37784.6 moveto
73736.4 36603.5 lineto
stroke
newpath
73736.4 37728.4 moveto
73848.9 37784.6 lineto
74073.8 37784.6 lineto
74186.3 37728.4 lineto
74242.6 37672.1 lineto
74298.8 37559.6 lineto
74298.8 37222.2 lineto
74242.6 37109.7 lineto
74186.3 37053.4 lineto
74073.8 36997.2 lineto
73848.9 36997.2 lineto
73736.4 37053.4 lineto
stroke
newpath
74973.7 36997.2 moveto
74861.2 37053.4 lineto
74805 37165.9 lineto
74805 38178.3 lineto
stroke
newpath
75929.8 36997.2 moveto
75929.8 37615.9 lineto
75873.6 37728.4 lineto
75761.1 37784.6 lineto
75536.1 37784.6 lineto
75423.7 37728.4 lineto
stroke
newpath
75929.8 37053.4 moveto
75817.4 36997.2 lineto
75536.1 36997.2 lineto
75423.7 37053.4 lineto
75367.4 37165.9 lineto
75367.4 37278.4 lineto
75423.7 37390.9 lineto
75536.1 37447.1 lineto
75817.4 37447.1 lineto
75929.8 37503.4 lineto
stroke
newpath
76323.5 37784.6 moveto
76773.5 37784.6 lineto
stroke
newpath
76492.3 38178.3 moveto
76492.3 37165.9 lineto
76548.5 37053.4 lineto
76661 36997.2 lineto
76773.5 36997.2 lineto
stroke
newpath
77617.1 37053.4 moveto
77504.7 36997.2 lineto
77279.7 36997.2 lineto
77167.2 37053.4 lineto
77110.9 37165.9 lineto
77110.9 37615.9 lineto
77167.2 37728.4 lineto
77279.7 37784.6 lineto
77504.7 37784.6 lineto
77617.1 37728.4 lineto
77673.4 37615.9 lineto
77673.4 37503.4 lineto
77110.9 37390.9 lineto
stroke
newpath
78685.8 36997.2 moveto
78685.8 38178.3 lineto
stroke
newpath
78685.8 37053.4 moveto
78573.3 36997.2 lineto
78348.3 36997.2 lineto
78235.8 37053.4 lineto
78179.6 37109.7 lineto
78123.3 37222.2 lineto
78123.3 37559.6 lineto
78179.6 37672.1 lineto
78235.8 37728.4 lineto
78348.3 37784.6 lineto
78573.3 37784.6 lineto
78685.8 37728.4 lineto
stroke
newpath
79135.7 36547.3 moveto
79191.9 36603.5 lineto
79304.4 36772.2 lineto
79360.7 36884.7 lineto
79416.9 37053.4 lineto
79473.2 37334.7 lineto
79473.2 37559.6 lineto
79416.9 37840.8 lineto
79360.7 38009.6 lineto
79304.4 38122.1 lineto
79191.9 38290.8 lineto
79135.7 38347 lineto
stroke
showpage
grestore
%%EOF
