%!PS-Adobe-3.0
%%Creator: PCBNEW
%%CreationDate: Fri May  1 14:48:49 2020
%%Title: /home/bastian/Projects/TheFullStack/cat-hardware/catracker/CAT_Rev1/catracker-PTH-drl_map.ps
%%Pages: 1
%%PageOrder: Ascend
%%BoundingBox: 0 0 596 842
%%DocumentMedia: A4 595 842 0 () ()
%%Orientation: Landscape
%%EndComments
%%BeginProlog
/line { newpath moveto lineto stroke } bind def
/cir0 { newpath 0 360 arc stroke } bind def
/cir1 { newpath 0 360 arc gsave fill grestore stroke } bind def
/cir2 { newpath 0 360 arc gsave fill grestore stroke } bind def
/arc0 { newpath arc stroke } bind def
/arc1 { newpath 4 index 4 index moveto arc closepath gsave fill
    grestore stroke } bind def
/arc2 { newpath 4 index 4 index moveto arc closepath gsave fill
    grestore stroke } bind def
/poly0 { stroke } bind def
/poly1 { closepath gsave fill grestore stroke } bind def
/poly2 { closepath gsave fill grestore stroke } bind def
/rect0 { rectstroke } bind def
/rect1 { rectfill } bind def
/rect2 { rectfill } bind def
/linemode0 { 0 setlinecap 0 setlinejoin 0 setlinewidth } bind def
/linemode1 { 1 setlinecap 1 setlinejoin } bind def
/dashedline { [200] 100 setdash } bind def
/solidline { [] 0 setdash } bind def
/phantomshow { moveto
    /KicadFont findfont 0.000001 scalefont setfont
    show } bind def
/textshow { gsave
    findfont exch scalefont setfont concat 1 scale 0 0 moveto show
    } bind def
/reencodefont {
  findfont dup length dict begin
  { 1 index /FID ne
    { def }
    { pop pop } ifelse
  } forall
  /Encoding ISOLatin1Encoding def
  currentdict
  end } bind def
/KicadFont /Helvetica reencodefont definefont pop
/KicadFont-Bold /Helvetica-Bold reencodefont definefont pop
/KicadFont-Oblique /Helvetica-Oblique reencodefont definefont pop
/KicadFont-BoldOblique /Helvetica-BoldOblique reencodefont definefont pop
%%EndProlog
%%Page: 1 1
%%BeginPageSetup
gsave
0.0072 0.0072 scale
linemode1
82680 0 translate 90 rotate
150 setlinewidth
%%EndPageSetup
0 0 0 setrgbcolor
59.0551 setlinewidth
73819.3 49608.3 1181.1 -90 -0 arc0
0 0 0 setrgbcolor
45472.9 70868.1 3543.31 -90 -0 arc0
0 0 0 setrgbcolor
newpath
45472.9 67324.8 moveto
43110.7 67324.8 lineto
stroke
0 0 0 setrgbcolor
newpath
49016.2 70868.1 moveto
49016.2 73230.3 lineto
stroke
0 0 0 setrgbcolor
50197.3 73230.3 1181.1 90 180 arc0
0 0 0 setrgbcolor
43110.7 66143.7 1181.1 90 180 arc0
0 0 0 setrgbcolor
newpath
67913.8 44883.9 moveto
67913.8 42521.7 lineto
stroke
0 0 0 setrgbcolor
newpath
71457.1 48427.2 moveto
73819.3 48427.2 lineto
stroke
0 0 0 setrgbcolor
71457.1 44883.9 3543.31 90 180 arc0
0 0 0 setrgbcolor
66732.7 42521.7 1181.1 -90 -0 arc0
0 0 0 setrgbcolor
73819.3 73230.3 1181.1 -0 90 arc0
0 0 0 setrgbcolor
43110.7 42521.7 1181.1 180 270 arc0
0 0 0 setrgbcolor
newpath
41929.6 66143.7 moveto
41929.6 42521.7 lineto
stroke
0 0 0 setrgbcolor
newpath
73819.3 74411.4 moveto
50197.3 74411.4 lineto
stroke
0 0 0 setrgbcolor
newpath
75000.4 49608.3 moveto
75000.4 73230.3 lineto
stroke
0 0 0 setrgbcolor
newpath
43110.7 41340.6 moveto
66732.7 41340.6 lineto
stroke
78.7394 setlinewidth
newpath
42461.1 44824.8 moveto
42933.5 44352.4 lineto
stroke
newpath
42933.5 44824.8 moveto
42461.1 44352.4 lineto
stroke
newpath
42520.1 50376 moveto
42992.6 49903.6 lineto
stroke
newpath
42992.6 50376 moveto
42520.1 49903.6 lineto
stroke
newpath
42579.2 57462.6 moveto
43051.6 56990.2 lineto
stroke
newpath
43051.6 57462.6 moveto
42579.2 56990.2 lineto
stroke
newpath
42992.6 54509.9 moveto
43465 54037.4 lineto
stroke
newpath
43465 54509.9 moveto
42992.6 54037.4 lineto
stroke
newpath
42992.6 56104.3 moveto
43465 55631.9 lineto
stroke
newpath
43465 56104.3 moveto
42992.6 55631.9 lineto
stroke
newpath
42992.6 53210.6 moveto
43465 52738.2 lineto
stroke
newpath
43465 53210.6 moveto
42992.6 52738.2 lineto
stroke
newpath
43051.6 59175.2 moveto
43524.1 58702.8 lineto
stroke
newpath
43524.1 59175.2 moveto
43051.6 58702.8 lineto
stroke
newpath
43169.7 51616.2 moveto
43642.2 51143.7 lineto
stroke
newpath
43642.2 51616.2 moveto
43169.7 51143.7 lineto
stroke
newpath
43465 65080.7 moveto
43937.4 64608.3 lineto
stroke
newpath
43937.4 65080.7 moveto
43465 64608.3 lineto
stroke
newpath
43465 63250 moveto
43937.4 62777.6 lineto
stroke
newpath
43937.4 63250 moveto
43465 62777.6 lineto
stroke
newpath
43465 61419.3 moveto
43937.4 60946.9 lineto
stroke
newpath
43937.4 61419.3 moveto
43465 60946.9 lineto
stroke
newpath
44941.4 60061 moveto
45413.8 59588.6 lineto
stroke
newpath
45413.8 60061 moveto
44941.4 59588.6 lineto
stroke
newpath
45043.6 55732.5 moveto
45516.1 55260.1 lineto
stroke
newpath
45516.1 55732.5 moveto
45043.6 55260.1 lineto
stroke
newpath
45230 54566.2 moveto
45702.4 54093.8 lineto
stroke
newpath
45702.4 54566.2 moveto
45230 54093.8 lineto
stroke
newpath
45709.1 52856.3 moveto
46181.5 52383.9 lineto
stroke
newpath
46181.5 52856.3 moveto
45709.1 52383.9 lineto
stroke
newpath
46299.6 45002 moveto
46772.1 44529.5 lineto
stroke
newpath
46772.1 45002 moveto
46299.6 44529.5 lineto
stroke
newpath
46358.7 43466.6 moveto
46831.1 42994.1 lineto
stroke
newpath
46831.1 43466.6 moveto
46358.7 42994.1 lineto
stroke
newpath
46476.8 55868.1 moveto
46949.3 55395.7 lineto
stroke
newpath
46949.3 55868.1 moveto
46476.8 55395.7 lineto
stroke
newpath
46713 66675.2 moveto
47185.5 66202.8 lineto
stroke
newpath
47185.5 66675.2 moveto
46713 66202.8 lineto
stroke
newpath
46713 60120.1 moveto
47185.5 59647.7 lineto
stroke
newpath
47185.5 60120.1 moveto
46713 59647.7 lineto
stroke
newpath
46978.8 50337.5 moveto
47451.2 49865.1 lineto
stroke
newpath
47451.2 50337.5 moveto
46978.8 49865.1 lineto
stroke
newpath
47377.2 48323.6 moveto
47849.7 47851.2 lineto
stroke
newpath
47849.7 48323.6 moveto
47377.2 47851.2 lineto
stroke
newpath
47421.7 55868.1 moveto
47894.1 55395.7 lineto
stroke
newpath
47894.1 55868.1 moveto
47421.7 55395.7 lineto
stroke
newpath
48543.7 60120.1 moveto
49016.2 59647.7 lineto
stroke
newpath
49016.2 60120.1 moveto
48543.7 59647.7 lineto
stroke
newpath
49045.7 51489.6 moveto
49518.2 51017.2 lineto
stroke
newpath
49518.2 51489.6 moveto
49045.7 51017.2 lineto
stroke
newpath
49075.2 44706.7 moveto
49547.7 44234.3 lineto
stroke
newpath
49547.7 44706.7 moveto
49075.2 44234.3 lineto
stroke
newpath
49093.8 46024.4 moveto
49566.2 45552 lineto
stroke
newpath
49566.2 46024.4 moveto
49093.8 45552 lineto
stroke
newpath
49370.5 70572.9 moveto
49843 70100.4 lineto
stroke
newpath
49843 70572.9 moveto
49370.5 70100.4 lineto
stroke
newpath
49538 48357.8 moveto
50010.4 47885.4 lineto
stroke
newpath
50010.4 48357.8 moveto
49538 47885.4 lineto
stroke
newpath
50197.3 55750 moveto
50669.7 55277.6 lineto
stroke
newpath
50669.7 55750 moveto
50197.3 55277.6 lineto
stroke
newpath
50225 51423 moveto
50697.4 50950.6 lineto
stroke
newpath
50697.4 51423 moveto
50225 50950.6 lineto
stroke
newpath
50256.3 60120.1 moveto
50728.8 59647.7 lineto
stroke
newpath
50728.8 60120.1 moveto
50256.3 59647.7 lineto
stroke
newpath
50256.3 42315 moveto
50728.8 41842.6 lineto
stroke
newpath
50728.8 42315 moveto
50256.3 41842.6 lineto
stroke
newpath
50433.5 68446.9 moveto
50905.9 67974.4 lineto
stroke
newpath
50905.9 68446.9 moveto
50433.5 67974.4 lineto
stroke
newpath
50965 44529.5 moveto
51437.4 44057.1 lineto
stroke
newpath
51437.4 44529.5 moveto
50965 44057.1 lineto
stroke
newpath
51407.9 47009.9 moveto
51880.4 46537.4 lineto
stroke
newpath
51880.4 47009.9 moveto
51407.9 46537.4 lineto
stroke
newpath
51496.5 61773.6 moveto
51968.9 61301.2 lineto
stroke
newpath
51968.9 61773.6 moveto
51496.5 61301.2 lineto
stroke
newpath
51850.8 51911.4 moveto
52323.3 51439 lineto
stroke
newpath
52323.3 51911.4 moveto
51850.8 51439 lineto
stroke
newpath
52589 47009.9 moveto
53061.5 46537.4 lineto
stroke
newpath
53061.5 47009.9 moveto
52589 46537.4 lineto
stroke
newpath
54919.7 51381.4 moveto
55392.1 50908.9 lineto
stroke
newpath
55392.1 51381.4 moveto
54919.7 50908.9 lineto
stroke
newpath
55689.4 46301.2 moveto
56161.9 45828.8 lineto
stroke
newpath
56161.9 46301.2 moveto
55689.4 45828.8 lineto
stroke
newpath
55807.5 73230.3 moveto
56280 72757.9 lineto
stroke
newpath
56280 73230.3 moveto
55807.5 72757.9 lineto
stroke
newpath
56241.9 51224 moveto
56714.3 50751.6 lineto
stroke
newpath
56714.3 51224 moveto
56241.9 50751.6 lineto
stroke
newpath
56339 72108.3 moveto
56811.5 71635.8 lineto
stroke
newpath
56811.5 72108.3 moveto
56339 71635.8 lineto
stroke
newpath
56339 56990.2 moveto
56811.5 56517.7 lineto
stroke
newpath
56811.5 56990.2 moveto
56339 56517.7 lineto
stroke
newpath
57165.8 63191 moveto
57638.2 62718.5 lineto
stroke
newpath
57638.2 63191 moveto
57165.8 62718.5 lineto
stroke
newpath
57224.8 66261.8 moveto
57697.3 65789.4 lineto
stroke
newpath
57697.3 66261.8 moveto
57224.8 65789.4 lineto
stroke
newpath
57520.1 42521.7 moveto
57992.6 42049.2 lineto
stroke
newpath
57992.6 42521.7 moveto
57520.1 42049.2 lineto
stroke
newpath
57545.8 50666.2 moveto
58018.2 50193.8 lineto
stroke
newpath
58018.2 50666.2 moveto
57545.8 50193.8 lineto
stroke
newpath
57815.4 61419.3 moveto
58287.8 60946.9 lineto
stroke
newpath
58287.8 61419.3 moveto
57815.4 60946.9 lineto
stroke
newpath
57815.4 58466.6 moveto
58287.8 57994.1 lineto
stroke
newpath
58287.8 58466.6 moveto
57815.4 57994.1 lineto
stroke
newpath
57815.4 55513.8 moveto
58287.8 55041.4 lineto
stroke
newpath
58287.8 55513.8 moveto
57815.4 55041.4 lineto
stroke
newpath
58626.1 51143.7 moveto
59098.5 50671.3 lineto
stroke
newpath
59098.5 51143.7 moveto
58626.1 50671.3 lineto
stroke
newpath
58885.3 53476.4 moveto
59357.7 53003.9 lineto
stroke
newpath
59357.7 53476.4 moveto
58885.3 53003.9 lineto
stroke
newpath
58937.4 63191 moveto
59409.9 62718.5 lineto
stroke
newpath
59409.9 63191 moveto
58937.4 62718.5 lineto
stroke
newpath
59291.8 56990.2 moveto
59764.2 56517.7 lineto
stroke
newpath
59764.2 56990.2 moveto
59291.8 56517.7 lineto
stroke
newpath
59587 71045.3 moveto
60059.5 70572.9 lineto
stroke
newpath
60059.5 71045.3 moveto
59587 70572.9 lineto
stroke
newpath
60066.4 53476.4 moveto
60538.9 53003.9 lineto
stroke
newpath
60538.9 53476.4 moveto
60066.4 53003.9 lineto
stroke
newpath
60177.6 66439 moveto
60650 65966.6 lineto
stroke
newpath
60650 66439 moveto
60177.6 65966.6 lineto
stroke
newpath
60709.1 63072.9 moveto
61181.5 62600.4 lineto
stroke
newpath
61181.5 63072.9 moveto
60709.1 62600.4 lineto
stroke
newpath
60709.1 50671.3 moveto
61181.5 50198.8 lineto
stroke
newpath
61181.5 50671.3 moveto
60709.1 50198.8 lineto
stroke
newpath
60768.2 61419.3 moveto
61240.6 60946.9 lineto
stroke
newpath
61240.6 61419.3 moveto
60768.2 60946.9 lineto
stroke
newpath
60768.2 58466.6 moveto
61240.6 57994.1 lineto
stroke
newpath
61240.6 58466.6 moveto
60768.2 57994.1 lineto
stroke
newpath
60768.2 55513.8 moveto
61240.6 55041.4 lineto
stroke
newpath
61240.6 55513.8 moveto
60768.2 55041.4 lineto
stroke
newpath
61417.8 65966.6 moveto
61890.2 65494.1 lineto
stroke
newpath
61890.2 65966.6 moveto
61417.8 65494.1 lineto
stroke
newpath
62008.3 63250 moveto
62480.7 62777.6 lineto
stroke
newpath
62480.7 63250 moveto
62008.3 62777.6 lineto
stroke
newpath
62244.5 56990.2 moveto
62717 56517.7 lineto
stroke
newpath
62717 56990.2 moveto
62244.5 56517.7 lineto
stroke
newpath
62362.6 66734.3 moveto
62835.1 66261.8 lineto
stroke
newpath
62835.1 66734.3 moveto
62362.6 66261.8 lineto
stroke
newpath
62598.9 50494.1 moveto
63071.3 50021.7 lineto
stroke
newpath
63071.3 50494.1 moveto
62598.9 50021.7 lineto
stroke
newpath
63898.1 61596.5 moveto
64370.5 61124 lineto
stroke
newpath
64370.5 61596.5 moveto
63898.1 61124 lineto
stroke
newpath
63970.3 62898.8 moveto
64442.7 62426.3 lineto
stroke
newpath
64442.7 62898.8 moveto
63970.3 62426.3 lineto
stroke
newpath
64193.3 66734.3 moveto
64665.8 66261.8 lineto
stroke
newpath
64665.8 66734.3 moveto
64193.3 66261.8 lineto
stroke
newpath
64710.3 56059.9 moveto
65182.7 55587.4 lineto
stroke
newpath
65182.7 56059.9 moveto
64710.3 55587.4 lineto
stroke
newpath
64724.8 54214.6 moveto
65197.3 53742.1 lineto
stroke
newpath
65197.3 54214.6 moveto
64724.8 53742.1 lineto
stroke
newpath
65596.9 64667.4 moveto
66069.3 64194.9 lineto
stroke
newpath
66069.3 64667.4 moveto
65596.9 64194.9 lineto
stroke
newpath
66024.1 70572.9 moveto
66496.5 70100.4 lineto
stroke
newpath
66496.5 70572.9 moveto
66024.1 70100.4 lineto
stroke
newpath
66083.1 47068.9 moveto
66555.6 46596.5 lineto
stroke
newpath
66555.6 47068.9 moveto
66083.1 46596.5 lineto
stroke
newpath
66319.3 65671.3 moveto
66791.8 65198.8 lineto
stroke
newpath
66791.8 65671.3 moveto
66319.3 65198.8 lineto
stroke
newpath
66555.6 51675.2 moveto
67028 51202.8 lineto
stroke
newpath
67028 51675.2 moveto
66555.6 51202.8 lineto
stroke
newpath
67087 52915.4 moveto
67559.5 52442.9 lineto
stroke
newpath
67559.5 52915.4 moveto
67087 52442.9 lineto
stroke
newpath
67175.6 63368.1 moveto
67648.1 62895.7 lineto
stroke
newpath
67648.1 63368.1 moveto
67175.6 62895.7 lineto
stroke
newpath
67205.2 55159.5 moveto
67677.6 54687 lineto
stroke
newpath
67677.6 55159.5 moveto
67205.2 54687 lineto
stroke
newpath
67500.4 47954.7 moveto
67972.9 47482.3 lineto
stroke
newpath
67972.9 47954.7 moveto
67500.4 47482.3 lineto
stroke
newpath
67854.8 56458.7 moveto
68327.2 55986.2 lineto
stroke
newpath
68327.2 56458.7 moveto
67854.8 55986.2 lineto
stroke
newpath
69272.1 58348.4 moveto
69744.5 57876 lineto
stroke
newpath
69744.5 58348.4 moveto
69272.1 57876 lineto
stroke
newpath
69508.3 63368.1 moveto
69980.7 62895.7 lineto
stroke
newpath
69980.7 63368.1 moveto
69508.3 62895.7 lineto
stroke
newpath
70335.1 55277.6 moveto
70807.5 54805.1 lineto
stroke
newpath
70807.5 55277.6 moveto
70335.1 54805.1 lineto
stroke
newpath
70335.1 52738.2 moveto
70807.5 52265.8 lineto
stroke
newpath
70807.5 52738.2 moveto
70335.1 52265.8 lineto
stroke
newpath
70689.4 63355.3 moveto
71161.8 62882.8 lineto
stroke
newpath
71161.8 63355.3 moveto
70689.4 62882.8 lineto
stroke
newpath
73405.9 51439 moveto
73878.4 50966.6 lineto
stroke
newpath
73878.4 51439 moveto
73405.9 50966.6 lineto
stroke
newpath
73642.2 61183.1 moveto
74114.6 60710.6 lineto
stroke
newpath
74114.6 61183.1 moveto
73642.2 60710.6 lineto
stroke
newpath
73760.3 54923.2 moveto
74232.7 54450.8 lineto
stroke
newpath
74232.7 54923.2 moveto
73760.3 54450.8 lineto
stroke
newpath
73760.3 52797.3 moveto
74232.7 52324.8 lineto
stroke
newpath
74232.7 52797.3 moveto
73760.3 52324.8 lineto
stroke
64134.3 46171.3 413.386 cir0
64134.3 44671.3 413.386 cir0
64134.3 43171.3 413.386 cir0
60331.1 43171.3 413.386 cir0
61831.1 43171.3 413.386 cir0
50787.8 72935.1 413.386 cir0
50787.8 71435.1 413.386 cir0
52287.8 72935.1 413.386 cir0
52287.8 71435.1 413.386 cir0
53787.8 72935.1 413.386 cir0
53787.8 71435.1 413.386 cir0
newpath
72933.5 56931.1 moveto
72933.5 55750 lineto
stroke
newpath
72343 56340.6 moveto
73524.1 56340.6 lineto
stroke
newpath
58500.4 73171.3 moveto
58500.4 71990.2 lineto
stroke
newpath
57909.9 72580.7 moveto
59091 72580.7 lineto
stroke
newpath
61500.4 73171.3 moveto
61500.4 71990.2 lineto
stroke
newpath
60909.9 72580.7 moveto
62091 72580.7 lineto
stroke
newpath
64500.4 73171.3 moveto
64500.4 71990.2 lineto
stroke
newpath
63909.9 72580.7 moveto
65091 72580.7 lineto
stroke
newpath
67500.4 73171.3 moveto
67500.4 71990.2 lineto
stroke
newpath
66909.9 72580.7 moveto
68091 72580.7 lineto
stroke
118.11 setlinewidth
0 0 0 setrgbcolor
0 0 0 setrgbcolor
newpath
43027.7 39477.5 moveto
43027.7 40658.6 lineto
43308.9 40658.6 lineto
43477.7 40602.4 lineto
43590.1 40489.9 lineto
43646.4 40377.4 lineto
43702.6 40152.4 lineto
43702.6 39983.7 lineto
43646.4 39758.7 lineto
43590.1 39646.2 lineto
43477.7 39533.8 lineto
43308.9 39477.5 lineto
43027.7 39477.5 lineto
stroke
newpath
44208.8 39477.5 moveto
44208.8 40264.9 lineto
stroke
newpath
44208.8 40039.9 moveto
44265.1 40152.4 lineto
44321.3 40208.7 lineto
44433.8 40264.9 lineto
44546.3 40264.9 lineto
stroke
newpath
44940 39477.5 moveto
44940 40264.9 lineto
stroke
newpath
44940 40658.6 moveto
44883.7 40602.4 lineto
44940 40546.1 lineto
44996.2 40602.4 lineto
44940 40658.6 lineto
44940 40546.1 lineto
stroke
newpath
45671.1 39477.5 moveto
45558.6 39533.8 lineto
45502.4 39646.2 lineto
45502.4 40658.6 lineto
stroke
newpath
46289.8 39477.5 moveto
46177.3 39533.8 lineto
46121.1 39646.2 lineto
46121.1 40658.6 lineto
stroke
newpath
47639.6 39477.5 moveto
47639.6 40658.6 lineto
48033.3 39815 lineto
48427 40658.6 lineto
48427 39477.5 lineto
stroke
newpath
49495.7 39477.5 moveto
49495.7 40096.2 lineto
49439.4 40208.7 lineto
49326.9 40264.9 lineto
49102 40264.9 lineto
48989.5 40208.7 lineto
stroke
newpath
49495.7 39533.8 moveto
49383.2 39477.5 lineto
49102 39477.5 lineto
48989.5 39533.8 lineto
48933.2 39646.2 lineto
48933.2 39758.7 lineto
48989.5 39871.2 lineto
49102 39927.5 lineto
49383.2 39927.5 lineto
49495.7 39983.7 lineto
stroke
newpath
50058.1 40264.9 moveto
50058.1 39083.8 lineto
stroke
newpath
50058.1 40208.7 moveto
50170.6 40264.9 lineto
50395.5 40264.9 lineto
50508 40208.7 lineto
50564.3 40152.4 lineto
50620.5 40039.9 lineto
50620.5 39702.5 lineto
50564.3 39590 lineto
50508 39533.8 lineto
50395.5 39477.5 lineto
50170.6 39477.5 lineto
50058.1 39533.8 lineto
stroke
newpath
51126.7 39590 moveto
51182.9 39533.8 lineto
51126.7 39477.5 lineto
51070.5 39533.8 lineto
51126.7 39590 lineto
51126.7 39477.5 lineto
stroke
newpath
51126.7 40208.7 moveto
51182.9 40152.4 lineto
51126.7 40096.2 lineto
51070.5 40152.4 lineto
51126.7 40208.7 lineto
51126.7 40096.2 lineto
stroke
newpath
41427.6 37767.7 moveto
41900 37295.3 lineto
stroke
newpath
41900 37767.7 moveto
41427.6 37295.3 lineto
stroke
0 0 0 setrgbcolor
0 0 0 setrgbcolor
newpath
43252.7 38178.3 moveto
43365.2 38178.3 lineto
43477.7 38122.1 lineto
43533.9 38065.8 lineto
43590.1 37953.3 lineto
43646.4 37728.4 lineto
43646.4 37447.1 lineto
43590.1 37222.2 lineto
43533.9 37109.7 lineto
43477.7 37053.4 lineto
43365.2 36997.2 lineto
43252.7 36997.2 lineto
43140.2 37053.4 lineto
43084 37109.7 lineto
43027.7 37222.2 lineto
42971.5 37447.1 lineto
42971.5 37728.4 lineto
43027.7 37953.3 lineto
43084 38065.8 lineto
43140.2 38122.1 lineto
43252.7 38178.3 lineto
stroke
newpath
44152.6 37109.7 moveto
44208.8 37053.4 lineto
44152.6 36997.2 lineto
44096.3 37053.4 lineto
44152.6 37109.7 lineto
44152.6 36997.2 lineto
stroke
newpath
45221.2 37784.6 moveto
45221.2 36997.2 lineto
stroke
newpath
44940 38234.5 moveto
44658.8 37390.9 lineto
45389.9 37390.9 lineto
stroke
newpath
46064.8 38178.3 moveto
46177.3 38178.3 lineto
46289.8 38122.1 lineto
46346 38065.8 lineto
46402.3 37953.3 lineto
46458.5 37728.4 lineto
46458.5 37447.1 lineto
46402.3 37222.2 lineto
46346 37109.7 lineto
46289.8 37053.4 lineto
46177.3 36997.2 lineto
46064.8 36997.2 lineto
45952.3 37053.4 lineto
45896.1 37109.7 lineto
45839.9 37222.2 lineto
45783.6 37447.1 lineto
45783.6 37728.4 lineto
45839.9 37953.3 lineto
45896.1 38065.8 lineto
45952.3 38122.1 lineto
46064.8 38178.3 lineto
stroke
newpath
46964.7 36997.2 moveto
46964.7 37784.6 lineto
stroke
newpath
46964.7 37672.1 moveto
47021 37728.4 lineto
47133.4 37784.6 lineto
47302.2 37784.6 lineto
47414.7 37728.4 lineto
47470.9 37615.9 lineto
47470.9 36997.2 lineto
stroke
newpath
47470.9 37615.9 moveto
47527.1 37728.4 lineto
47639.6 37784.6 lineto
47808.4 37784.6 lineto
47920.8 37728.4 lineto
47977.1 37615.9 lineto
47977.1 36997.2 lineto
stroke
newpath
48539.5 36997.2 moveto
48539.5 37784.6 lineto
stroke
newpath
48539.5 37672.1 moveto
48595.8 37728.4 lineto
48708.3 37784.6 lineto
48877 37784.6 lineto
48989.5 37728.4 lineto
49045.7 37615.9 lineto
49045.7 36997.2 lineto
stroke
newpath
49045.7 37615.9 moveto
49102 37728.4 lineto
49214.4 37784.6 lineto
49383.2 37784.6 lineto
49495.7 37728.4 lineto
49551.9 37615.9 lineto
49551.9 36997.2 lineto
stroke
newpath
51857.9 38234.5 moveto
50845.5 36716 lineto
stroke
newpath
53376.4 38178.3 moveto
53488.9 38178.3 lineto
53601.4 38122.1 lineto
53657.6 38065.8 lineto
53713.9 37953.3 lineto
53770.1 37728.4 lineto
53770.1 37447.1 lineto
53713.9 37222.2 lineto
53657.6 37109.7 lineto
53601.4 37053.4 lineto
53488.9 36997.2 lineto
53376.4 36997.2 lineto
53263.9 37053.4 lineto
53207.7 37109.7 lineto
53151.4 37222.2 lineto
53095.2 37447.1 lineto
53095.2 37728.4 lineto
53151.4 37953.3 lineto
53207.7 38065.8 lineto
53263.9 38122.1 lineto
53376.4 38178.3 lineto
stroke
newpath
54276.3 37109.7 moveto
54332.5 37053.4 lineto
54276.3 36997.2 lineto
54220.1 37053.4 lineto
54276.3 37109.7 lineto
54276.3 36997.2 lineto
stroke
newpath
55063.7 38178.3 moveto
55176.2 38178.3 lineto
55288.7 38122.1 lineto
55344.9 38065.8 lineto
55401.2 37953.3 lineto
55457.4 37728.4 lineto
55457.4 37447.1 lineto
55401.2 37222.2 lineto
55344.9 37109.7 lineto
55288.7 37053.4 lineto
55176.2 36997.2 lineto
55063.7 36997.2 lineto
54951.2 37053.4 lineto
54895 37109.7 lineto
54838.7 37222.2 lineto
54782.5 37447.1 lineto
54782.5 37728.4 lineto
54838.7 37953.3 lineto
54895 38065.8 lineto
54951.2 38122.1 lineto
55063.7 38178.3 lineto
stroke
newpath
56582.3 36997.2 moveto
55907.4 36997.2 lineto
stroke
newpath
56244.8 36997.2 moveto
56244.8 38178.3 lineto
56132.3 38009.6 lineto
56019.8 37897.1 lineto
55907.4 37840.8 lineto
stroke
newpath
57594.6 38178.3 moveto
57369.7 38178.3 lineto
57257.2 38122.1 lineto
57200.9 38065.8 lineto
57088.5 37897.1 lineto
57032.2 37672.1 lineto
57032.2 37222.2 lineto
57088.5 37109.7 lineto
57144.7 37053.4 lineto
57257.2 36997.2 lineto
57482.2 36997.2 lineto
57594.6 37053.4 lineto
57650.9 37109.7 lineto
57707.1 37222.2 lineto
57707.1 37503.4 lineto
57650.9 37615.9 lineto
57594.6 37672.1 lineto
57482.2 37728.4 lineto
57257.2 37728.4 lineto
57144.7 37672.1 lineto
57088.5 37615.9 lineto
57032.2 37503.4 lineto
stroke
newpath
58157.1 38178.3 moveto
58157.1 37953.3 lineto
stroke
newpath
58607 38178.3 moveto
58607 37953.3 lineto
stroke
newpath
60350.5 36547.3 moveto
60294.3 36603.5 lineto
60181.8 36772.2 lineto
60125.6 36884.7 lineto
60069.3 37053.4 lineto
60013.1 37334.7 lineto
60013.1 37559.6 lineto
60069.3 37840.8 lineto
60125.6 38009.6 lineto
60181.8 38122.1 lineto
60294.3 38290.8 lineto
60350.5 38347 lineto
stroke
newpath
60856.7 36997.2 moveto
61081.7 36997.2 lineto
61194.2 37053.4 lineto
61250.4 37109.7 lineto
61362.9 37278.4 lineto
61419.2 37503.4 lineto
61419.2 37953.3 lineto
61362.9 38065.8 lineto
61306.7 38122.1 lineto
61194.2 38178.3 lineto
60969.2 38178.3 lineto
60856.7 38122.1 lineto
60800.5 38065.8 lineto
60744.2 37953.3 lineto
60744.2 37672.1 lineto
60800.5 37559.6 lineto
60856.7 37503.4 lineto
60969.2 37447.1 lineto
61194.2 37447.1 lineto
61306.7 37503.4 lineto
61362.9 37559.6 lineto
61419.2 37672.1 lineto
stroke
newpath
61812.9 38178.3 moveto
62544 38178.3 lineto
62150.3 37728.4 lineto
62319 37728.4 lineto
62431.5 37672.1 lineto
62487.8 37615.9 lineto
62544 37503.4 lineto
62544 37222.2 lineto
62487.8 37109.7 lineto
62431.5 37053.4 lineto
62319 36997.2 lineto
61981.6 36997.2 lineto
61869.1 37053.4 lineto
61812.9 37109.7 lineto
stroke
newpath
63950.1 36997.2 moveto
63950.1 38178.3 lineto
stroke
newpath
64456.3 36997.2 moveto
64456.3 37615.9 lineto
64400 37728.4 lineto
64287.6 37784.6 lineto
64118.8 37784.6 lineto
64006.3 37728.4 lineto
63950.1 37672.1 lineto
stroke
newpath
65187.4 36997.2 moveto
65075 37053.4 lineto
65018.7 37109.7 lineto
64962.5 37222.2 lineto
64962.5 37559.6 lineto
65018.7 37672.1 lineto
65075 37728.4 lineto
65187.4 37784.6 lineto
65356.2 37784.6 lineto
65468.7 37728.4 lineto
65524.9 37672.1 lineto
65581.1 37559.6 lineto
65581.1 37222.2 lineto
65524.9 37109.7 lineto
65468.7 37053.4 lineto
65356.2 36997.2 lineto
65187.4 36997.2 lineto
stroke
newpath
66256.1 36997.2 moveto
66143.6 37053.4 lineto
66087.3 37165.9 lineto
66087.3 38178.3 lineto
stroke
newpath
67155.9 37053.4 moveto
67043.5 36997.2 lineto
66818.5 36997.2 lineto
66706 37053.4 lineto
66649.8 37165.9 lineto
66649.8 37615.9 lineto
66706 37728.4 lineto
66818.5 37784.6 lineto
67043.5 37784.6 lineto
67155.9 37728.4 lineto
67212.2 37615.9 lineto
67212.2 37503.4 lineto
66649.8 37390.9 lineto
stroke
newpath
67662.1 37053.4 moveto
67774.6 36997.2 lineto
67999.6 36997.2 lineto
68112.1 37053.4 lineto
68168.3 37165.9 lineto
68168.3 37222.2 lineto
68112.1 37334.7 lineto
67999.6 37390.9 lineto
67830.9 37390.9 lineto
67718.4 37447.1 lineto
67662.1 37559.6 lineto
67662.1 37615.9 lineto
67718.4 37728.4 lineto
67830.9 37784.6 lineto
67999.6 37784.6 lineto
68112.1 37728.4 lineto
stroke
newpath
68562 36547.3 moveto
68618.3 36603.5 lineto
68730.7 36772.2 lineto
68787 36884.7 lineto
68843.2 37053.4 lineto
68899.5 37334.7 lineto
68899.5 37559.6 lineto
68843.2 37840.8 lineto
68787 38009.6 lineto
68730.7 38122.1 lineto
68618.3 38290.8 lineto
68562 38347 lineto
stroke
41486.7 35972.5 413.386 cir0
0 0 0 setrgbcolor
0 0 0 setrgbcolor
newpath
43252.7 36619.3 moveto
43365.2 36619.3 lineto
43477.7 36563 lineto
43533.9 36506.8 lineto
43590.1 36394.3 lineto
43646.4 36169.3 lineto
43646.4 35888.1 lineto
43590.1 35663.1 lineto
43533.9 35550.6 lineto
43477.7 35494.4 lineto
43365.2 35438.1 lineto
43252.7 35438.1 lineto
43140.2 35494.4 lineto
43084 35550.6 lineto
43027.7 35663.1 lineto
42971.5 35888.1 lineto
42971.5 36169.3 lineto
43027.7 36394.3 lineto
43084 36506.8 lineto
43140.2 36563 lineto
43252.7 36619.3 lineto
stroke
newpath
44152.6 35550.6 moveto
44208.8 35494.4 lineto
44152.6 35438.1 lineto
44096.3 35494.4 lineto
44152.6 35550.6 lineto
44152.6 35438.1 lineto
stroke
newpath
44602.5 36619.3 moveto
45389.9 36619.3 lineto
44883.7 35438.1 lineto
stroke
newpath
46064.8 36619.3 moveto
46177.3 36619.3 lineto
46289.8 36563 lineto
46346 36506.8 lineto
46402.3 36394.3 lineto
46458.5 36169.3 lineto
46458.5 35888.1 lineto
46402.3 35663.1 lineto
46346 35550.6 lineto
46289.8 35494.4 lineto
46177.3 35438.1 lineto
46064.8 35438.1 lineto
45952.3 35494.4 lineto
45896.1 35550.6 lineto
45839.9 35663.1 lineto
45783.6 35888.1 lineto
45783.6 36169.3 lineto
45839.9 36394.3 lineto
45896.1 36506.8 lineto
45952.3 36563 lineto
46064.8 36619.3 lineto
stroke
newpath
46964.7 35438.1 moveto
46964.7 36225.5 lineto
stroke
newpath
46964.7 36113.1 moveto
47021 36169.3 lineto
47133.4 36225.5 lineto
47302.2 36225.5 lineto
47414.7 36169.3 lineto
47470.9 36056.8 lineto
47470.9 35438.1 lineto
stroke
newpath
47470.9 36056.8 moveto
47527.1 36169.3 lineto
47639.6 36225.5 lineto
47808.4 36225.5 lineto
47920.8 36169.3 lineto
47977.1 36056.8 lineto
47977.1 35438.1 lineto
stroke
newpath
48539.5 35438.1 moveto
48539.5 36225.5 lineto
stroke
newpath
48539.5 36113.1 moveto
48595.8 36169.3 lineto
48708.3 36225.5 lineto
48877 36225.5 lineto
48989.5 36169.3 lineto
49045.7 36056.8 lineto
49045.7 35438.1 lineto
stroke
newpath
49045.7 36056.8 moveto
49102 36169.3 lineto
49214.4 36225.5 lineto
49383.2 36225.5 lineto
49495.7 36169.3 lineto
49551.9 36056.8 lineto
49551.9 35438.1 lineto
stroke
newpath
51857.9 36675.5 moveto
50845.5 35156.9 lineto
stroke
newpath
53376.4 36619.3 moveto
53488.9 36619.3 lineto
53601.4 36563 lineto
53657.6 36506.8 lineto
53713.9 36394.3 lineto
53770.1 36169.3 lineto
53770.1 35888.1 lineto
53713.9 35663.1 lineto
53657.6 35550.6 lineto
53601.4 35494.4 lineto
53488.9 35438.1 lineto
53376.4 35438.1 lineto
53263.9 35494.4 lineto
53207.7 35550.6 lineto
53151.4 35663.1 lineto
53095.2 35888.1 lineto
53095.2 36169.3 lineto
53151.4 36394.3 lineto
53207.7 36506.8 lineto
53263.9 36563 lineto
53376.4 36619.3 lineto
stroke
newpath
54276.3 35550.6 moveto
54332.5 35494.4 lineto
54276.3 35438.1 lineto
54220.1 35494.4 lineto
54276.3 35550.6 lineto
54276.3 35438.1 lineto
stroke
newpath
55063.7 36619.3 moveto
55176.2 36619.3 lineto
55288.7 36563 lineto
55344.9 36506.8 lineto
55401.2 36394.3 lineto
55457.4 36169.3 lineto
55457.4 35888.1 lineto
55401.2 35663.1 lineto
55344.9 35550.6 lineto
55288.7 35494.4 lineto
55176.2 35438.1 lineto
55063.7 35438.1 lineto
54951.2 35494.4 lineto
54895 35550.6 lineto
54838.7 35663.1 lineto
54782.5 35888.1 lineto
54782.5 36169.3 lineto
54838.7 36394.3 lineto
54895 36506.8 lineto
54951.2 36563 lineto
55063.7 36619.3 lineto
stroke
newpath
55907.4 36506.8 moveto
55963.6 36563 lineto
56076.1 36619.3 lineto
56357.3 36619.3 lineto
56469.8 36563 lineto
56526 36506.8 lineto
56582.3 36394.3 lineto
56582.3 36281.8 lineto
56526 36113.1 lineto
55851.1 35438.1 lineto
56582.3 35438.1 lineto
stroke
newpath
57257.2 36113.1 moveto
57144.7 36169.3 lineto
57088.5 36225.5 lineto
57032.2 36338 lineto
57032.2 36394.3 lineto
57088.5 36506.8 lineto
57144.7 36563 lineto
57257.2 36619.3 lineto
57482.2 36619.3 lineto
57594.6 36563 lineto
57650.9 36506.8 lineto
57707.1 36394.3 lineto
57707.1 36338 lineto
57650.9 36225.5 lineto
57594.6 36169.3 lineto
57482.2 36113.1 lineto
57257.2 36113.1 lineto
57144.7 36056.8 lineto
57088.5 36000.6 lineto
57032.2 35888.1 lineto
57032.2 35663.1 lineto
57088.5 35550.6 lineto
57144.7 35494.4 lineto
57257.2 35438.1 lineto
57482.2 35438.1 lineto
57594.6 35494.4 lineto
57650.9 35550.6 lineto
57707.1 35663.1 lineto
57707.1 35888.1 lineto
57650.9 36000.6 lineto
57594.6 36056.8 lineto
57482.2 36113.1 lineto
stroke
newpath
58157.1 36619.3 moveto
58157.1 36394.3 lineto
stroke
newpath
58607 36619.3 moveto
58607 36394.3 lineto
stroke
newpath
60350.5 34988.2 moveto
60294.3 35044.4 lineto
60181.8 35213.2 lineto
60125.6 35325.7 lineto
60069.3 35494.4 lineto
60013.1 35775.6 lineto
60013.1 36000.6 lineto
60069.3 36281.8 lineto
60125.6 36450.5 lineto
60181.8 36563 lineto
60294.3 36731.7 lineto
60350.5 36788 lineto
stroke
newpath
61419.2 35438.1 moveto
60744.2 35438.1 lineto
stroke
newpath
61081.7 35438.1 moveto
61081.7 36619.3 lineto
60969.2 36450.5 lineto
60856.7 36338 lineto
60744.2 36281.8 lineto
stroke
newpath
62544 35438.1 moveto
61869.1 35438.1 lineto
stroke
newpath
62206.6 35438.1 moveto
62206.6 36619.3 lineto
62094.1 36450.5 lineto
61981.6 36338 lineto
61869.1 36281.8 lineto
stroke
newpath
63950.1 35438.1 moveto
63950.1 36619.3 lineto
stroke
newpath
64456.3 35438.1 moveto
64456.3 36056.8 lineto
64400 36169.3 lineto
64287.6 36225.5 lineto
64118.8 36225.5 lineto
64006.3 36169.3 lineto
63950.1 36113.1 lineto
stroke
newpath
65187.4 35438.1 moveto
65075 35494.4 lineto
65018.7 35550.6 lineto
64962.5 35663.1 lineto
64962.5 36000.6 lineto
65018.7 36113.1 lineto
65075 36169.3 lineto
65187.4 36225.5 lineto
65356.2 36225.5 lineto
65468.7 36169.3 lineto
65524.9 36113.1 lineto
65581.1 36000.6 lineto
65581.1 35663.1 lineto
65524.9 35550.6 lineto
65468.7 35494.4 lineto
65356.2 35438.1 lineto
65187.4 35438.1 lineto
stroke
newpath
66256.1 35438.1 moveto
66143.6 35494.4 lineto
66087.3 35606.9 lineto
66087.3 36619.3 lineto
stroke
newpath
67155.9 35494.4 moveto
67043.5 35438.1 lineto
66818.5 35438.1 lineto
66706 35494.4 lineto
66649.8 35606.9 lineto
66649.8 36056.8 lineto
66706 36169.3 lineto
66818.5 36225.5 lineto
67043.5 36225.5 lineto
67155.9 36169.3 lineto
67212.2 36056.8 lineto
67212.2 35944.3 lineto
66649.8 35831.8 lineto
stroke
newpath
67662.1 35494.4 moveto
67774.6 35438.1 lineto
67999.6 35438.1 lineto
68112.1 35494.4 lineto
68168.3 35606.9 lineto
68168.3 35663.1 lineto
68112.1 35775.6 lineto
67999.6 35831.8 lineto
67830.9 35831.8 lineto
67718.4 35888.1 lineto
67662.1 36000.6 lineto
67662.1 36056.8 lineto
67718.4 36169.3 lineto
67830.9 36225.5 lineto
67999.6 36225.5 lineto
68112.1 36169.3 lineto
stroke
newpath
68562 34988.2 moveto
68618.3 35044.4 lineto
68730.7 35213.2 lineto
68787 35325.7 lineto
68843.2 35494.4 lineto
68899.5 35775.6 lineto
68899.5 36000.6 lineto
68843.2 36281.8 lineto
68787 36450.5 lineto
68730.7 36563 lineto
68618.3 36731.7 lineto
68562 36788 lineto
stroke
newpath
41309.5 35004 moveto
41309.5 33822.8 lineto
stroke
newpath
40718.9 34413.4 moveto
41900 34413.4 lineto
stroke
0 0 0 setrgbcolor
0 0 0 setrgbcolor
newpath
43646.4 33879.1 moveto
42971.5 33879.1 lineto
stroke
newpath
43308.9 33879.1 moveto
43308.9 35060.2 lineto
43196.4 34891.5 lineto
43084 34779 lineto
42971.5 34722.7 lineto
stroke
newpath
44152.6 33991.6 moveto
44208.8 33935.3 lineto
44152.6 33879.1 lineto
44096.3 33935.3 lineto
44152.6 33991.6 lineto
44152.6 33879.1 lineto
stroke
newpath
44940 35060.2 moveto
45052.5 35060.2 lineto
45164.9 35004 lineto
45221.2 34947.7 lineto
45277.4 34835.2 lineto
45333.7 34610.3 lineto
45333.7 34329 lineto
45277.4 34104.1 lineto
45221.2 33991.6 lineto
45164.9 33935.3 lineto
45052.5 33879.1 lineto
44940 33879.1 lineto
44827.5 33935.3 lineto
44771.2 33991.6 lineto
44715 34104.1 lineto
44658.8 34329 lineto
44658.8 34610.3 lineto
44715 34835.2 lineto
44771.2 34947.7 lineto
44827.5 35004 lineto
44940 35060.2 lineto
stroke
newpath
46064.8 35060.2 moveto
46177.3 35060.2 lineto
46289.8 35004 lineto
46346 34947.7 lineto
46402.3 34835.2 lineto
46458.5 34610.3 lineto
46458.5 34329 lineto
46402.3 34104.1 lineto
46346 33991.6 lineto
46289.8 33935.3 lineto
46177.3 33879.1 lineto
46064.8 33879.1 lineto
45952.3 33935.3 lineto
45896.1 33991.6 lineto
45839.9 34104.1 lineto
45783.6 34329 lineto
45783.6 34610.3 lineto
45839.9 34835.2 lineto
45896.1 34947.7 lineto
45952.3 35004 lineto
46064.8 35060.2 lineto
stroke
newpath
46964.7 33879.1 moveto
46964.7 34666.5 lineto
stroke
newpath
46964.7 34554 moveto
47021 34610.3 lineto
47133.4 34666.5 lineto
47302.2 34666.5 lineto
47414.7 34610.3 lineto
47470.9 34497.8 lineto
47470.9 33879.1 lineto
stroke
newpath
47470.9 34497.8 moveto
47527.1 34610.3 lineto
47639.6 34666.5 lineto
47808.4 34666.5 lineto
47920.8 34610.3 lineto
47977.1 34497.8 lineto
47977.1 33879.1 lineto
stroke
newpath
48539.5 33879.1 moveto
48539.5 34666.5 lineto
stroke
newpath
48539.5 34554 moveto
48595.8 34610.3 lineto
48708.3 34666.5 lineto
48877 34666.5 lineto
48989.5 34610.3 lineto
49045.7 34497.8 lineto
49045.7 33879.1 lineto
stroke
newpath
49045.7 34497.8 moveto
49102 34610.3 lineto
49214.4 34666.5 lineto
49383.2 34666.5 lineto
49495.7 34610.3 lineto
49551.9 34497.8 lineto
49551.9 33879.1 lineto
stroke
newpath
51857.9 35116.4 moveto
50845.5 33597.9 lineto
stroke
newpath
53376.4 35060.2 moveto
53488.9 35060.2 lineto
53601.4 35004 lineto
53657.6 34947.7 lineto
53713.9 34835.2 lineto
53770.1 34610.3 lineto
53770.1 34329 lineto
53713.9 34104.1 lineto
53657.6 33991.6 lineto
53601.4 33935.3 lineto
53488.9 33879.1 lineto
53376.4 33879.1 lineto
53263.9 33935.3 lineto
53207.7 33991.6 lineto
53151.4 34104.1 lineto
53095.2 34329 lineto
53095.2 34610.3 lineto
53151.4 34835.2 lineto
53207.7 34947.7 lineto
53263.9 35004 lineto
53376.4 35060.2 lineto
stroke
newpath
54276.3 33991.6 moveto
54332.5 33935.3 lineto
54276.3 33879.1 lineto
54220.1 33935.3 lineto
54276.3 33991.6 lineto
54276.3 33879.1 lineto
stroke
newpath
55063.7 35060.2 moveto
55176.2 35060.2 lineto
55288.7 35004 lineto
55344.9 34947.7 lineto
55401.2 34835.2 lineto
55457.4 34610.3 lineto
55457.4 34329 lineto
55401.2 34104.1 lineto
55344.9 33991.6 lineto
55288.7 33935.3 lineto
55176.2 33879.1 lineto
55063.7 33879.1 lineto
54951.2 33935.3 lineto
54895 33991.6 lineto
54838.7 34104.1 lineto
54782.5 34329 lineto
54782.5 34610.3 lineto
54838.7 34835.2 lineto
54895 34947.7 lineto
54951.2 35004 lineto
55063.7 35060.2 lineto
stroke
newpath
55851.1 35060.2 moveto
56582.3 35060.2 lineto
56188.6 34610.3 lineto
56357.3 34610.3 lineto
56469.8 34554 lineto
56526 34497.8 lineto
56582.3 34385.3 lineto
56582.3 34104.1 lineto
56526 33991.6 lineto
56469.8 33935.3 lineto
56357.3 33879.1 lineto
56019.8 33879.1 lineto
55907.4 33935.3 lineto
55851.1 33991.6 lineto
stroke
newpath
57144.7 33879.1 moveto
57369.7 33879.1 lineto
57482.2 33935.3 lineto
57538.4 33991.6 lineto
57650.9 34160.3 lineto
57707.1 34385.3 lineto
57707.1 34835.2 lineto
57650.9 34947.7 lineto
57594.6 35004 lineto
57482.2 35060.2 lineto
57257.2 35060.2 lineto
57144.7 35004 lineto
57088.5 34947.7 lineto
57032.2 34835.2 lineto
57032.2 34554 lineto
57088.5 34441.5 lineto
57144.7 34385.3 lineto
57257.2 34329 lineto
57482.2 34329 lineto
57594.6 34385.3 lineto
57650.9 34441.5 lineto
57707.1 34554 lineto
stroke
newpath
58157.1 35060.2 moveto
58157.1 34835.2 lineto
stroke
newpath
58607 35060.2 moveto
58607 34835.2 lineto
stroke
newpath
60350.5 33429.1 moveto
60294.3 33485.4 lineto
60181.8 33654.1 lineto
60125.6 33766.6 lineto
60069.3 33935.3 lineto
60013.1 34216.6 lineto
60013.1 34441.5 lineto
60069.3 34722.7 lineto
60125.6 34891.5 lineto
60181.8 35004 lineto
60294.3 35172.7 lineto
60350.5 35228.9 lineto
stroke
newpath
61362.9 35060.2 moveto
60800.5 35060.2 lineto
60744.2 34497.8 lineto
60800.5 34554 lineto
60913 34610.3 lineto
61194.2 34610.3 lineto
61306.7 34554 lineto
61362.9 34497.8 lineto
61419.2 34385.3 lineto
61419.2 34104.1 lineto
61362.9 33991.6 lineto
61306.7 33935.3 lineto
61194.2 33879.1 lineto
60913 33879.1 lineto
60800.5 33935.3 lineto
60744.2 33991.6 lineto
stroke
newpath
62825.2 33879.1 moveto
62825.2 35060.2 lineto
stroke
newpath
63331.4 33879.1 moveto
63331.4 34497.8 lineto
63275.2 34610.3 lineto
63162.7 34666.5 lineto
62994 34666.5 lineto
62881.5 34610.3 lineto
62825.2 34554 lineto
stroke
newpath
64062.6 33879.1 moveto
63950.1 33935.3 lineto
63893.9 33991.6 lineto
63837.6 34104.1 lineto
63837.6 34441.5 lineto
63893.9 34554 lineto
63950.1 34610.3 lineto
64062.6 34666.5 lineto
64231.3 34666.5 lineto
64343.8 34610.3 lineto
64400 34554 lineto
64456.3 34441.5 lineto
64456.3 34104.1 lineto
64400 33991.6 lineto
64343.8 33935.3 lineto
64231.3 33879.1 lineto
64062.6 33879.1 lineto
stroke
newpath
65131.2 33879.1 moveto
65018.7 33935.3 lineto
64962.5 34047.8 lineto
64962.5 35060.2 lineto
stroke
newpath
66031.1 33935.3 moveto
65918.6 33879.1 lineto
65693.6 33879.1 lineto
65581.1 33935.3 lineto
65524.9 34047.8 lineto
65524.9 34497.8 lineto
65581.1 34610.3 lineto
65693.6 34666.5 lineto
65918.6 34666.5 lineto
66031.1 34610.3 lineto
66087.3 34497.8 lineto
66087.3 34385.3 lineto
65524.9 34272.8 lineto
stroke
newpath
66537.3 33935.3 moveto
66649.8 33879.1 lineto
66874.7 33879.1 lineto
66987.2 33935.3 lineto
67043.5 34047.8 lineto
67043.5 34104.1 lineto
66987.2 34216.6 lineto
66874.7 34272.8 lineto
66706 34272.8 lineto
66593.5 34329 lineto
66537.3 34441.5 lineto
66537.3 34497.8 lineto
66593.5 34610.3 lineto
66706 34666.5 lineto
66874.7 34666.5 lineto
66987.2 34610.3 lineto
stroke
newpath
67437.2 33429.1 moveto
67493.4 33485.4 lineto
67605.9 33654.1 lineto
67662.1 33766.6 lineto
67718.4 33935.3 lineto
67774.6 34216.6 lineto
67774.6 34441.5 lineto
67718.4 34722.7 lineto
67662.1 34891.5 lineto
67605.9 35004 lineto
67493.4 35172.7 lineto
67437.2 35228.9 lineto
stroke
showpage
grestore
%%EOF
