EESchema Schematic File Version 4
EELAYER 30 0
EELAYER END
$Descr A4 11693 8268
encoding utf-8
Sheet 1 1
Title ""
Date ""
Rev ""
Comp ""
Comment1 ""
Comment2 ""
Comment3 ""
Comment4 ""
$EndDescr
$Comp
L Connector:USB_B_Micro J2
U 1 1 5F2C876E
P 7000 3050
F 0 "J2" H 6770 3039 50  0000 R CNN
F 1 "USB_B_Micro" H 6770 2948 50  0000 R CNN
F 2 "Layout:HIROSE_ZX64-B-5S-UNIT(31)" H 7150 3000 50  0001 C CNN
F 3 "~" H 7150 3000 50  0001 C CNN
	1    7000 3050
	-1   0    0    -1  
$EndComp
$Comp
L power:VCC #PWR0101
U 1 1 5F2CAEA4
P 3350 2600
F 0 "#PWR0101" H 3350 2450 50  0001 C CNN
F 1 "VCC" H 3365 2773 50  0000 C CNN
F 2 "" H 3350 2600 50  0001 C CNN
F 3 "" H 3350 2600 50  0001 C CNN
	1    3350 2600
	-1   0    0    -1  
$EndComp
Wire Wire Line
	3350 2600 3350 2650
Wire Wire Line
	3350 2650 3300 2650
Wire Wire Line
	2800 3250 2750 3250
Wire Wire Line
	2750 3250 2750 3350
Wire Wire Line
	2800 3550 2750 3550
Connection ~ 2750 3550
Wire Wire Line
	2750 3550 2750 3600
Wire Wire Line
	2800 3350 2750 3350
Connection ~ 2750 3350
Wire Wire Line
	2750 3350 2750 3450
$Comp
L power:GND #PWR0102
U 1 1 5F2CBDC0
P 2750 3600
F 0 "#PWR0102" H 2750 3350 50  0001 C CNN
F 1 "GND" H 2755 3427 50  0000 C CNN
F 2 "" H 2750 3600 50  0001 C CNN
F 3 "" H 2750 3600 50  0001 C CNN
	1    2750 3600
	1    0    0    -1  
$EndComp
Wire Wire Line
	3300 2950 3650 2950
Wire Wire Line
	3300 3050 3650 3050
Wire Wire Line
	3300 3350 3650 3350
Text Label 3650 2950 2    50   ~ 0
SWDIO
Text Label 3650 3050 2    50   ~ 0
SWDCLK
Text Label 3650 3350 2    50   ~ 0
RESET
$Comp
L Connector_Generic:Conn_02x10_Odd_Even J1
U 1 1 5F2CC68E
P 3100 3050
F 0 "J1" H 3150 3667 50  0000 C CNN
F 1 "SWD" H 3150 3576 50  0000 C CNN
F 2 "Connector_PinHeader_2.54mm:PinHeader_2x10_P2.54mm_Vertical" H 3100 3050 50  0001 C CNN
F 3 "~" H 3100 3050 50  0001 C CNN
	1    3100 3050
	-1   0    0    -1  
$EndComp
Wire Wire Line
	2800 3450 2750 3450
Connection ~ 2750 3450
Wire Wire Line
	2750 3450 2750 3550
Wire Wire Line
	2750 3250 2750 3150
Wire Wire Line
	2750 2650 2800 2650
Connection ~ 2750 3250
Wire Wire Line
	2800 2750 2750 2750
Connection ~ 2750 2750
Wire Wire Line
	2750 2750 2750 2650
Wire Wire Line
	2800 2850 2750 2850
Connection ~ 2750 2850
Wire Wire Line
	2750 2850 2750 2750
Wire Wire Line
	2800 2950 2750 2950
Connection ~ 2750 2950
Wire Wire Line
	2750 2950 2750 2850
Wire Wire Line
	2800 3050 2750 3050
Connection ~ 2750 3050
Wire Wire Line
	2750 3050 2750 2950
Wire Wire Line
	2800 3150 2750 3150
Connection ~ 2750 3150
Wire Wire Line
	2750 3150 2750 3050
NoConn ~ 3300 2750
NoConn ~ 3300 2850
NoConn ~ 3300 3150
NoConn ~ 3300 3250
NoConn ~ 3300 3450
$Comp
L power:+5V #PWR0103
U 1 1 5F2D77E8
P 6600 2750
F 0 "#PWR0103" H 6600 2600 50  0001 C CNN
F 1 "+5V" H 6615 2923 50  0000 C CNN
F 2 "" H 6600 2750 50  0001 C CNN
F 3 "" H 6600 2750 50  0001 C CNN
	1    6600 2750
	-1   0    0    -1  
$EndComp
Wire Wire Line
	6600 2750 6600 2850
Wire Wire Line
	6600 2850 6700 2850
$Comp
L power:+5V #PWR0104
U 1 1 5F2D7F94
P 3400 3550
F 0 "#PWR0104" H 3400 3400 50  0001 C CNN
F 1 "+5V" V 3415 3678 50  0000 L CNN
F 2 "" H 3400 3550 50  0001 C CNN
F 3 "" H 3400 3550 50  0001 C CNN
	1    3400 3550
	0    1    -1   0   
$EndComp
Wire Wire Line
	3400 3550 3300 3550
Wire Wire Line
	6700 3050 6350 3050
Wire Wire Line
	6700 3150 6350 3150
Text Label 6350 3050 0    50   ~ 0
SWDIO
Text Label 6350 3150 0    50   ~ 0
SWDCLK
Wire Wire Line
	6700 3250 6350 3250
Text Label 6350 3250 0    50   ~ 0
RESET
Wire Wire Line
	7100 3450 7100 3500
Wire Wire Line
	7100 3500 7000 3500
Wire Wire Line
	7000 3500 7000 3450
$Comp
L power:GND #PWR0105
U 1 1 5F2DAA3A
P 7000 3500
F 0 "#PWR0105" H 7000 3250 50  0001 C CNN
F 1 "GND" H 7005 3327 50  0000 C CNN
F 2 "" H 7000 3500 50  0001 C CNN
F 3 "" H 7000 3500 50  0001 C CNN
	1    7000 3500
	1    0    0    -1  
$EndComp
Connection ~ 7000 3500
$Comp
L MIC5504-3.3YM5-TR:MIC5504-3.3YM5-TR U1
U 1 1 5F2DB1E0
P 5000 3050
F 0 "U1" H 5000 3710 50  0000 C CNN
F 1 "MIC5504-3.3YM5-TR" H 5000 3619 50  0000 C CNN
F 2 "Layout:SOT95P280X145-5N" H 5000 3528 50  0000 C CNN
F 3 "SOT95P280X145-5N" H 5000 3050 50  0001 L BNN
F 4 "Microchip" H 5000 3050 50  0001 L BNN "Field4"
	1    5000 3050
	1    0    0    -1  
$EndComp
Wire Wire Line
	4300 3050 4050 3050
Wire Wire Line
	4050 3050 4050 2950
$Comp
L power:+5V #PWR0106
U 1 1 5F2E765F
P 4050 2650
F 0 "#PWR0106" H 4050 2500 50  0001 C CNN
F 1 "+5V" H 4065 2823 50  0000 C CNN
F 2 "" H 4050 2650 50  0001 C CNN
F 3 "" H 4050 2650 50  0001 C CNN
	1    4050 2650
	-1   0    0    -1  
$EndComp
Wire Wire Line
	4300 2950 4050 2950
Connection ~ 4050 2950
Wire Wire Line
	4050 2950 4050 2650
$Comp
L power:VCC #PWR0107
U 1 1 5F2E84C6
P 5750 2650
F 0 "#PWR0107" H 5750 2500 50  0001 C CNN
F 1 "VCC" H 5765 2823 50  0000 C CNN
F 2 "" H 5750 2650 50  0001 C CNN
F 3 "" H 5750 2650 50  0001 C CNN
	1    5750 2650
	-1   0    0    -1  
$EndComp
Wire Wire Line
	5750 2650 5750 2750
Wire Wire Line
	5750 2750 5700 2750
$Comp
L power:GND #PWR0108
U 1 1 5F2E9124
P 5750 3300
F 0 "#PWR0108" H 5750 3050 50  0001 C CNN
F 1 "GND" H 5755 3127 50  0000 C CNN
F 2 "" H 5750 3300 50  0001 C CNN
F 3 "" H 5750 3300 50  0001 C CNN
	1    5750 3300
	1    0    0    -1  
$EndComp
Wire Wire Line
	5750 3300 5750 3250
Wire Wire Line
	5750 3250 5700 3250
$Comp
L Device:C C2
U 1 1 5F2E9CD1
P 4050 3250
F 0 "C2" H 4165 3296 50  0000 L CNN
F 1 "C" H 4165 3205 50  0000 L CNN
F 2 "Capacitor_SMD:C_0603_1608Metric" H 4088 3100 50  0001 C CNN
F 3 "~" H 4050 3250 50  0001 C CNN
	1    4050 3250
	1    0    0    -1  
$EndComp
$Comp
L Device:C C1
U 1 1 5F2EA278
P 5750 3000
F 0 "C1" H 5865 3046 50  0000 L CNN
F 1 "C" H 5865 2955 50  0000 L CNN
F 2 "Capacitor_SMD:C_0603_1608Metric" H 5788 2850 50  0001 C CNN
F 3 "~" H 5750 3000 50  0001 C CNN
	1    5750 3000
	1    0    0    -1  
$EndComp
Wire Wire Line
	5750 3150 5750 3250
Connection ~ 5750 3250
Wire Wire Line
	5750 2850 5750 2750
Connection ~ 5750 2750
Wire Wire Line
	4050 3050 4050 3100
Connection ~ 4050 3050
$Comp
L power:GND #PWR0109
U 1 1 5F2EC221
P 4050 3400
F 0 "#PWR0109" H 4050 3150 50  0001 C CNN
F 1 "GND" H 4055 3227 50  0000 C CNN
F 2 "" H 4050 3400 50  0001 C CNN
F 3 "" H 4050 3400 50  0001 C CNN
	1    4050 3400
	1    0    0    -1  
$EndComp
$EndSCHEMATC
