(kicad_pcb (version 20171130) (host pcbnew 5.1.6-c6e7f7d~87~ubuntu20.04.1)

  (general
    (thickness 1.6)
    (drawings 7)
    (tracks 67)
    (zones 0)
    (modules 5)
    (nets 12)
  )

  (page A4)
  (layers
    (0 F.Cu signal)
    (31 B.Cu signal)
    (32 B.Adhes user)
    (33 F.Adhes user)
    (34 B.Paste user)
    (35 F.Paste user)
    (36 B.SilkS user)
    (37 F.SilkS user)
    (38 B.Mask user)
    (39 F.Mask user)
    (40 Dwgs.User user)
    (41 Cmts.User user)
    (42 Eco1.User user)
    (43 Eco2.User user)
    (44 Edge.Cuts user)
    (45 Margin user)
    (46 B.CrtYd user)
    (47 F.CrtYd user)
    (48 B.Fab user)
    (49 F.Fab user)
  )

  (setup
    (last_trace_width 0.25)
    (trace_clearance 0.2)
    (zone_clearance 0.2)
    (zone_45_only no)
    (trace_min 0.2)
    (via_size 0.8)
    (via_drill 0.4)
    (via_min_size 0.4)
    (via_min_drill 0.3)
    (uvia_size 0.3)
    (uvia_drill 0.1)
    (uvias_allowed no)
    (uvia_min_size 0.2)
    (uvia_min_drill 0.1)
    (edge_width 0.05)
    (segment_width 0.2)
    (pcb_text_width 0.3)
    (pcb_text_size 1.5 1.5)
    (mod_edge_width 0.12)
    (mod_text_size 1 1)
    (mod_text_width 0.15)
    (pad_size 1.524 1.524)
    (pad_drill 0.762)
    (pad_to_mask_clearance 0.05)
    (aux_axis_origin 0 0)
    (visible_elements FFFFFF7F)
    (pcbplotparams
      (layerselection 0x010f0_ffffffff)
      (usegerberextensions false)
      (usegerberattributes true)
      (usegerberadvancedattributes true)
      (creategerberjobfile true)
      (excludeedgelayer true)
      (linewidth 0.100000)
      (plotframeref false)
      (viasonmask false)
      (mode 1)
      (useauxorigin false)
      (hpglpennumber 1)
      (hpglpenspeed 20)
      (hpglpendiameter 15.000000)
      (psnegative false)
      (psa4output false)
      (plotreference true)
      (plotvalue true)
      (plotinvisibletext false)
      (padsonsilk false)
      (subtractmaskfromsilk false)
      (outputformat 1)
      (mirror false)
      (drillshape 0)
      (scaleselection 1)
      (outputdirectory "CATP_E1"))
  )

  (net 0 "")
  (net 1 GND)
  (net 2 VCC)
  (net 3 +5V)
  (net 4 "Net-(J1-Pad17)")
  (net 5 /RESET)
  (net 6 "Net-(J1-Pad13)")
  (net 7 "Net-(J1-Pad11)")
  (net 8 /SWDCLK)
  (net 9 /SWDIO)
  (net 10 "Net-(J1-Pad5)")
  (net 11 "Net-(J1-Pad3)")

  (net_class Default "This is the default net class."
    (clearance 0.2)
    (trace_width 0.25)
    (via_dia 0.8)
    (via_drill 0.4)
    (uvia_dia 0.3)
    (uvia_drill 0.1)
    (add_net +5V)
    (add_net /RESET)
    (add_net /SWDCLK)
    (add_net /SWDIO)
    (add_net GND)
    (add_net "Net-(J1-Pad11)")
    (add_net "Net-(J1-Pad13)")
    (add_net "Net-(J1-Pad17)")
    (add_net "Net-(J1-Pad3)")
    (add_net "Net-(J1-Pad5)")
    (add_net VCC)
  )

  (module "Layout:HIROSE_ZX64-B-5S-UNIT(31)" (layer F.Cu) (tedit 5F1F16C8) (tstamp 5F2B4D28)
    (at 88.4 99.7 90)
    (path /5F2C876E)
    (fp_text reference J2 (at -0.825 -6.475 90) (layer F.SilkS) hide
      (effects (font (size 1 1) (thickness 0.015)))
    )
    (fp_text value USB_B_Micro (at 11.875 2.865 90) (layer F.Fab)
      (effects (font (size 1 1) (thickness 0.015)))
    )
    (fp_line (start -3.4 -4.75) (end 3.4 -4.75) (layer F.SilkS) (width 0.127))
    (fp_line (start 3.4 -4.75) (end 3.4 1.25) (layer F.SilkS) (width 0.127))
    (fp_line (start 3.4 1.25) (end -3.4 1.25) (layer F.SilkS) (width 0.127))
    (fp_line (start -3.4 1.25) (end -3.4 -4.75) (layer F.SilkS) (width 0.127))
    (fp_circle (center 4.065 0.473) (end 4.165 0.473) (layer F.Fab) (width 0.2))
    (fp_circle (center 4.065 0.473) (end 4.165 0.473) (layer F.SilkS) (width 0.2))
    (fp_line (start -3.4 -4.75) (end -3.4 1.25) (layer F.Fab) (width 0.127))
    (fp_line (start -3.4 1.25) (end 3.4 1.25) (layer F.Fab) (width 0.127))
    (fp_line (start 3.4 1.25) (end 3.4 -4.75) (layer F.Fab) (width 0.127))
    (fp_line (start 3.4 -4.75) (end -3.4 -4.75) (layer F.Fab) (width 0.127))
    (fp_line (start -3.65 -5) (end -3.65 1.5) (layer F.CrtYd) (width 0.05))
    (fp_line (start -3.65 1.5) (end 3.65 1.5) (layer F.CrtYd) (width 0.05))
    (fp_line (start 3.65 1.5) (end 3.65 -5) (layer F.CrtYd) (width 0.05))
    (fp_line (start 3.65 -5) (end -3.65 -5) (layer F.CrtYd) (width 0.05))
    (pad 5 smd rect (at -1.3 0.2 90) (size 0.35 1.1) (layers F.Cu F.Paste F.Mask)
      (net 1 GND))
    (pad 1 smd rect (at 1.3 0.2 90) (size 0.35 1.1) (layers F.Cu F.Paste F.Mask)
      (net 3 +5V))
    (pad 4 smd rect (at -0.65 0 90) (size 0.35 1.5) (layers F.Cu F.Paste F.Mask)
      (net 5 /RESET))
    (pad 2 smd rect (at 0.65 0 90) (size 0.35 1.5) (layers F.Cu F.Paste F.Mask)
      (net 8 /SWDCLK))
    (pad 3 smd rect (at 0 0 90) (size 0.35 1.5) (layers F.Cu F.Paste F.Mask)
      (net 9 /SWDIO))
  )

  (module Layout:SOT95P280X145-5N (layer F.Cu) (tedit 5F2AF183) (tstamp 5F2B4D3E)
    (at 78.5 99.8)
    (path /5F2DB1E0)
    (fp_text reference U1 (at -0.06 -2.508) (layer F.SilkS)
      (effects (font (size 0.8 0.8) (thickness 0.015)))
    )
    (fp_text value MIC5504-3.3YM5-TR (at 5.528 2.508) (layer F.Fab)
      (effects (font (size 0.8 0.8) (thickness 0.015)))
    )
    (fp_line (start -2.11 1.7) (end -2.11 -1.7) (layer F.CrtYd) (width 0.05))
    (fp_line (start 2.11 1.7) (end -2.11 1.7) (layer F.CrtYd) (width 0.05))
    (fp_line (start 2.11 -1.7) (end 2.11 1.7) (layer F.CrtYd) (width 0.05))
    (fp_line (start -2.11 -1.7) (end 2.11 -1.7) (layer F.CrtYd) (width 0.05))
    (fp_line (start 0.8 1.45) (end -0.8 1.45) (layer F.Fab) (width 0.127))
    (fp_line (start -0.8 -1.45) (end 0.8 -1.45) (layer F.Fab) (width 0.127))
    (fp_line (start 0.8 -1.45) (end 0.8 1.45) (layer F.Fab) (width 0.127))
    (fp_line (start -0.8 1.45) (end -0.8 -1.45) (layer F.Fab) (width 0.127))
    (fp_line (start 0.33 1.45) (end -0.33 1.45) (layer F.SilkS) (width 0.127))
    (fp_line (start 0.8 -0.335) (end 0.8 0.335) (layer F.SilkS) (width 0.127))
    (fp_line (start -0.33 -1.45) (end 0.33 -1.45) (layer F.SilkS) (width 0.127))
    (fp_circle (center -2.41 -1.05) (end -2.31 -1.05) (layer F.Fab) (width 0.2))
    (fp_circle (center -2.41 -1.05) (end -2.31 -1.05) (layer F.SilkS) (width 0.2))
    (pad 5 smd rect (at 1.165 -0.95) (size 1.39 0.58) (layers F.Cu F.Paste F.Mask)
      (net 2 VCC))
    (pad 4 smd rect (at 1.165 0.95) (size 1.39 0.58) (layers F.Cu F.Paste F.Mask))
    (pad 3 smd rect (at -1.165 0.95) (size 1.39 0.58) (layers F.Cu F.Paste F.Mask)
      (net 3 +5V))
    (pad 2 smd rect (at -1.165 0) (size 1.39 0.58) (layers F.Cu F.Paste F.Mask)
      (net 1 GND))
    (pad 1 smd rect (at -1.165 -0.95) (size 1.39 0.58) (layers F.Cu F.Paste F.Mask)
      (net 3 +5V))
  )

  (module Connector_PinHeader_2.54mm:PinHeader_2x10_P2.54mm_Vertical (layer F.Cu) (tedit 59FED5CC) (tstamp 5F2B4D0D)
    (at 70.5 98.4 270)
    (descr "Through hole straight pin header, 2x10, 2.54mm pitch, double rows")
    (tags "Through hole pin header THT 2x10 2.54mm double row")
    (path /5F2CC68E)
    (fp_text reference J1 (at 1.27 -2.33 90) (layer F.SilkS) hide
      (effects (font (size 1 1) (thickness 0.15)))
    )
    (fp_text value SWD (at 1.27 -2.8 90) (layer F.SilkS)
      (effects (font (size 1 1) (thickness 0.15)))
    )
    (fp_line (start 4.35 -1.8) (end -1.8 -1.8) (layer F.CrtYd) (width 0.05))
    (fp_line (start 4.35 24.65) (end 4.35 -1.8) (layer F.CrtYd) (width 0.05))
    (fp_line (start -1.8 24.65) (end 4.35 24.65) (layer F.CrtYd) (width 0.05))
    (fp_line (start -1.8 -1.8) (end -1.8 24.65) (layer F.CrtYd) (width 0.05))
    (fp_line (start -1.33 -1.33) (end 0 -1.33) (layer F.SilkS) (width 0.12))
    (fp_line (start -1.33 0) (end -1.33 -1.33) (layer F.SilkS) (width 0.12))
    (fp_line (start 1.27 -1.33) (end 3.87 -1.33) (layer F.SilkS) (width 0.12))
    (fp_line (start 1.27 1.27) (end 1.27 -1.33) (layer F.SilkS) (width 0.12))
    (fp_line (start -1.33 1.27) (end 1.27 1.27) (layer F.SilkS) (width 0.12))
    (fp_line (start 3.87 -1.33) (end 3.87 24.19) (layer F.SilkS) (width 0.12))
    (fp_line (start -1.33 1.27) (end -1.33 24.19) (layer F.SilkS) (width 0.12))
    (fp_line (start -1.33 24.19) (end 3.87 24.19) (layer F.SilkS) (width 0.12))
    (fp_line (start -1.27 0) (end 0 -1.27) (layer F.Fab) (width 0.1))
    (fp_line (start -1.27 24.13) (end -1.27 0) (layer F.Fab) (width 0.1))
    (fp_line (start 3.81 24.13) (end -1.27 24.13) (layer F.Fab) (width 0.1))
    (fp_line (start 3.81 -1.27) (end 3.81 24.13) (layer F.Fab) (width 0.1))
    (fp_line (start 0 -1.27) (end 3.81 -1.27) (layer F.Fab) (width 0.1))
    (fp_text user %R (at 1.27 11.43) (layer F.Fab)
      (effects (font (size 1 1) (thickness 0.15)))
    )
    (pad 20 thru_hole oval (at 2.54 22.86 270) (size 1.7 1.7) (drill 1) (layers *.Cu *.Mask)
      (net 1 GND))
    (pad 19 thru_hole oval (at 0 22.86 270) (size 1.7 1.7) (drill 1) (layers *.Cu *.Mask)
      (net 3 +5V))
    (pad 18 thru_hole oval (at 2.54 20.32 270) (size 1.7 1.7) (drill 1) (layers *.Cu *.Mask)
      (net 1 GND))
    (pad 17 thru_hole oval (at 0 20.32 270) (size 1.7 1.7) (drill 1) (layers *.Cu *.Mask)
      (net 4 "Net-(J1-Pad17)"))
    (pad 16 thru_hole oval (at 2.54 17.78 270) (size 1.7 1.7) (drill 1) (layers *.Cu *.Mask)
      (net 1 GND))
    (pad 15 thru_hole oval (at 0 17.78 270) (size 1.7 1.7) (drill 1) (layers *.Cu *.Mask)
      (net 5 /RESET))
    (pad 14 thru_hole oval (at 2.54 15.24 270) (size 1.7 1.7) (drill 1) (layers *.Cu *.Mask)
      (net 1 GND))
    (pad 13 thru_hole oval (at 0 15.24 270) (size 1.7 1.7) (drill 1) (layers *.Cu *.Mask)
      (net 6 "Net-(J1-Pad13)"))
    (pad 12 thru_hole oval (at 2.54 12.7 270) (size 1.7 1.7) (drill 1) (layers *.Cu *.Mask)
      (net 1 GND))
    (pad 11 thru_hole oval (at 0 12.7 270) (size 1.7 1.7) (drill 1) (layers *.Cu *.Mask)
      (net 7 "Net-(J1-Pad11)"))
    (pad 10 thru_hole oval (at 2.54 10.16 270) (size 1.7 1.7) (drill 1) (layers *.Cu *.Mask)
      (net 1 GND))
    (pad 9 thru_hole oval (at 0 10.16 270) (size 1.7 1.7) (drill 1) (layers *.Cu *.Mask)
      (net 8 /SWDCLK))
    (pad 8 thru_hole oval (at 2.54 7.62 270) (size 1.7 1.7) (drill 1) (layers *.Cu *.Mask)
      (net 1 GND))
    (pad 7 thru_hole oval (at 0 7.62 270) (size 1.7 1.7) (drill 1) (layers *.Cu *.Mask)
      (net 9 /SWDIO))
    (pad 6 thru_hole oval (at 2.54 5.08 270) (size 1.7 1.7) (drill 1) (layers *.Cu *.Mask)
      (net 1 GND))
    (pad 5 thru_hole oval (at 0 5.08 270) (size 1.7 1.7) (drill 1) (layers *.Cu *.Mask)
      (net 10 "Net-(J1-Pad5)"))
    (pad 4 thru_hole oval (at 2.54 2.54 270) (size 1.7 1.7) (drill 1) (layers *.Cu *.Mask)
      (net 1 GND))
    (pad 3 thru_hole oval (at 0 2.54 270) (size 1.7 1.7) (drill 1) (layers *.Cu *.Mask)
      (net 11 "Net-(J1-Pad3)"))
    (pad 2 thru_hole oval (at 2.54 0 270) (size 1.7 1.7) (drill 1) (layers *.Cu *.Mask)
      (net 1 GND))
    (pad 1 thru_hole rect (at 0 0 270) (size 1.7 1.7) (drill 1) (layers *.Cu *.Mask)
      (net 2 VCC))
    (model ${KISYS3DMOD}/Connector_PinHeader_2.54mm.3dshapes/PinHeader_2x10_P2.54mm_Vertical.wrl
      (at (xyz 0 0 0))
      (scale (xyz 1 1 1))
      (rotate (xyz 0 0 0))
    )
  )

  (module Capacitor_SMD:C_0603_1608Metric (layer F.Cu) (tedit 5B301BBE) (tstamp 5F2B4CE3)
    (at 75.6 99.6 270)
    (descr "Capacitor SMD 0603 (1608 Metric), square (rectangular) end terminal, IPC_7351 nominal, (Body size source: http://www.tortai-tech.com/upload/download/2011102023233369053.pdf), generated with kicad-footprint-generator")
    (tags capacitor)
    (path /5F2E9CD1)
    (attr smd)
    (fp_text reference C2 (at 0 -1.43 90) (layer F.SilkS) hide
      (effects (font (size 1 1) (thickness 0.15)))
    )
    (fp_text value C (at 0 1.43 90) (layer F.Fab)
      (effects (font (size 1 1) (thickness 0.15)))
    )
    (fp_line (start 1.48 0.73) (end -1.48 0.73) (layer F.CrtYd) (width 0.05))
    (fp_line (start 1.48 -0.73) (end 1.48 0.73) (layer F.CrtYd) (width 0.05))
    (fp_line (start -1.48 -0.73) (end 1.48 -0.73) (layer F.CrtYd) (width 0.05))
    (fp_line (start -1.48 0.73) (end -1.48 -0.73) (layer F.CrtYd) (width 0.05))
    (fp_line (start -0.162779 0.51) (end 0.162779 0.51) (layer F.SilkS) (width 0.12))
    (fp_line (start -0.162779 -0.51) (end 0.162779 -0.51) (layer F.SilkS) (width 0.12))
    (fp_line (start 0.8 0.4) (end -0.8 0.4) (layer F.Fab) (width 0.1))
    (fp_line (start 0.8 -0.4) (end 0.8 0.4) (layer F.Fab) (width 0.1))
    (fp_line (start -0.8 -0.4) (end 0.8 -0.4) (layer F.Fab) (width 0.1))
    (fp_line (start -0.8 0.4) (end -0.8 -0.4) (layer F.Fab) (width 0.1))
    (fp_text user %R (at 0 0 90) (layer F.Fab)
      (effects (font (size 0.4 0.4) (thickness 0.06)))
    )
    (pad 2 smd roundrect (at 0.7875 0 270) (size 0.875 0.95) (layers F.Cu F.Paste F.Mask) (roundrect_rratio 0.25)
      (net 1 GND))
    (pad 1 smd roundrect (at -0.7875 0 270) (size 0.875 0.95) (layers F.Cu F.Paste F.Mask) (roundrect_rratio 0.25)
      (net 3 +5V))
    (model ${KISYS3DMOD}/Capacitor_SMD.3dshapes/C_0603_1608Metric.wrl
      (at (xyz 0 0 0))
      (scale (xyz 1 1 1))
      (rotate (xyz 0 0 0))
    )
  )

  (module Capacitor_SMD:C_0603_1608Metric (layer F.Cu) (tedit 5B301BBE) (tstamp 5F2B4CD2)
    (at 78.5 97.3 180)
    (descr "Capacitor SMD 0603 (1608 Metric), square (rectangular) end terminal, IPC_7351 nominal, (Body size source: http://www.tortai-tech.com/upload/download/2011102023233369053.pdf), generated with kicad-footprint-generator")
    (tags capacitor)
    (path /5F2EA278)
    (attr smd)
    (fp_text reference C1 (at 0 -1.43) (layer F.SilkS) hide
      (effects (font (size 1 1) (thickness 0.15)))
    )
    (fp_text value C (at 0 1.43) (layer F.Fab)
      (effects (font (size 1 1) (thickness 0.15)))
    )
    (fp_line (start 1.48 0.73) (end -1.48 0.73) (layer F.CrtYd) (width 0.05))
    (fp_line (start 1.48 -0.73) (end 1.48 0.73) (layer F.CrtYd) (width 0.05))
    (fp_line (start -1.48 -0.73) (end 1.48 -0.73) (layer F.CrtYd) (width 0.05))
    (fp_line (start -1.48 0.73) (end -1.48 -0.73) (layer F.CrtYd) (width 0.05))
    (fp_line (start -0.162779 0.51) (end 0.162779 0.51) (layer F.SilkS) (width 0.12))
    (fp_line (start -0.162779 -0.51) (end 0.162779 -0.51) (layer F.SilkS) (width 0.12))
    (fp_line (start 0.8 0.4) (end -0.8 0.4) (layer F.Fab) (width 0.1))
    (fp_line (start 0.8 -0.4) (end 0.8 0.4) (layer F.Fab) (width 0.1))
    (fp_line (start -0.8 -0.4) (end 0.8 -0.4) (layer F.Fab) (width 0.1))
    (fp_line (start -0.8 0.4) (end -0.8 -0.4) (layer F.Fab) (width 0.1))
    (fp_text user %R (at 0 0) (layer F.Fab)
      (effects (font (size 0.4 0.4) (thickness 0.06)))
    )
    (pad 2 smd roundrect (at 0.7875 0 180) (size 0.875 0.95) (layers F.Cu F.Paste F.Mask) (roundrect_rratio 0.25)
      (net 1 GND))
    (pad 1 smd roundrect (at -0.7875 0 180) (size 0.875 0.95) (layers F.Cu F.Paste F.Mask) (roundrect_rratio 0.25)
      (net 2 VCC))
    (model ${KISYS3DMOD}/Capacitor_SMD.3dshapes/C_0603_1608Metric.wrl
      (at (xyz 0 0 0))
      (scale (xyz 1 1 1))
      (rotate (xyz 0 0 0))
    )
  )

  (dimension 6.8 (width 0.12) (layer B.SilkS)
    (gr_text "6,800 mm" (at 93.17 99.7 270) (layer B.SilkS)
      (effects (font (size 1 1) (thickness 0.15)))
    )
    (feature1 (pts (xy 89.7 103.1) (xy 92.486421 103.1)))
    (feature2 (pts (xy 89.7 96.3) (xy 92.486421 96.3)))
    (crossbar (pts (xy 91.9 96.3) (xy 91.9 103.1)))
    (arrow1a (pts (xy 91.9 103.1) (xy 91.313579 101.973496)))
    (arrow1b (pts (xy 91.9 103.1) (xy 92.486421 101.973496)))
    (arrow2a (pts (xy 91.9 96.3) (xy 91.313579 97.426504)))
    (arrow2b (pts (xy 91.9 96.3) (xy 92.486421 97.426504)))
  )
  (dimension 43.85 (width 0.12) (layer B.SilkS)
    (gr_text "43,850 mm" (at 67.725 92.73) (layer B.SilkS)
      (effects (font (size 1 1) (thickness 0.15)))
    )
    (feature1 (pts (xy 89.65 96.3) (xy 89.65 93.413579)))
    (feature2 (pts (xy 45.8 96.3) (xy 45.8 93.413579)))
    (crossbar (pts (xy 45.8 94) (xy 89.65 94)))
    (arrow1a (pts (xy 89.65 94) (xy 88.523496 94.586421)))
    (arrow1b (pts (xy 89.65 94) (xy 88.523496 93.413579)))
    (arrow2a (pts (xy 45.8 94) (xy 46.926504 94.586421)))
    (arrow2b (pts (xy 45.8 94) (xy 46.926504 93.413579)))
  )
  (gr_text "CATracker\nUSB-Programmer" (at 77.9 99.1) (layer B.SilkS)
    (effects (font (size 1 1) (thickness 0.15)) (justify mirror))
  )
  (gr_line (start 89.7 96.3) (end 89.7 103.1) (layer Edge.Cuts) (width 0.05))
  (gr_line (start 45.8 103.1) (end 89.7 103.1) (layer Edge.Cuts) (width 0.05))
  (gr_line (start 45.8 96.3) (end 45.8 103.1) (layer Edge.Cuts) (width 0.05))
  (gr_line (start 89.7 96.3) (end 45.8 96.3) (layer Edge.Cuts) (width 0.05))

  (segment (start 76.1875 99.8) (end 75.6 100.3875) (width 0.25) (layer F.Cu) (net 1))
  (segment (start 77.335 99.8) (end 76.1875 99.8) (width 0.25) (layer F.Cu) (net 1))
  (segment (start 76.8 97.3) (end 76.5 97.6) (width 0.25) (layer F.Cu) (net 1))
  (segment (start 77.7125 97.3) (end 76.8 97.3) (width 0.25) (layer F.Cu) (net 1))
  (via (at 76.5 97.6) (size 0.8) (drill 0.4) (layers F.Cu B.Cu) (net 1))
  (via (at 87 101.5) (size 0.8) (drill 0.4) (layers F.Cu B.Cu) (net 1))
  (segment (start 87.5 101) (end 87 101.5) (width 0.25) (layer F.Cu) (net 1))
  (segment (start 88.6 101) (end 87.5 101) (width 0.25) (layer F.Cu) (net 1))
  (via (at 74.2 100.640001) (size 0.8) (drill 0.4) (layers F.Cu B.Cu) (net 1))
  (segment (start 74.452501 100.3875) (end 74.2 100.640001) (width 0.25) (layer F.Cu) (net 1))
  (segment (start 75.6 100.3875) (end 74.452501 100.3875) (width 0.25) (layer F.Cu) (net 1))
  (segment (start 79.665 97.6775) (end 79.2875 97.3) (width 0.25) (layer F.Cu) (net 2))
  (segment (start 79.665 98.85) (end 79.665 97.6775) (width 0.25) (layer F.Cu) (net 2))
  (via (at 80.5 97.3) (size 0.8) (drill 0.4) (layers F.Cu B.Cu) (net 2))
  (segment (start 79.2875 97.3) (end 80.5 97.3) (width 0.25) (layer F.Cu) (net 2))
  (segment (start 70.925001 96.874999) (end 70.5 97.3) (width 0.25) (layer B.Cu) (net 2))
  (segment (start 80.074999 96.874999) (end 70.925001 96.874999) (width 0.25) (layer B.Cu) (net 2))
  (segment (start 80.5 97.3) (end 80.074999 96.874999) (width 0.25) (layer B.Cu) (net 2))
  (segment (start 70.5 97.3) (end 70.5 98.4) (width 0.25) (layer B.Cu) (net 2))
  (via (at 74.3 98.9) (size 0.8) (drill 0.4) (layers F.Cu B.Cu) (net 3))
  (segment (start 77.285 98.9) (end 77.335 98.85) (width 0.25) (layer F.Cu) (net 3))
  (segment (start 74.3 98.9) (end 77.285 98.9) (width 0.25) (layer F.Cu) (net 3))
  (segment (start 78.28 100.75) (end 77.335 100.75) (width 0.25) (layer F.Cu) (net 3))
  (segment (start 78.4 100.63) (end 78.28 100.75) (width 0.25) (layer F.Cu) (net 3))
  (segment (start 78.25 98.85) (end 78.4 99) (width 0.25) (layer F.Cu) (net 3))
  (segment (start 77.335 98.85) (end 78.25 98.85) (width 0.25) (layer F.Cu) (net 3))
  (segment (start 48.815001 97.224999) (end 47.64 98.4) (width 0.25) (layer B.Cu) (net 3))
  (segment (start 68.524001 97.224999) (end 48.815001 97.224999) (width 0.25) (layer B.Cu) (net 3))
  (segment (start 69.135001 97.835999) (end 68.524001 97.224999) (width 0.25) (layer B.Cu) (net 3))
  (segment (start 69.135001 99.320003) (end 69.135001 97.835999) (width 0.25) (layer B.Cu) (net 3))
  (segment (start 69.389999 99.575001) (end 69.135001 99.320003) (width 0.25) (layer B.Cu) (net 3))
  (segment (start 73.624999 99.575001) (end 69.389999 99.575001) (width 0.25) (layer B.Cu) (net 3))
  (segment (start 74.3 98.9) (end 73.624999 99.575001) (width 0.25) (layer B.Cu) (net 3))
  (segment (start 78.4 99.8) (end 78.4 100.63) (width 0.25) (layer F.Cu) (net 3))
  (segment (start 78.4 99) (end 78.4 99.8) (width 0.25) (layer F.Cu) (net 3))
  (segment (start 80.4 99.8) (end 78.4 99.8) (width 0.25) (layer F.Cu) (net 3))
  (segment (start 88.6 98.4) (end 81.8 98.4) (width 0.25) (layer F.Cu) (net 3))
  (segment (start 81.8 98.4) (end 80.4 99.8) (width 0.25) (layer F.Cu) (net 3))
  (segment (start 84.223002 100.35) (end 88.4 100.35) (width 0.25) (layer F.Cu) (net 5))
  (segment (start 82.007991 102.565011) (end 84.223002 100.35) (width 0.25) (layer F.Cu) (net 5))
  (segment (start 57.686009 102.565011) (end 82.007991 102.565011) (width 0.25) (layer F.Cu) (net 5))
  (segment (start 56.624999 101.504001) (end 57.686009 102.565011) (width 0.25) (layer F.Cu) (net 5))
  (segment (start 55.634003 99.575001) (end 56.624999 100.565997) (width 0.25) (layer F.Cu) (net 5))
  (segment (start 56.624999 100.565997) (end 56.624999 101.504001) (width 0.25) (layer F.Cu) (net 5))
  (segment (start 53.895001 99.575001) (end 55.634003 99.575001) (width 0.25) (layer F.Cu) (net 5))
  (segment (start 52.72 98.4) (end 53.895001 99.575001) (width 0.25) (layer F.Cu) (net 5))
  (via (at 82.6 100.9) (size 0.8) (drill 0.4) (layers F.Cu B.Cu) (net 8))
  (segment (start 81.384999 102.115001) (end 82.6 100.9) (width 0.25) (layer F.Cu) (net 8))
  (segment (start 64.855999 102.115001) (end 81.384999 102.115001) (width 0.25) (layer F.Cu) (net 8))
  (segment (start 64.244999 101.504001) (end 64.855999 102.115001) (width 0.25) (layer F.Cu) (net 8))
  (segment (start 64.244999 100.401409) (end 64.244999 101.504001) (width 0.25) (layer F.Cu) (net 8))
  (segment (start 63.418591 99.575001) (end 64.244999 100.401409) (width 0.25) (layer F.Cu) (net 8))
  (segment (start 61.515001 99.575001) (end 63.418591 99.575001) (width 0.25) (layer F.Cu) (net 8))
  (segment (start 60.34 98.4) (end 61.515001 99.575001) (width 0.25) (layer F.Cu) (net 8))
  (segment (start 88.4 99.05) (end 86.27501 99.05) (width 0.25) (layer F.Cu) (net 8))
  (segment (start 86.27501 99.05) (end 86.2 99.12501) (width 0.25) (layer F.Cu) (net 8))
  (segment (start 82.6 100.9) (end 84.37499 99.12501) (width 0.25) (layer B.Cu) (net 8))
  (segment (start 84.37499 99.12501) (end 86.2 99.12501) (width 0.25) (layer B.Cu) (net 8))
  (via (at 86.2 99.12501) (size 0.8) (drill 0.4) (layers F.Cu B.Cu) (net 8))
  (segment (start 87.249988 99.850012) (end 87.4 99.7) (width 0.25) (layer F.Cu) (net 9))
  (segment (start 82.13499 99.850012) (end 87.249988 99.850012) (width 0.25) (layer F.Cu) (net 9))
  (segment (start 80.620001 101.365001) (end 82.13499 99.850012) (width 0.25) (layer F.Cu) (net 9))
  (segment (start 73.465001 101.365001) (end 80.620001 101.365001) (width 0.25) (layer F.Cu) (net 9))
  (segment (start 71.675001 99.575001) (end 73.465001 101.365001) (width 0.25) (layer F.Cu) (net 9))
  (segment (start 87.4 99.7) (end 88.4 99.7) (width 0.25) (layer F.Cu) (net 9))
  (segment (start 64.055001 99.575001) (end 71.675001 99.575001) (width 0.25) (layer F.Cu) (net 9))
  (segment (start 62.88 98.4) (end 64.055001 99.575001) (width 0.25) (layer F.Cu) (net 9))

  (zone (net 1) (net_name GND) (layer B.Cu) (tstamp 5F2AF853) (hatch edge 0.508)
    (connect_pads (clearance 0.2))
    (min_thickness 0.254)
    (fill yes (arc_segments 32) (thermal_gap 0.508) (thermal_bridge_width 0.508) (smoothing chamfer))
    (polygon
      (pts
        (xy 90.2 103.6) (xy 45.7 103.3) (xy 45.6 96) (xy 90.2 95.9)
      )
    )
    (filled_polygon
      (pts
        (xy 70.1961 96.964677) (xy 70.178841 96.978841) (xy 70.122357 97.047668) (xy 70.080387 97.12619) (xy 70.080386 97.126191)
        (xy 70.05454 97.211393) (xy 70.053553 97.221418) (xy 69.65 97.221418) (xy 69.585897 97.227732) (xy 69.524257 97.24643)
        (xy 69.46745 97.276794) (xy 69.417657 97.317657) (xy 69.376794 97.36745) (xy 69.352022 97.413795) (xy 68.859324 96.921099)
        (xy 68.84516 96.90384) (xy 68.776334 96.847356) (xy 68.697811 96.805385) (xy 68.612608 96.779539) (xy 68.546206 96.772999)
        (xy 68.524001 96.770812) (xy 68.501796 96.772999) (xy 48.837205 96.772999) (xy 48.815 96.770812) (xy 48.726393 96.779539)
        (xy 48.706563 96.785555) (xy 48.641191 96.805385) (xy 48.562668 96.847356) (xy 48.493842 96.90384) (xy 48.479686 96.921089)
        (xy 48.088837 97.311939) (xy 47.983318 97.268231) (xy 47.755924 97.223) (xy 47.524076 97.223) (xy 47.296682 97.268231)
        (xy 47.082481 97.356956) (xy 46.889706 97.485764) (xy 46.725764 97.649706) (xy 46.596956 97.842481) (xy 46.508231 98.056682)
        (xy 46.463 98.284076) (xy 46.463 98.515924) (xy 46.508231 98.743318) (xy 46.596956 98.957519) (xy 46.725764 99.150294)
        (xy 46.889706 99.314236) (xy 47.082481 99.443044) (xy 47.244612 99.510201) (xy 47.135901 99.543175) (xy 46.87308 99.668359)
        (xy 46.639731 99.842412) (xy 46.444822 100.058645) (xy 46.295843 100.308748) (xy 46.198519 100.583109) (xy 46.319186 100.813)
        (xy 47.513 100.813) (xy 47.513 100.793) (xy 47.767 100.793) (xy 47.767 100.813) (xy 50.053 100.813)
        (xy 50.053 100.793) (xy 50.307 100.793) (xy 50.307 100.813) (xy 52.593 100.813) (xy 52.593 100.793)
        (xy 52.847 100.793) (xy 52.847 100.813) (xy 55.133 100.813) (xy 55.133 100.793) (xy 55.387 100.793)
        (xy 55.387 100.813) (xy 57.673 100.813) (xy 57.673 100.793) (xy 57.927 100.793) (xy 57.927 100.813)
        (xy 60.213 100.813) (xy 60.213 100.793) (xy 60.467 100.793) (xy 60.467 100.813) (xy 62.753 100.813)
        (xy 62.753 100.793) (xy 63.007 100.793) (xy 63.007 100.813) (xy 65.293 100.813) (xy 65.293 100.793)
        (xy 65.547 100.793) (xy 65.547 100.813) (xy 67.833 100.813) (xy 67.833 100.793) (xy 68.087 100.793)
        (xy 68.087 100.813) (xy 70.373 100.813) (xy 70.373 100.793) (xy 70.627 100.793) (xy 70.627 100.813)
        (xy 71.820814 100.813) (xy 71.941481 100.583109) (xy 71.844157 100.308748) (xy 71.695178 100.058645) (xy 71.666655 100.027001)
        (xy 73.602794 100.027001) (xy 73.624999 100.029188) (xy 73.647204 100.027001) (xy 73.713606 100.020461) (xy 73.798809 99.994615)
        (xy 73.877332 99.952644) (xy 73.946158 99.89616) (xy 73.960322 99.878901) (xy 74.214907 99.624317) (xy 74.228397 99.627)
        (xy 74.371603 99.627) (xy 74.512058 99.599062) (xy 74.644364 99.544259) (xy 74.763436 99.464698) (xy 74.864698 99.363436)
        (xy 74.944259 99.244364) (xy 74.999062 99.112058) (xy 75.027 98.971603) (xy 75.027 98.828397) (xy 74.999062 98.687942)
        (xy 74.944259 98.555636) (xy 74.864698 98.436564) (xy 74.763436 98.335302) (xy 74.644364 98.255741) (xy 74.512058 98.200938)
        (xy 74.371603 98.173) (xy 74.228397 98.173) (xy 74.087942 98.200938) (xy 73.955636 98.255741) (xy 73.836564 98.335302)
        (xy 73.735302 98.436564) (xy 73.655741 98.555636) (xy 73.600938 98.687942) (xy 73.573 98.828397) (xy 73.573 98.971603)
        (xy 73.575683 98.985093) (xy 73.437776 99.123001) (xy 71.678582 99.123001) (xy 71.678582 97.55) (xy 71.672268 97.485897)
        (xy 71.65357 97.424257) (xy 71.623206 97.36745) (xy 71.59001 97.326999) (xy 79.773 97.326999) (xy 79.773 97.371603)
        (xy 79.800938 97.512058) (xy 79.855741 97.644364) (xy 79.935302 97.763436) (xy 80.036564 97.864698) (xy 80.155636 97.944259)
        (xy 80.287942 97.999062) (xy 80.428397 98.027) (xy 80.571603 98.027) (xy 80.712058 97.999062) (xy 80.844364 97.944259)
        (xy 80.963436 97.864698) (xy 81.064698 97.763436) (xy 81.144259 97.644364) (xy 81.199062 97.512058) (xy 81.227 97.371603)
        (xy 81.227 97.228397) (xy 81.199062 97.087942) (xy 81.144259 96.955636) (xy 81.064698 96.836564) (xy 80.963436 96.735302)
        (xy 80.844364 96.655741) (xy 80.835332 96.652) (xy 89.348 96.652) (xy 89.348001 102.748) (xy 46.152 102.748)
        (xy 46.152 101.296891) (xy 46.198519 101.296891) (xy 46.295843 101.571252) (xy 46.444822 101.821355) (xy 46.639731 102.037588)
        (xy 46.87308 102.211641) (xy 47.135901 102.336825) (xy 47.28311 102.381476) (xy 47.513 102.260155) (xy 47.513 101.067)
        (xy 47.767 101.067) (xy 47.767 102.260155) (xy 47.99689 102.381476) (xy 48.144099 102.336825) (xy 48.40692 102.211641)
        (xy 48.640269 102.037588) (xy 48.835178 101.821355) (xy 48.91 101.695745) (xy 48.984822 101.821355) (xy 49.179731 102.037588)
        (xy 49.41308 102.211641) (xy 49.675901 102.336825) (xy 49.82311 102.381476) (xy 50.053 102.260155) (xy 50.053 101.067)
        (xy 50.307 101.067) (xy 50.307 102.260155) (xy 50.53689 102.381476) (xy 50.684099 102.336825) (xy 50.94692 102.211641)
        (xy 51.180269 102.037588) (xy 51.375178 101.821355) (xy 51.45 101.695745) (xy 51.524822 101.821355) (xy 51.719731 102.037588)
        (xy 51.95308 102.211641) (xy 52.215901 102.336825) (xy 52.36311 102.381476) (xy 52.593 102.260155) (xy 52.593 101.067)
        (xy 52.847 101.067) (xy 52.847 102.260155) (xy 53.07689 102.381476) (xy 53.224099 102.336825) (xy 53.48692 102.211641)
        (xy 53.720269 102.037588) (xy 53.915178 101.821355) (xy 53.99 101.695745) (xy 54.064822 101.821355) (xy 54.259731 102.037588)
        (xy 54.49308 102.211641) (xy 54.755901 102.336825) (xy 54.90311 102.381476) (xy 55.133 102.260155) (xy 55.133 101.067)
        (xy 55.387 101.067) (xy 55.387 102.260155) (xy 55.61689 102.381476) (xy 55.764099 102.336825) (xy 56.02692 102.211641)
        (xy 56.260269 102.037588) (xy 56.455178 101.821355) (xy 56.53 101.695745) (xy 56.604822 101.821355) (xy 56.799731 102.037588)
        (xy 57.03308 102.211641) (xy 57.295901 102.336825) (xy 57.44311 102.381476) (xy 57.673 102.260155) (xy 57.673 101.067)
        (xy 57.927 101.067) (xy 57.927 102.260155) (xy 58.15689 102.381476) (xy 58.304099 102.336825) (xy 58.56692 102.211641)
        (xy 58.800269 102.037588) (xy 58.995178 101.821355) (xy 59.07 101.695745) (xy 59.144822 101.821355) (xy 59.339731 102.037588)
        (xy 59.57308 102.211641) (xy 59.835901 102.336825) (xy 59.98311 102.381476) (xy 60.213 102.260155) (xy 60.213 101.067)
        (xy 60.467 101.067) (xy 60.467 102.260155) (xy 60.69689 102.381476) (xy 60.844099 102.336825) (xy 61.10692 102.211641)
        (xy 61.340269 102.037588) (xy 61.535178 101.821355) (xy 61.61 101.695745) (xy 61.684822 101.821355) (xy 61.879731 102.037588)
        (xy 62.11308 102.211641) (xy 62.375901 102.336825) (xy 62.52311 102.381476) (xy 62.753 102.260155) (xy 62.753 101.067)
        (xy 63.007 101.067) (xy 63.007 102.260155) (xy 63.23689 102.381476) (xy 63.384099 102.336825) (xy 63.64692 102.211641)
        (xy 63.880269 102.037588) (xy 64.075178 101.821355) (xy 64.15 101.695745) (xy 64.224822 101.821355) (xy 64.419731 102.037588)
        (xy 64.65308 102.211641) (xy 64.915901 102.336825) (xy 65.06311 102.381476) (xy 65.293 102.260155) (xy 65.293 101.067)
        (xy 65.547 101.067) (xy 65.547 102.260155) (xy 65.77689 102.381476) (xy 65.924099 102.336825) (xy 66.18692 102.211641)
        (xy 66.420269 102.037588) (xy 66.615178 101.821355) (xy 66.69 101.695745) (xy 66.764822 101.821355) (xy 66.959731 102.037588)
        (xy 67.19308 102.211641) (xy 67.455901 102.336825) (xy 67.60311 102.381476) (xy 67.833 102.260155) (xy 67.833 101.067)
        (xy 68.087 101.067) (xy 68.087 102.260155) (xy 68.31689 102.381476) (xy 68.464099 102.336825) (xy 68.72692 102.211641)
        (xy 68.960269 102.037588) (xy 69.155178 101.821355) (xy 69.23 101.695745) (xy 69.304822 101.821355) (xy 69.499731 102.037588)
        (xy 69.73308 102.211641) (xy 69.995901 102.336825) (xy 70.14311 102.381476) (xy 70.373 102.260155) (xy 70.373 101.067)
        (xy 70.627 101.067) (xy 70.627 102.260155) (xy 70.85689 102.381476) (xy 71.004099 102.336825) (xy 71.26692 102.211641)
        (xy 71.500269 102.037588) (xy 71.695178 101.821355) (xy 71.844157 101.571252) (xy 71.941481 101.296891) (xy 71.820814 101.067)
        (xy 70.627 101.067) (xy 70.373 101.067) (xy 68.087 101.067) (xy 67.833 101.067) (xy 65.547 101.067)
        (xy 65.293 101.067) (xy 63.007 101.067) (xy 62.753 101.067) (xy 60.467 101.067) (xy 60.213 101.067)
        (xy 57.927 101.067) (xy 57.673 101.067) (xy 55.387 101.067) (xy 55.133 101.067) (xy 52.847 101.067)
        (xy 52.593 101.067) (xy 50.307 101.067) (xy 50.053 101.067) (xy 47.767 101.067) (xy 47.513 101.067)
        (xy 46.319186 101.067) (xy 46.198519 101.296891) (xy 46.152 101.296891) (xy 46.152 100.828397) (xy 81.873 100.828397)
        (xy 81.873 100.971603) (xy 81.900938 101.112058) (xy 81.955741 101.244364) (xy 82.035302 101.363436) (xy 82.136564 101.464698)
        (xy 82.255636 101.544259) (xy 82.387942 101.599062) (xy 82.528397 101.627) (xy 82.671603 101.627) (xy 82.812058 101.599062)
        (xy 82.944364 101.544259) (xy 83.063436 101.464698) (xy 83.164698 101.363436) (xy 83.244259 101.244364) (xy 83.299062 101.112058)
        (xy 83.327 100.971603) (xy 83.327 100.828397) (xy 83.324317 100.814907) (xy 84.562214 99.57701) (xy 85.627661 99.57701)
        (xy 85.635302 99.588446) (xy 85.736564 99.689708) (xy 85.855636 99.769269) (xy 85.987942 99.824072) (xy 86.128397 99.85201)
        (xy 86.271603 99.85201) (xy 86.412058 99.824072) (xy 86.544364 99.769269) (xy 86.663436 99.689708) (xy 86.764698 99.588446)
        (xy 86.844259 99.469374) (xy 86.899062 99.337068) (xy 86.927 99.196613) (xy 86.927 99.053407) (xy 86.899062 98.912952)
        (xy 86.844259 98.780646) (xy 86.764698 98.661574) (xy 86.663436 98.560312) (xy 86.544364 98.480751) (xy 86.412058 98.425948)
        (xy 86.271603 98.39801) (xy 86.128397 98.39801) (xy 85.987942 98.425948) (xy 85.855636 98.480751) (xy 85.736564 98.560312)
        (xy 85.635302 98.661574) (xy 85.627661 98.67301) (xy 84.397195 98.67301) (xy 84.37499 98.670823) (xy 84.286382 98.67955)
        (xy 84.258718 98.687942) (xy 84.20118 98.705396) (xy 84.122657 98.747367) (xy 84.053831 98.803851) (xy 84.039671 98.821105)
        (xy 82.685093 100.175683) (xy 82.671603 100.173) (xy 82.528397 100.173) (xy 82.387942 100.200938) (xy 82.255636 100.255741)
        (xy 82.136564 100.335302) (xy 82.035302 100.436564) (xy 81.955741 100.555636) (xy 81.900938 100.687942) (xy 81.873 100.828397)
        (xy 46.152 100.828397) (xy 46.152 96.652) (xy 70.508775 96.652)
      )
    )
  )
)
