%!PS-Adobe-3.0
%%Creator: PCBNEW
%%CreationDate: Fri May  1 15:11:26 2020
%%Title: /home/bastian/Projects/TheFullStack/cat-hardware/cat-programmer/CAT_PRG_Rev1/cat-programmer-PTH-drl_map.ps
%%Pages: 1
%%PageOrder: Ascend
%%BoundingBox: 0 0 596 842
%%DocumentMedia: A4 595 842 0 () ()
%%Orientation: Landscape
%%EndComments
%%BeginProlog
/line { newpath moveto lineto stroke } bind def
/cir0 { newpath 0 360 arc stroke } bind def
/cir1 { newpath 0 360 arc gsave fill grestore stroke } bind def
/cir2 { newpath 0 360 arc gsave fill grestore stroke } bind def
/arc0 { newpath arc stroke } bind def
/arc1 { newpath 4 index 4 index moveto arc closepath gsave fill
    grestore stroke } bind def
/arc2 { newpath 4 index 4 index moveto arc closepath gsave fill
    grestore stroke } bind def
/poly0 { stroke } bind def
/poly1 { closepath gsave fill grestore stroke } bind def
/poly2 { closepath gsave fill grestore stroke } bind def
/rect0 { rectstroke } bind def
/rect1 { rectfill } bind def
/rect2 { rectfill } bind def
/linemode0 { 0 setlinecap 0 setlinejoin 0 setlinewidth } bind def
/linemode1 { 1 setlinecap 1 setlinejoin } bind def
/dashedline { [200] 100 setdash } bind def
/solidline { [] 0 setdash } bind def
/phantomshow { moveto
    /KicadFont findfont 0.000001 scalefont setfont
    show } bind def
/textshow { gsave
    findfont exch scalefont setfont concat 1 scale 0 0 moveto show
    } bind def
/reencodefont {
  findfont dup length dict begin
  { 1 index /FID ne
    { def }
    { pop pop } ifelse
  } forall
  /Encoding ISOLatin1Encoding def
  currentdict
  end } bind def
/KicadFont /Helvetica reencodefont definefont pop
/KicadFont-Bold /Helvetica-Bold reencodefont definefont pop
/KicadFont-Oblique /Helvetica-Oblique reencodefont definefont pop
/KicadFont-BoldOblique /Helvetica-BoldOblique reencodefont definefont pop
%%EndProlog
%%Page: 1 1
%%BeginPageSetup
gsave
0.0072 0.0072 scale
linemode1
82680 0 translate 90 rotate
105.898 setlinewidth
%%EndPageSetup
0 0 0 setrgbcolor
41.6923 setlinewidth
newpath
79311.1 78722.1 moveto
37618.9 78722.1 lineto
stroke
0 0 0 setrgbcolor
newpath
79311.1 37029.9 moveto
79311.1 78722.1 lineto
stroke
0 0 0 setrgbcolor
newpath
37618.9 37029.9 moveto
79311.1 37029.9 lineto
stroke
0 0 0 setrgbcolor
newpath
37618.9 78722.1 moveto
37618.9 37029.9 lineto
stroke
78.7401 setlinewidth
newpath
48875.8 48870.5 moveto
49209.3 48536.9 lineto
stroke
newpath
49209.3 48870.5 moveto
48875.8 48536.9 lineto
stroke
newpath
56380.4 42866.8 moveto
56713.9 42533.2 lineto
stroke
newpath
56713.9 42866.8 moveto
56380.4 42533.2 lineto
stroke
newpath
60382.8 42866.8 moveto
60716.4 42533.2 lineto
stroke
newpath
60716.4 42866.8 moveto
60382.8 42533.2 lineto
stroke
newpath
64885.6 46285.5 moveto
65219.2 45952 lineto
stroke
newpath
65219.2 46285.5 moveto
64885.6 45952 lineto
stroke
newpath
66136.4 43033.5 moveto
66469.9 42700 lineto
stroke
newpath
66469.9 43033.5 moveto
66136.4 42700 lineto
stroke
65619.4 51663.8 271 cir0
66678.4 51663.8 271 cir0
newpath
58881.9 72968.6 moveto
58881.9 72384.9 lineto
stroke
newpath
58590.1 72676.8 moveto
59173.8 72676.8 lineto
stroke
newpath
58881.9 71909.6 moveto
58881.9 71325.9 lineto
stroke
newpath
58590.1 71617.8 moveto
59173.8 71617.8 lineto
stroke
newpath
59940.9 72968.6 moveto
59940.9 72384.9 lineto
stroke
newpath
59649.1 72676.8 moveto
60232.8 72676.8 lineto
stroke
newpath
59940.9 71909.6 moveto
59940.9 71325.9 lineto
stroke
newpath
59649.1 71617.8 moveto
60232.8 71617.8 lineto
stroke
newpath
60999.9 72968.6 moveto
60999.9 72384.9 lineto
stroke
newpath
60708 72676.8 moveto
61291.7 72676.8 lineto
stroke
newpath
60999.9 71909.6 moveto
60999.9 71325.9 lineto
stroke
newpath
60708 71617.8 moveto
61291.7 71617.8 lineto
stroke
newpath
43727 71363.2 moveto
43727 71905.7 lineto
43184.5 71905.7 lineto
43184.5 71363.2 lineto
43727 71363.2 lineto
poly0
newpath
43727 69278.6 moveto
43727 69821.1 lineto
43184.5 69821.1 lineto
43184.5 69278.6 lineto
43727 69278.6 lineto
poly0
newpath
45394.7 71363.2 moveto
45394.7 71905.7 lineto
44852.2 71905.7 lineto
44852.2 71363.2 lineto
45394.7 71363.2 lineto
poly0
newpath
45394.7 69278.6 moveto
45394.7 69821.1 lineto
44852.2 69821.1 lineto
44852.2 69278.6 lineto
45394.7 69278.6 lineto
poly0
newpath
43839.3 59010 moveto
44256.3 59427 lineto
43839.3 59843.9 lineto
43422.4 59427 lineto
43839.3 59010 lineto
poly0
newpath
43839.3 56892.1 moveto
44256.3 57309 lineto
43839.3 57725.9 lineto
43422.4 57309 lineto
43839.3 56892.1 lineto
poly0
newpath
43839.3 54774.1 moveto
44256.3 55191 lineto
43839.3 55607.9 lineto
43422.4 55191 lineto
43839.3 54774.1 lineto
poly0
newpath
43839.3 52656.1 moveto
44256.3 53073 lineto
43839.3 53490 lineto
43422.4 53073 lineto
43839.3 52656.1 lineto
poly0
newpath
43839.3 50538.2 moveto
44256.3 50955.1 lineto
43839.3 51372 lineto
43422.4 50955.1 lineto
43839.3 50538.2 lineto
poly0
newpath
43839.3 48420.2 moveto
44256.3 48837.1 lineto
43839.3 49254 lineto
43422.4 48837.1 lineto
43839.3 48420.2 lineto
poly0
newpath
43839.3 46302.2 moveto
44256.3 46719.1 lineto
43839.3 47136.1 lineto
43422.4 46719.1 lineto
43839.3 46302.2 lineto
poly0
newpath
43839.3 44184.3 moveto
44256.3 44601.2 lineto
43839.3 45018.1 lineto
43422.4 44601.2 lineto
43839.3 44184.3 lineto
poly0
newpath
43839.3 42066.3 moveto
44256.3 42483.2 lineto
43839.3 42900.1 lineto
43422.4 42483.2 lineto
43839.3 42066.3 lineto
poly0
newpath
43839.3 39948.3 moveto
44256.3 40365.2 lineto
43839.3 40782.2 lineto
43422.4 40365.2 lineto
43839.3 39948.3 lineto
poly0
newpath
45957.3 59010 moveto
46374.2 59427 lineto
45957.3 59843.9 lineto
45540.4 59427 lineto
45957.3 59010 lineto
poly0
newpath
45957.3 56892.1 moveto
46374.2 57309 lineto
45957.3 57725.9 lineto
45540.4 57309 lineto
45957.3 56892.1 lineto
poly0
newpath
45957.3 54774.1 moveto
46374.2 55191 lineto
45957.3 55607.9 lineto
45540.4 55191 lineto
45957.3 54774.1 lineto
poly0
newpath
45957.3 52656.1 moveto
46374.2 53073 lineto
45957.3 53490 lineto
45540.4 53073 lineto
45957.3 52656.1 lineto
poly0
newpath
45957.3 50538.2 moveto
46374.2 50955.1 lineto
45957.3 51372 lineto
45540.4 50955.1 lineto
45957.3 50538.2 lineto
poly0
newpath
45957.3 48420.2 moveto
46374.2 48837.1 lineto
45957.3 49254 lineto
45540.4 48837.1 lineto
45957.3 48420.2 lineto
poly0
newpath
45957.3 46302.2 moveto
46374.2 46719.1 lineto
45957.3 47136.1 lineto
45540.4 46719.1 lineto
45957.3 46302.2 lineto
poly0
newpath
45957.3 44184.3 moveto
46374.2 44601.2 lineto
45957.3 45018.1 lineto
45540.4 44601.2 lineto
45957.3 44184.3 lineto
poly0
newpath
45957.3 42066.3 moveto
46374.2 42483.2 lineto
45957.3 42900.1 lineto
45540.4 42483.2 lineto
45957.3 42066.3 lineto
poly0
newpath
45957.3 39948.3 moveto
46374.2 40365.2 lineto
45957.3 40782.2 lineto
45540.4 40365.2 lineto
45957.3 39948.3 lineto
poly0
newpath
40224.6 76583.3 moveto
42167.5 74640.5 lineto
stroke
newpath
42167.5 76583.3 moveto
40224.6 74640.5 lineto
stroke
41196.1 75611.9 971.43 cir0
newpath
40224.6 66543.8 moveto
42167.5 64601 lineto
stroke
newpath
42167.5 66543.8 moveto
40224.6 64601 lineto
stroke
41196.1 65572.4 971.43 cir0
118.11 setlinewidth
0 0 0 setrgbcolor
0 0 0 setrgbcolor
newpath
38725.7 35175.5 moveto
38725.7 36356.6 lineto
39006.9 36356.6 lineto
39175.6 36300.3 lineto
39288.1 36187.9 lineto
39344.4 36075.4 lineto
39400.6 35850.4 lineto
39400.6 35681.7 lineto
39344.4 35456.7 lineto
39288.1 35344.2 lineto
39175.6 35231.7 lineto
39006.9 35175.5 lineto
38725.7 35175.5 lineto
stroke
newpath
39906.8 35175.5 moveto
39906.8 35962.9 lineto
stroke
newpath
39906.8 35737.9 moveto
39963 35850.4 lineto
40019.3 35906.6 lineto
40131.8 35962.9 lineto
40244.2 35962.9 lineto
stroke
newpath
40637.9 35175.5 moveto
40637.9 35962.9 lineto
stroke
newpath
40637.9 36356.6 moveto
40581.7 36300.3 lineto
40637.9 36244.1 lineto
40694.2 36300.3 lineto
40637.9 36356.6 lineto
40637.9 36244.1 lineto
stroke
newpath
41369.1 35175.5 moveto
41256.6 35231.7 lineto
41200.4 35344.2 lineto
41200.4 36356.6 lineto
stroke
newpath
41987.8 35175.5 moveto
41875.3 35231.7 lineto
41819 35344.2 lineto
41819 36356.6 lineto
stroke
newpath
43337.6 35175.5 moveto
43337.6 36356.6 lineto
43731.3 35512.9 lineto
44125 36356.6 lineto
44125 35175.5 lineto
stroke
newpath
45193.6 35175.5 moveto
45193.6 35794.2 lineto
45137.4 35906.6 lineto
45024.9 35962.9 lineto
44799.9 35962.9 lineto
44687.4 35906.6 lineto
stroke
newpath
45193.6 35231.7 moveto
45081.1 35175.5 lineto
44799.9 35175.5 lineto
44687.4 35231.7 lineto
44631.2 35344.2 lineto
44631.2 35456.7 lineto
44687.4 35569.2 lineto
44799.9 35625.4 lineto
45081.1 35625.4 lineto
45193.6 35681.7 lineto
stroke
newpath
45756.1 35962.9 moveto
45756.1 34781.8 lineto
stroke
newpath
45756.1 35906.6 moveto
45868.5 35962.9 lineto
46093.5 35962.9 lineto
46206 35906.6 lineto
46262.2 35850.4 lineto
46318.5 35737.9 lineto
46318.5 35400.5 lineto
46262.2 35288 lineto
46206 35231.7 lineto
46093.5 35175.5 lineto
45868.5 35175.5 lineto
45756.1 35231.7 lineto
stroke
newpath
46824.7 35288 moveto
46880.9 35231.7 lineto
46824.7 35175.5 lineto
46768.4 35231.7 lineto
46824.7 35288 lineto
46824.7 35175.5 lineto
stroke
newpath
46824.7 35906.6 moveto
46880.9 35850.4 lineto
46824.7 35794.2 lineto
46768.4 35850.4 lineto
46824.7 35906.6 lineto
46824.7 35794.2 lineto
stroke
newpath
37264.5 33396.2 moveto
37598 33062.7 lineto
stroke
newpath
37598 33396.2 moveto
37264.5 33062.7 lineto
stroke
0 0 0 setrgbcolor
0 0 0 setrgbcolor
newpath
38950.7 33876.3 moveto
39063.1 33876.3 lineto
39175.6 33820 lineto
39231.9 33763.8 lineto
39288.1 33651.3 lineto
39344.4 33426.3 lineto
39344.4 33145.1 lineto
39288.1 32920.1 lineto
39231.9 32807.7 lineto
39175.6 32751.4 lineto
39063.1 32695.2 lineto
38950.7 32695.2 lineto
38838.2 32751.4 lineto
38781.9 32807.7 lineto
38725.7 32920.1 lineto
38669.4 33145.1 lineto
38669.4 33426.3 lineto
38725.7 33651.3 lineto
38781.9 33763.8 lineto
38838.2 33820 lineto
38950.7 33876.3 lineto
stroke
newpath
39850.5 32807.7 moveto
39906.8 32751.4 lineto
39850.5 32695.2 lineto
39794.3 32751.4 lineto
39850.5 32807.7 lineto
39850.5 32695.2 lineto
stroke
newpath
40919.2 33482.6 moveto
40919.2 32695.2 lineto
stroke
newpath
40637.9 33932.5 moveto
40356.7 33088.9 lineto
41087.9 33088.9 lineto
stroke
newpath
41762.8 33876.3 moveto
41875.3 33876.3 lineto
41987.8 33820 lineto
42044 33763.8 lineto
42100.3 33651.3 lineto
42156.5 33426.3 lineto
42156.5 33145.1 lineto
42100.3 32920.1 lineto
42044 32807.7 lineto
41987.8 32751.4 lineto
41875.3 32695.2 lineto
41762.8 32695.2 lineto
41650.3 32751.4 lineto
41594.1 32807.7 lineto
41537.8 32920.1 lineto
41481.6 33145.1 lineto
41481.6 33426.3 lineto
41537.8 33651.3 lineto
41594.1 33763.8 lineto
41650.3 33820 lineto
41762.8 33876.3 lineto
stroke
newpath
42662.7 32695.2 moveto
42662.7 33482.6 lineto
stroke
newpath
42662.7 33370.1 moveto
42718.9 33426.3 lineto
42831.4 33482.6 lineto
43000.1 33482.6 lineto
43112.6 33426.3 lineto
43168.9 33313.8 lineto
43168.9 32695.2 lineto
stroke
newpath
43168.9 33313.8 moveto
43225.1 33426.3 lineto
43337.6 33482.6 lineto
43506.3 33482.6 lineto
43618.8 33426.3 lineto
43675.1 33313.8 lineto
43675.1 32695.2 lineto
stroke
newpath
44237.5 32695.2 moveto
44237.5 33482.6 lineto
stroke
newpath
44237.5 33370.1 moveto
44293.7 33426.3 lineto
44406.2 33482.6 lineto
44574.9 33482.6 lineto
44687.4 33426.3 lineto
44743.7 33313.8 lineto
44743.7 32695.2 lineto
stroke
newpath
44743.7 33313.8 moveto
44799.9 33426.3 lineto
44912.4 33482.6 lineto
45081.1 33482.6 lineto
45193.6 33426.3 lineto
45249.9 33313.8 lineto
45249.9 32695.2 lineto
stroke
newpath
47555.8 33932.5 moveto
46543.5 32414 lineto
stroke
newpath
49074.4 33876.3 moveto
49186.9 33876.3 lineto
49299.4 33820 lineto
49355.6 33763.8 lineto
49411.8 33651.3 lineto
49468.1 33426.3 lineto
49468.1 33145.1 lineto
49411.8 32920.1 lineto
49355.6 32807.7 lineto
49299.4 32751.4 lineto
49186.9 32695.2 lineto
49074.4 32695.2 lineto
48961.9 32751.4 lineto
48905.7 32807.7 lineto
48849.4 32920.1 lineto
48793.2 33145.1 lineto
48793.2 33426.3 lineto
48849.4 33651.3 lineto
48905.7 33763.8 lineto
48961.9 33820 lineto
49074.4 33876.3 lineto
stroke
newpath
49974.3 32807.7 moveto
50030.5 32751.4 lineto
49974.3 32695.2 lineto
49918 32751.4 lineto
49974.3 32807.7 lineto
49974.3 32695.2 lineto
stroke
newpath
50761.7 33876.3 moveto
50874.2 33876.3 lineto
50986.6 33820 lineto
51042.9 33763.8 lineto
51099.1 33651.3 lineto
51155.4 33426.3 lineto
51155.4 33145.1 lineto
51099.1 32920.1 lineto
51042.9 32807.7 lineto
50986.6 32751.4 lineto
50874.2 32695.2 lineto
50761.7 32695.2 lineto
50649.2 32751.4 lineto
50592.9 32807.7 lineto
50536.7 32920.1 lineto
50480.5 33145.1 lineto
50480.5 33426.3 lineto
50536.7 33651.3 lineto
50592.9 33763.8 lineto
50649.2 33820 lineto
50761.7 33876.3 lineto
stroke
newpath
52280.2 32695.2 moveto
51605.3 32695.2 lineto
stroke
newpath
51942.8 32695.2 moveto
51942.8 33876.3 lineto
51830.3 33707.5 lineto
51717.8 33595.1 lineto
51605.3 33538.8 lineto
stroke
newpath
53292.6 33876.3 moveto
53067.6 33876.3 lineto
52955.2 33820 lineto
52898.9 33763.8 lineto
52786.4 33595.1 lineto
52730.2 33370.1 lineto
52730.2 32920.1 lineto
52786.4 32807.7 lineto
52842.7 32751.4 lineto
52955.2 32695.2 lineto
53180.1 32695.2 lineto
53292.6 32751.4 lineto
53348.9 32807.7 lineto
53405.1 32920.1 lineto
53405.1 33201.4 lineto
53348.9 33313.8 lineto
53292.6 33370.1 lineto
53180.1 33426.3 lineto
52955.2 33426.3 lineto
52842.7 33370.1 lineto
52786.4 33313.8 lineto
52730.2 33201.4 lineto
stroke
newpath
53855 33876.3 moveto
53855 33651.3 lineto
stroke
newpath
54305 33876.3 moveto
54305 33651.3 lineto
stroke
newpath
56048.5 32245.2 moveto
55992.3 32301.5 lineto
55879.8 32470.2 lineto
55823.5 32582.7 lineto
55767.3 32751.4 lineto
55711.1 33032.6 lineto
55711.1 33257.6 lineto
55767.3 33538.8 lineto
55823.5 33707.5 lineto
55879.8 33820 lineto
55992.3 33988.8 lineto
56048.5 34045 lineto
stroke
newpath
57060.9 33876.3 moveto
56498.5 33876.3 lineto
56442.2 33313.8 lineto
56498.5 33370.1 lineto
56610.9 33426.3 lineto
56892.2 33426.3 lineto
57004.6 33370.1 lineto
57060.9 33313.8 lineto
57117.1 33201.4 lineto
57117.1 32920.1 lineto
57060.9 32807.7 lineto
57004.6 32751.4 lineto
56892.2 32695.2 lineto
56610.9 32695.2 lineto
56498.5 32751.4 lineto
56442.2 32807.7 lineto
stroke
newpath
58523.2 32695.2 moveto
58523.2 33876.3 lineto
stroke
newpath
59029.4 32695.2 moveto
59029.4 33313.8 lineto
58973.2 33426.3 lineto
58860.7 33482.6 lineto
58691.9 33482.6 lineto
58579.5 33426.3 lineto
58523.2 33370.1 lineto
stroke
newpath
59760.6 32695.2 moveto
59648.1 32751.4 lineto
59591.8 32807.7 lineto
59535.6 32920.1 lineto
59535.6 33257.6 lineto
59591.8 33370.1 lineto
59648.1 33426.3 lineto
59760.6 33482.6 lineto
59929.3 33482.6 lineto
60041.8 33426.3 lineto
60098 33370.1 lineto
60154.3 33257.6 lineto
60154.3 32920.1 lineto
60098 32807.7 lineto
60041.8 32751.4 lineto
59929.3 32695.2 lineto
59760.6 32695.2 lineto
stroke
newpath
60829.2 32695.2 moveto
60716.7 32751.4 lineto
60660.4 32863.9 lineto
60660.4 33876.3 lineto
stroke
newpath
61729.1 32751.4 moveto
61616.6 32695.2 lineto
61391.6 32695.2 lineto
61279.1 32751.4 lineto
61222.9 32863.9 lineto
61222.9 33313.8 lineto
61279.1 33426.3 lineto
61391.6 33482.6 lineto
61616.6 33482.6 lineto
61729.1 33426.3 lineto
61785.3 33313.8 lineto
61785.3 33201.4 lineto
61222.9 33088.9 lineto
stroke
newpath
62235.2 32751.4 moveto
62347.7 32695.2 lineto
62572.7 32695.2 lineto
62685.2 32751.4 lineto
62741.4 32863.9 lineto
62741.4 32920.1 lineto
62685.2 33032.6 lineto
62572.7 33088.9 lineto
62404 33088.9 lineto
62291.5 33145.1 lineto
62235.2 33257.6 lineto
62235.2 33313.8 lineto
62291.5 33426.3 lineto
62404 33482.6 lineto
62572.7 33482.6 lineto
62685.2 33426.3 lineto
stroke
newpath
63135.1 32245.2 moveto
63191.4 32301.5 lineto
63303.9 32470.2 lineto
63360.1 32582.7 lineto
63416.3 32751.4 lineto
63472.6 33032.6 lineto
63472.6 33257.6 lineto
63416.3 33538.8 lineto
63360.1 33707.5 lineto
63303.9 33820 lineto
63191.4 33988.8 lineto
63135.1 34045 lineto
stroke
37327 31670.4 271 cir0
0 0 0 setrgbcolor
0 0 0 setrgbcolor
newpath
38950.7 32317.2 moveto
39063.1 32317.2 lineto
39175.6 32261 lineto
39231.9 32204.7 lineto
39288.1 32092.2 lineto
39344.4 31867.3 lineto
39344.4 31586.1 lineto
39288.1 31361.1 lineto
39231.9 31248.6 lineto
39175.6 31192.4 lineto
39063.1 31136.1 lineto
38950.7 31136.1 lineto
38838.2 31192.4 lineto
38781.9 31248.6 lineto
38725.7 31361.1 lineto
38669.4 31586.1 lineto
38669.4 31867.3 lineto
38725.7 32092.2 lineto
38781.9 32204.7 lineto
38838.2 32261 lineto
38950.7 32317.2 lineto
stroke
newpath
39850.5 31248.6 moveto
39906.8 31192.4 lineto
39850.5 31136.1 lineto
39794.3 31192.4 lineto
39850.5 31248.6 lineto
39850.5 31136.1 lineto
stroke
newpath
40919.2 32317.2 moveto
40694.2 32317.2 lineto
40581.7 32261 lineto
40525.5 32204.7 lineto
40413 32036 lineto
40356.7 31811 lineto
40356.7 31361.1 lineto
40413 31248.6 lineto
40469.2 31192.4 lineto
40581.7 31136.1 lineto
40806.7 31136.1 lineto
40919.2 31192.4 lineto
40975.4 31248.6 lineto
41031.6 31361.1 lineto
41031.6 31642.3 lineto
40975.4 31754.8 lineto
40919.2 31811 lineto
40806.7 31867.3 lineto
40581.7 31867.3 lineto
40469.2 31811 lineto
40413 31754.8 lineto
40356.7 31642.3 lineto
stroke
newpath
42100.3 32317.2 moveto
41537.8 32317.2 lineto
41481.6 31754.8 lineto
41537.8 31811 lineto
41650.3 31867.3 lineto
41931.5 31867.3 lineto
42044 31811 lineto
42100.3 31754.8 lineto
42156.5 31642.3 lineto
42156.5 31361.1 lineto
42100.3 31248.6 lineto
42044 31192.4 lineto
41931.5 31136.1 lineto
41650.3 31136.1 lineto
41537.8 31192.4 lineto
41481.6 31248.6 lineto
stroke
newpath
42662.7 31136.1 moveto
42662.7 31923.5 lineto
stroke
newpath
42662.7 31811 moveto
42718.9 31867.3 lineto
42831.4 31923.5 lineto
43000.1 31923.5 lineto
43112.6 31867.3 lineto
43168.9 31754.8 lineto
43168.9 31136.1 lineto
stroke
newpath
43168.9 31754.8 moveto
43225.1 31867.3 lineto
43337.6 31923.5 lineto
43506.3 31923.5 lineto
43618.8 31867.3 lineto
43675.1 31754.8 lineto
43675.1 31136.1 lineto
stroke
newpath
44237.5 31136.1 moveto
44237.5 31923.5 lineto
stroke
newpath
44237.5 31811 moveto
44293.7 31867.3 lineto
44406.2 31923.5 lineto
44574.9 31923.5 lineto
44687.4 31867.3 lineto
44743.7 31754.8 lineto
44743.7 31136.1 lineto
stroke
newpath
44743.7 31754.8 moveto
44799.9 31867.3 lineto
44912.4 31923.5 lineto
45081.1 31923.5 lineto
45193.6 31867.3 lineto
45249.9 31754.8 lineto
45249.9 31136.1 lineto
stroke
newpath
47555.8 32373.5 moveto
46543.5 30854.9 lineto
stroke
newpath
49074.4 32317.2 moveto
49186.9 32317.2 lineto
49299.4 32261 lineto
49355.6 32204.7 lineto
49411.8 32092.2 lineto
49468.1 31867.3 lineto
49468.1 31586.1 lineto
49411.8 31361.1 lineto
49355.6 31248.6 lineto
49299.4 31192.4 lineto
49186.9 31136.1 lineto
49074.4 31136.1 lineto
48961.9 31192.4 lineto
48905.7 31248.6 lineto
48849.4 31361.1 lineto
48793.2 31586.1 lineto
48793.2 31867.3 lineto
48849.4 32092.2 lineto
48905.7 32204.7 lineto
48961.9 32261 lineto
49074.4 32317.2 lineto
stroke
newpath
49974.3 31248.6 moveto
50030.5 31192.4 lineto
49974.3 31136.1 lineto
49918 31192.4 lineto
49974.3 31248.6 lineto
49974.3 31136.1 lineto
stroke
newpath
50761.7 32317.2 moveto
50874.2 32317.2 lineto
50986.6 32261 lineto
51042.9 32204.7 lineto
51099.1 32092.2 lineto
51155.4 31867.3 lineto
51155.4 31586.1 lineto
51099.1 31361.1 lineto
51042.9 31248.6 lineto
50986.6 31192.4 lineto
50874.2 31136.1 lineto
50761.7 31136.1 lineto
50649.2 31192.4 lineto
50592.9 31248.6 lineto
50536.7 31361.1 lineto
50480.5 31586.1 lineto
50480.5 31867.3 lineto
50536.7 32092.2 lineto
50592.9 32204.7 lineto
50649.2 32261 lineto
50761.7 32317.2 lineto
stroke
newpath
51605.3 32204.7 moveto
51661.6 32261 lineto
51774.1 32317.2 lineto
52055.3 32317.2 lineto
52167.8 32261 lineto
52224 32204.7 lineto
52280.2 32092.2 lineto
52280.2 31979.8 lineto
52224 31811 lineto
51549.1 31136.1 lineto
52280.2 31136.1 lineto
stroke
newpath
53292.6 32317.2 moveto
53067.6 32317.2 lineto
52955.2 32261 lineto
52898.9 32204.7 lineto
52786.4 32036 lineto
52730.2 31811 lineto
52730.2 31361.1 lineto
52786.4 31248.6 lineto
52842.7 31192.4 lineto
52955.2 31136.1 lineto
53180.1 31136.1 lineto
53292.6 31192.4 lineto
53348.9 31248.6 lineto
53405.1 31361.1 lineto
53405.1 31642.3 lineto
53348.9 31754.8 lineto
53292.6 31811 lineto
53180.1 31867.3 lineto
52955.2 31867.3 lineto
52842.7 31811 lineto
52786.4 31754.8 lineto
52730.2 31642.3 lineto
stroke
newpath
53855 32317.2 moveto
53855 32092.2 lineto
stroke
newpath
54305 32317.2 moveto
54305 32092.2 lineto
stroke
newpath
56048.5 30686.2 moveto
55992.3 30742.4 lineto
55879.8 30911.1 lineto
55823.5 31023.6 lineto
55767.3 31192.4 lineto
55711.1 31473.6 lineto
55711.1 31698.5 lineto
55767.3 31979.8 lineto
55823.5 32148.5 lineto
55879.8 32261 lineto
55992.3 32429.7 lineto
56048.5 32485.9 lineto
stroke
newpath
56442.2 32204.7 moveto
56498.5 32261 lineto
56610.9 32317.2 lineto
56892.2 32317.2 lineto
57004.6 32261 lineto
57060.9 32204.7 lineto
57117.1 32092.2 lineto
57117.1 31979.8 lineto
57060.9 31811 lineto
56386 31136.1 lineto
57117.1 31136.1 lineto
stroke
newpath
58523.2 31136.1 moveto
58523.2 32317.2 lineto
stroke
newpath
59029.4 31136.1 moveto
59029.4 31754.8 lineto
58973.2 31867.3 lineto
58860.7 31923.5 lineto
58691.9 31923.5 lineto
58579.5 31867.3 lineto
58523.2 31811 lineto
stroke
newpath
59760.6 31136.1 moveto
59648.1 31192.4 lineto
59591.8 31248.6 lineto
59535.6 31361.1 lineto
59535.6 31698.5 lineto
59591.8 31811 lineto
59648.1 31867.3 lineto
59760.6 31923.5 lineto
59929.3 31923.5 lineto
60041.8 31867.3 lineto
60098 31811 lineto
60154.3 31698.5 lineto
60154.3 31361.1 lineto
60098 31248.6 lineto
60041.8 31192.4 lineto
59929.3 31136.1 lineto
59760.6 31136.1 lineto
stroke
newpath
60829.2 31136.1 moveto
60716.7 31192.4 lineto
60660.4 31304.8 lineto
60660.4 32317.2 lineto
stroke
newpath
61729.1 31192.4 moveto
61616.6 31136.1 lineto
61391.6 31136.1 lineto
61279.1 31192.4 lineto
61222.9 31304.8 lineto
61222.9 31754.8 lineto
61279.1 31867.3 lineto
61391.6 31923.5 lineto
61616.6 31923.5 lineto
61729.1 31867.3 lineto
61785.3 31754.8 lineto
61785.3 31642.3 lineto
61222.9 31529.8 lineto
stroke
newpath
62235.2 31192.4 moveto
62347.7 31136.1 lineto
62572.7 31136.1 lineto
62685.2 31192.4 lineto
62741.4 31304.8 lineto
62741.4 31361.1 lineto
62685.2 31473.6 lineto
62572.7 31529.8 lineto
62404 31529.8 lineto
62291.5 31586.1 lineto
62235.2 31698.5 lineto
62235.2 31754.8 lineto
62291.5 31867.3 lineto
62404 31923.5 lineto
62572.7 31923.5 lineto
62685.2 31867.3 lineto
stroke
newpath
63135.1 30686.2 moveto
63191.4 30742.4 lineto
63303.9 30911.1 lineto
63360.1 31023.6 lineto
63416.3 31192.4 lineto
63472.6 31473.6 lineto
63472.6 31698.5 lineto
63416.3 31979.8 lineto
63360.1 32148.5 lineto
63303.9 32261 lineto
63191.4 32429.7 lineto
63135.1 32485.9 lineto
stroke
newpath
37306.2 30403.2 moveto
37306.2 29819.5 lineto
stroke
newpath
37014.3 30111.4 moveto
37598 30111.4 lineto
stroke
0 0 0 setrgbcolor
0 0 0 setrgbcolor
newpath
38950.7 30758.2 moveto
39063.1 30758.2 lineto
39175.6 30701.9 lineto
39231.9 30645.7 lineto
39288.1 30533.2 lineto
39344.4 30308.2 lineto
39344.4 30027 lineto
39288.1 29802 lineto
39231.9 29689.5 lineto
39175.6 29633.3 lineto
39063.1 29577.1 lineto
38950.7 29577.1 lineto
38838.2 29633.3 lineto
38781.9 29689.5 lineto
38725.7 29802 lineto
38669.4 30027 lineto
38669.4 30308.2 lineto
38725.7 30533.2 lineto
38781.9 30645.7 lineto
38838.2 30701.9 lineto
38950.7 30758.2 lineto
stroke
newpath
39850.5 29689.5 moveto
39906.8 29633.3 lineto
39850.5 29577.1 lineto
39794.3 29633.3 lineto
39850.5 29689.5 lineto
39850.5 29577.1 lineto
stroke
newpath
40300.5 30758.2 moveto
41087.9 30758.2 lineto
40581.7 29577.1 lineto
stroke
newpath
41762.8 30758.2 moveto
41875.3 30758.2 lineto
41987.8 30701.9 lineto
42044 30645.7 lineto
42100.3 30533.2 lineto
42156.5 30308.2 lineto
42156.5 30027 lineto
42100.3 29802 lineto
42044 29689.5 lineto
41987.8 29633.3 lineto
41875.3 29577.1 lineto
41762.8 29577.1 lineto
41650.3 29633.3 lineto
41594.1 29689.5 lineto
41537.8 29802 lineto
41481.6 30027 lineto
41481.6 30308.2 lineto
41537.8 30533.2 lineto
41594.1 30645.7 lineto
41650.3 30701.9 lineto
41762.8 30758.2 lineto
stroke
newpath
42662.7 29577.1 moveto
42662.7 30364.5 lineto
stroke
newpath
42662.7 30252 moveto
42718.9 30308.2 lineto
42831.4 30364.5 lineto
43000.1 30364.5 lineto
43112.6 30308.2 lineto
43168.9 30195.7 lineto
43168.9 29577.1 lineto
stroke
newpath
43168.9 30195.7 moveto
43225.1 30308.2 lineto
43337.6 30364.5 lineto
43506.3 30364.5 lineto
43618.8 30308.2 lineto
43675.1 30195.7 lineto
43675.1 29577.1 lineto
stroke
newpath
44237.5 29577.1 moveto
44237.5 30364.5 lineto
stroke
newpath
44237.5 30252 moveto
44293.7 30308.2 lineto
44406.2 30364.5 lineto
44574.9 30364.5 lineto
44687.4 30308.2 lineto
44743.7 30195.7 lineto
44743.7 29577.1 lineto
stroke
newpath
44743.7 30195.7 moveto
44799.9 30308.2 lineto
44912.4 30364.5 lineto
45081.1 30364.5 lineto
45193.6 30308.2 lineto
45249.9 30195.7 lineto
45249.9 29577.1 lineto
stroke
newpath
47555.8 30814.4 moveto
46543.5 29295.8 lineto
stroke
newpath
49074.4 30758.2 moveto
49186.9 30758.2 lineto
49299.4 30701.9 lineto
49355.6 30645.7 lineto
49411.8 30533.2 lineto
49468.1 30308.2 lineto
49468.1 30027 lineto
49411.8 29802 lineto
49355.6 29689.5 lineto
49299.4 29633.3 lineto
49186.9 29577.1 lineto
49074.4 29577.1 lineto
48961.9 29633.3 lineto
48905.7 29689.5 lineto
48849.4 29802 lineto
48793.2 30027 lineto
48793.2 30308.2 lineto
48849.4 30533.2 lineto
48905.7 30645.7 lineto
48961.9 30701.9 lineto
49074.4 30758.2 lineto
stroke
newpath
49974.3 29689.5 moveto
50030.5 29633.3 lineto
49974.3 29577.1 lineto
49918 29633.3 lineto
49974.3 29689.5 lineto
49974.3 29577.1 lineto
stroke
newpath
50761.7 30758.2 moveto
50874.2 30758.2 lineto
50986.6 30701.9 lineto
51042.9 30645.7 lineto
51099.1 30533.2 lineto
51155.4 30308.2 lineto
51155.4 30027 lineto
51099.1 29802 lineto
51042.9 29689.5 lineto
50986.6 29633.3 lineto
50874.2 29577.1 lineto
50761.7 29577.1 lineto
50649.2 29633.3 lineto
50592.9 29689.5 lineto
50536.7 29802 lineto
50480.5 30027 lineto
50480.5 30308.2 lineto
50536.7 30533.2 lineto
50592.9 30645.7 lineto
50649.2 30701.9 lineto
50761.7 30758.2 lineto
stroke
newpath
51605.3 30645.7 moveto
51661.6 30701.9 lineto
51774.1 30758.2 lineto
52055.3 30758.2 lineto
52167.8 30701.9 lineto
52224 30645.7 lineto
52280.2 30533.2 lineto
52280.2 30420.7 lineto
52224 30252 lineto
51549.1 29577.1 lineto
52280.2 29577.1 lineto
stroke
newpath
52955.2 30252 moveto
52842.7 30308.2 lineto
52786.4 30364.5 lineto
52730.2 30476.9 lineto
52730.2 30533.2 lineto
52786.4 30645.7 lineto
52842.7 30701.9 lineto
52955.2 30758.2 lineto
53180.1 30758.2 lineto
53292.6 30701.9 lineto
53348.9 30645.7 lineto
53405.1 30533.2 lineto
53405.1 30476.9 lineto
53348.9 30364.5 lineto
53292.6 30308.2 lineto
53180.1 30252 lineto
52955.2 30252 lineto
52842.7 30195.7 lineto
52786.4 30139.5 lineto
52730.2 30027 lineto
52730.2 29802 lineto
52786.4 29689.5 lineto
52842.7 29633.3 lineto
52955.2 29577.1 lineto
53180.1 29577.1 lineto
53292.6 29633.3 lineto
53348.9 29689.5 lineto
53405.1 29802 lineto
53405.1 30027 lineto
53348.9 30139.5 lineto
53292.6 30195.7 lineto
53180.1 30252 lineto
stroke
newpath
53855 30758.2 moveto
53855 30533.2 lineto
stroke
newpath
54305 30758.2 moveto
54305 30533.2 lineto
stroke
newpath
56048.5 29127.1 moveto
55992.3 29183.4 lineto
55879.8 29352.1 lineto
55823.5 29464.6 lineto
55767.3 29633.3 lineto
55711.1 29914.5 lineto
55711.1 30139.5 lineto
55767.3 30420.7 lineto
55823.5 30589.4 lineto
55879.8 30701.9 lineto
55992.3 30870.7 lineto
56048.5 30926.9 lineto
stroke
newpath
57004.6 30758.2 moveto
56779.7 30758.2 lineto
56667.2 30701.9 lineto
56610.9 30645.7 lineto
56498.5 30476.9 lineto
56442.2 30252 lineto
56442.2 29802 lineto
56498.5 29689.5 lineto
56554.7 29633.3 lineto
56667.2 29577.1 lineto
56892.2 29577.1 lineto
57004.6 29633.3 lineto
57060.9 29689.5 lineto
57117.1 29802 lineto
57117.1 30083.2 lineto
57060.9 30195.7 lineto
57004.6 30252 lineto
56892.2 30308.2 lineto
56667.2 30308.2 lineto
56554.7 30252 lineto
56498.5 30195.7 lineto
56442.2 30083.2 lineto
stroke
newpath
58523.2 29577.1 moveto
58523.2 30758.2 lineto
stroke
newpath
59029.4 29577.1 moveto
59029.4 30195.7 lineto
58973.2 30308.2 lineto
58860.7 30364.5 lineto
58691.9 30364.5 lineto
58579.5 30308.2 lineto
58523.2 30252 lineto
stroke
newpath
59760.6 29577.1 moveto
59648.1 29633.3 lineto
59591.8 29689.5 lineto
59535.6 29802 lineto
59535.6 30139.5 lineto
59591.8 30252 lineto
59648.1 30308.2 lineto
59760.6 30364.5 lineto
59929.3 30364.5 lineto
60041.8 30308.2 lineto
60098 30252 lineto
60154.3 30139.5 lineto
60154.3 29802 lineto
60098 29689.5 lineto
60041.8 29633.3 lineto
59929.3 29577.1 lineto
59760.6 29577.1 lineto
stroke
newpath
60829.2 29577.1 moveto
60716.7 29633.3 lineto
60660.4 29745.8 lineto
60660.4 30758.2 lineto
stroke
newpath
61729.1 29633.3 moveto
61616.6 29577.1 lineto
61391.6 29577.1 lineto
61279.1 29633.3 lineto
61222.9 29745.8 lineto
61222.9 30195.7 lineto
61279.1 30308.2 lineto
61391.6 30364.5 lineto
61616.6 30364.5 lineto
61729.1 30308.2 lineto
61785.3 30195.7 lineto
61785.3 30083.2 lineto
61222.9 29970.8 lineto
stroke
newpath
62235.2 29633.3 moveto
62347.7 29577.1 lineto
62572.7 29577.1 lineto
62685.2 29633.3 lineto
62741.4 29745.8 lineto
62741.4 29802 lineto
62685.2 29914.5 lineto
62572.7 29970.8 lineto
62404 29970.8 lineto
62291.5 30027 lineto
62235.2 30139.5 lineto
62235.2 30195.7 lineto
62291.5 30308.2 lineto
62404 30364.5 lineto
62572.7 30364.5 lineto
62685.2 30308.2 lineto
stroke
newpath
63135.1 29127.1 moveto
63191.4 29183.4 lineto
63303.9 29352.1 lineto
63360.1 29464.6 lineto
63416.3 29633.3 lineto
63472.6 29914.5 lineto
63472.6 30139.5 lineto
63416.3 30420.7 lineto
63360.1 30589.4 lineto
63303.9 30701.9 lineto
63191.4 30870.7 lineto
63135.1 30926.9 lineto
stroke
newpath
37485.7 28281.1 moveto
37485.7 28823.5 lineto
36943.2 28823.5 lineto
36943.2 28281.1 lineto
37485.7 28281.1 lineto
poly0
0 0 0 setrgbcolor
0 0 0 setrgbcolor
newpath
38950.7 29199.1 moveto
39063.1 29199.1 lineto
39175.6 29142.9 lineto
39231.9 29086.6 lineto
39288.1 28974.1 lineto
39344.4 28749.2 lineto
39344.4 28468 lineto
39288.1 28243 lineto
39231.9 28130.5 lineto
39175.6 28074.3 lineto
39063.1 28018 lineto
38950.7 28018 lineto
38838.2 28074.3 lineto
38781.9 28130.5 lineto
38725.7 28243 lineto
38669.4 28468 lineto
38669.4 28749.2 lineto
38725.7 28974.1 lineto
38781.9 29086.6 lineto
38838.2 29142.9 lineto
38950.7 29199.1 lineto
stroke
newpath
39850.5 28130.5 moveto
39906.8 28074.3 lineto
39850.5 28018 lineto
39794.3 28074.3 lineto
39850.5 28130.5 lineto
39850.5 28018 lineto
stroke
newpath
40469.2 28018 moveto
40694.2 28018 lineto
40806.7 28074.3 lineto
40862.9 28130.5 lineto
40975.4 28299.2 lineto
41031.6 28524.2 lineto
41031.6 28974.1 lineto
40975.4 29086.6 lineto
40919.2 29142.9 lineto
40806.7 29199.1 lineto
40581.7 29199.1 lineto
40469.2 29142.9 lineto
40413 29086.6 lineto
40356.7 28974.1 lineto
40356.7 28692.9 lineto
40413 28580.4 lineto
40469.2 28524.2 lineto
40581.7 28468 lineto
40806.7 28468 lineto
40919.2 28524.2 lineto
40975.4 28580.4 lineto
41031.6 28692.9 lineto
stroke
newpath
41481.6 29086.6 moveto
41537.8 29142.9 lineto
41650.3 29199.1 lineto
41931.5 29199.1 lineto
42044 29142.9 lineto
42100.3 29086.6 lineto
42156.5 28974.1 lineto
42156.5 28861.7 lineto
42100.3 28692.9 lineto
41425.3 28018 lineto
42156.5 28018 lineto
stroke
newpath
42662.7 28018 moveto
42662.7 28805.4 lineto
stroke
newpath
42662.7 28692.9 moveto
42718.9 28749.2 lineto
42831.4 28805.4 lineto
43000.1 28805.4 lineto
43112.6 28749.2 lineto
43168.9 28636.7 lineto
43168.9 28018 lineto
stroke
newpath
43168.9 28636.7 moveto
43225.1 28749.2 lineto
43337.6 28805.4 lineto
43506.3 28805.4 lineto
43618.8 28749.2 lineto
43675.1 28636.7 lineto
43675.1 28018 lineto
stroke
newpath
44237.5 28018 moveto
44237.5 28805.4 lineto
stroke
newpath
44237.5 28692.9 moveto
44293.7 28749.2 lineto
44406.2 28805.4 lineto
44574.9 28805.4 lineto
44687.4 28749.2 lineto
44743.7 28636.7 lineto
44743.7 28018 lineto
stroke
newpath
44743.7 28636.7 moveto
44799.9 28749.2 lineto
44912.4 28805.4 lineto
45081.1 28805.4 lineto
45193.6 28749.2 lineto
45249.9 28636.7 lineto
45249.9 28018 lineto
stroke
newpath
47555.8 29255.4 moveto
46543.5 27736.8 lineto
stroke
newpath
49074.4 29199.1 moveto
49186.9 29199.1 lineto
49299.4 29142.9 lineto
49355.6 29086.6 lineto
49411.8 28974.1 lineto
49468.1 28749.2 lineto
49468.1 28468 lineto
49411.8 28243 lineto
49355.6 28130.5 lineto
49299.4 28074.3 lineto
49186.9 28018 lineto
49074.4 28018 lineto
48961.9 28074.3 lineto
48905.7 28130.5 lineto
48849.4 28243 lineto
48793.2 28468 lineto
48793.2 28749.2 lineto
48849.4 28974.1 lineto
48905.7 29086.6 lineto
48961.9 29142.9 lineto
49074.4 29199.1 lineto
stroke
newpath
49974.3 28130.5 moveto
50030.5 28074.3 lineto
49974.3 28018 lineto
49918 28074.3 lineto
49974.3 28130.5 lineto
49974.3 28018 lineto
stroke
newpath
50761.7 29199.1 moveto
50874.2 29199.1 lineto
50986.6 29142.9 lineto
51042.9 29086.6 lineto
51099.1 28974.1 lineto
51155.4 28749.2 lineto
51155.4 28468 lineto
51099.1 28243 lineto
51042.9 28130.5 lineto
50986.6 28074.3 lineto
50874.2 28018 lineto
50761.7 28018 lineto
50649.2 28074.3 lineto
50592.9 28130.5 lineto
50536.7 28243 lineto
50480.5 28468 lineto
50480.5 28749.2 lineto
50536.7 28974.1 lineto
50592.9 29086.6 lineto
50649.2 29142.9 lineto
50761.7 29199.1 lineto
stroke
newpath
51549.1 29199.1 moveto
52280.2 29199.1 lineto
51886.5 28749.2 lineto
52055.3 28749.2 lineto
52167.8 28692.9 lineto
52224 28636.7 lineto
52280.2 28524.2 lineto
52280.2 28243 lineto
52224 28130.5 lineto
52167.8 28074.3 lineto
52055.3 28018 lineto
51717.8 28018 lineto
51605.3 28074.3 lineto
51549.1 28130.5 lineto
stroke
newpath
53292.6 29199.1 moveto
53067.6 29199.1 lineto
52955.2 29142.9 lineto
52898.9 29086.6 lineto
52786.4 28917.9 lineto
52730.2 28692.9 lineto
52730.2 28243 lineto
52786.4 28130.5 lineto
52842.7 28074.3 lineto
52955.2 28018 lineto
53180.1 28018 lineto
53292.6 28074.3 lineto
53348.9 28130.5 lineto
53405.1 28243 lineto
53405.1 28524.2 lineto
53348.9 28636.7 lineto
53292.6 28692.9 lineto
53180.1 28749.2 lineto
52955.2 28749.2 lineto
52842.7 28692.9 lineto
52786.4 28636.7 lineto
52730.2 28524.2 lineto
stroke
newpath
53855 29199.1 moveto
53855 28974.1 lineto
stroke
newpath
54305 29199.1 moveto
54305 28974.1 lineto
stroke
newpath
56048.5 27568.1 moveto
55992.3 27624.3 lineto
55879.8 27793 lineto
55823.5 27905.5 lineto
55767.3 28074.3 lineto
55711.1 28355.5 lineto
55711.1 28580.4 lineto
55767.3 28861.7 lineto
55823.5 29030.4 lineto
55879.8 29142.9 lineto
55992.3 29311.6 lineto
56048.5 29367.8 lineto
stroke
newpath
57004.6 28805.4 moveto
57004.6 28018 lineto
stroke
newpath
56723.4 29255.4 moveto
56442.2 28411.7 lineto
57173.4 28411.7 lineto
stroke
newpath
58523.2 28018 moveto
58523.2 29199.1 lineto
stroke
newpath
59029.4 28018 moveto
59029.4 28636.7 lineto
58973.2 28749.2 lineto
58860.7 28805.4 lineto
58691.9 28805.4 lineto
58579.5 28749.2 lineto
58523.2 28692.9 lineto
stroke
newpath
59760.6 28018 moveto
59648.1 28074.3 lineto
59591.8 28130.5 lineto
59535.6 28243 lineto
59535.6 28580.4 lineto
59591.8 28692.9 lineto
59648.1 28749.2 lineto
59760.6 28805.4 lineto
59929.3 28805.4 lineto
60041.8 28749.2 lineto
60098 28692.9 lineto
60154.3 28580.4 lineto
60154.3 28243 lineto
60098 28130.5 lineto
60041.8 28074.3 lineto
59929.3 28018 lineto
59760.6 28018 lineto
stroke
newpath
60829.2 28018 moveto
60716.7 28074.3 lineto
60660.4 28186.7 lineto
60660.4 29199.1 lineto
stroke
newpath
61729.1 28074.3 moveto
61616.6 28018 lineto
61391.6 28018 lineto
61279.1 28074.3 lineto
61222.9 28186.7 lineto
61222.9 28636.7 lineto
61279.1 28749.2 lineto
61391.6 28805.4 lineto
61616.6 28805.4 lineto
61729.1 28749.2 lineto
61785.3 28636.7 lineto
61785.3 28524.2 lineto
61222.9 28411.7 lineto
stroke
newpath
62235.2 28074.3 moveto
62347.7 28018 lineto
62572.7 28018 lineto
62685.2 28074.3 lineto
62741.4 28186.7 lineto
62741.4 28243 lineto
62685.2 28355.5 lineto
62572.7 28411.7 lineto
62404 28411.7 lineto
62291.5 28468 lineto
62235.2 28580.4 lineto
62235.2 28636.7 lineto
62291.5 28749.2 lineto
62404 28805.4 lineto
62572.7 28805.4 lineto
62685.2 28749.2 lineto
stroke
newpath
63135.1 27568.1 moveto
63191.4 27624.3 lineto
63303.9 27793 lineto
63360.1 27905.5 lineto
63416.3 28074.3 lineto
63472.6 28355.5 lineto
63472.6 28580.4 lineto
63416.3 28861.7 lineto
63360.1 29030.4 lineto
63303.9 29142.9 lineto
63191.4 29311.6 lineto
63135.1 29367.8 lineto
stroke
newpath
37181.1 26576.3 moveto
37598 26993.3 lineto
37181.1 27410.2 lineto
36764.2 26993.3 lineto
37181.1 26576.3 lineto
poly0
0 0 0 setrgbcolor
0 0 0 setrgbcolor
newpath
39344.4 26459 moveto
38669.4 26459 lineto
stroke
newpath
39006.9 26459 moveto
39006.9 27640.1 lineto
38894.4 27471.3 lineto
38781.9 27358.8 lineto
38669.4 27302.6 lineto
stroke
newpath
39850.5 26571.4 moveto
39906.8 26515.2 lineto
39850.5 26459 lineto
39794.3 26515.2 lineto
39850.5 26571.4 lineto
39850.5 26459 lineto
stroke
newpath
40637.9 27640.1 moveto
40750.4 27640.1 lineto
40862.9 27583.8 lineto
40919.2 27527.6 lineto
40975.4 27415.1 lineto
41031.6 27190.1 lineto
41031.6 26908.9 lineto
40975.4 26683.9 lineto
40919.2 26571.4 lineto
40862.9 26515.2 lineto
40750.4 26459 lineto
40637.9 26459 lineto
40525.5 26515.2 lineto
40469.2 26571.4 lineto
40413 26683.9 lineto
40356.7 26908.9 lineto
40356.7 27190.1 lineto
40413 27415.1 lineto
40469.2 27527.6 lineto
40525.5 27583.8 lineto
40637.9 27640.1 lineto
stroke
newpath
41762.8 27640.1 moveto
41875.3 27640.1 lineto
41987.8 27583.8 lineto
42044 27527.6 lineto
42100.3 27415.1 lineto
42156.5 27190.1 lineto
42156.5 26908.9 lineto
42100.3 26683.9 lineto
42044 26571.4 lineto
41987.8 26515.2 lineto
41875.3 26459 lineto
41762.8 26459 lineto
41650.3 26515.2 lineto
41594.1 26571.4 lineto
41537.8 26683.9 lineto
41481.6 26908.9 lineto
41481.6 27190.1 lineto
41537.8 27415.1 lineto
41594.1 27527.6 lineto
41650.3 27583.8 lineto
41762.8 27640.1 lineto
stroke
newpath
42662.7 26459 moveto
42662.7 27246.4 lineto
stroke
newpath
42662.7 27133.9 moveto
42718.9 27190.1 lineto
42831.4 27246.4 lineto
43000.1 27246.4 lineto
43112.6 27190.1 lineto
43168.9 27077.6 lineto
43168.9 26459 lineto
stroke
newpath
43168.9 27077.6 moveto
43225.1 27190.1 lineto
43337.6 27246.4 lineto
43506.3 27246.4 lineto
43618.8 27190.1 lineto
43675.1 27077.6 lineto
43675.1 26459 lineto
stroke
newpath
44237.5 26459 moveto
44237.5 27246.4 lineto
stroke
newpath
44237.5 27133.9 moveto
44293.7 27190.1 lineto
44406.2 27246.4 lineto
44574.9 27246.4 lineto
44687.4 27190.1 lineto
44743.7 27077.6 lineto
44743.7 26459 lineto
stroke
newpath
44743.7 27077.6 moveto
44799.9 27190.1 lineto
44912.4 27246.4 lineto
45081.1 27246.4 lineto
45193.6 27190.1 lineto
45249.9 27077.6 lineto
45249.9 26459 lineto
stroke
newpath
47555.8 27696.3 moveto
46543.5 26177.7 lineto
stroke
newpath
49074.4 27640.1 moveto
49186.9 27640.1 lineto
49299.4 27583.8 lineto
49355.6 27527.6 lineto
49411.8 27415.1 lineto
49468.1 27190.1 lineto
49468.1 26908.9 lineto
49411.8 26683.9 lineto
49355.6 26571.4 lineto
49299.4 26515.2 lineto
49186.9 26459 lineto
49074.4 26459 lineto
48961.9 26515.2 lineto
48905.7 26571.4 lineto
48849.4 26683.9 lineto
48793.2 26908.9 lineto
48793.2 27190.1 lineto
48849.4 27415.1 lineto
48905.7 27527.6 lineto
48961.9 27583.8 lineto
49074.4 27640.1 lineto
stroke
newpath
49974.3 26571.4 moveto
50030.5 26515.2 lineto
49974.3 26459 lineto
49918 26515.2 lineto
49974.3 26571.4 lineto
49974.3 26459 lineto
stroke
newpath
50761.7 27640.1 moveto
50874.2 27640.1 lineto
50986.6 27583.8 lineto
51042.9 27527.6 lineto
51099.1 27415.1 lineto
51155.4 27190.1 lineto
51155.4 26908.9 lineto
51099.1 26683.9 lineto
51042.9 26571.4 lineto
50986.6 26515.2 lineto
50874.2 26459 lineto
50761.7 26459 lineto
50649.2 26515.2 lineto
50592.9 26571.4 lineto
50536.7 26683.9 lineto
50480.5 26908.9 lineto
50480.5 27190.1 lineto
50536.7 27415.1 lineto
50592.9 27527.6 lineto
50649.2 27583.8 lineto
50761.7 27640.1 lineto
stroke
newpath
51549.1 27640.1 moveto
52280.2 27640.1 lineto
51886.5 27190.1 lineto
52055.3 27190.1 lineto
52167.8 27133.9 lineto
52224 27077.6 lineto
52280.2 26965.1 lineto
52280.2 26683.9 lineto
52224 26571.4 lineto
52167.8 26515.2 lineto
52055.3 26459 lineto
51717.8 26459 lineto
51605.3 26515.2 lineto
51549.1 26571.4 lineto
stroke
newpath
52842.7 26459 moveto
53067.6 26459 lineto
53180.1 26515.2 lineto
53236.4 26571.4 lineto
53348.9 26740.2 lineto
53405.1 26965.1 lineto
53405.1 27415.1 lineto
53348.9 27527.6 lineto
53292.6 27583.8 lineto
53180.1 27640.1 lineto
52955.2 27640.1 lineto
52842.7 27583.8 lineto
52786.4 27527.6 lineto
52730.2 27415.1 lineto
52730.2 27133.9 lineto
52786.4 27021.4 lineto
52842.7 26965.1 lineto
52955.2 26908.9 lineto
53180.1 26908.9 lineto
53292.6 26965.1 lineto
53348.9 27021.4 lineto
53405.1 27133.9 lineto
stroke
newpath
53855 27640.1 moveto
53855 27415.1 lineto
stroke
newpath
54305 27640.1 moveto
54305 27415.1 lineto
stroke
newpath
56048.5 26009 moveto
55992.3 26065.3 lineto
55879.8 26234 lineto
55823.5 26346.5 lineto
55767.3 26515.2 lineto
55711.1 26796.4 lineto
55711.1 27021.4 lineto
55767.3 27302.6 lineto
55823.5 27471.3 lineto
55879.8 27583.8 lineto
55992.3 27752.5 lineto
56048.5 27808.8 lineto
stroke
newpath
56442.2 27527.6 moveto
56498.5 27583.8 lineto
56610.9 27640.1 lineto
56892.2 27640.1 lineto
57004.6 27583.8 lineto
57060.9 27527.6 lineto
57117.1 27415.1 lineto
57117.1 27302.6 lineto
57060.9 27133.9 lineto
56386 26459 lineto
57117.1 26459 lineto
stroke
newpath
57848.3 27640.1 moveto
57960.8 27640.1 lineto
58073.3 27583.8 lineto
58129.5 27527.6 lineto
58185.7 27415.1 lineto
58242 27190.1 lineto
58242 26908.9 lineto
58185.7 26683.9 lineto
58129.5 26571.4 lineto
58073.3 26515.2 lineto
57960.8 26459 lineto
57848.3 26459 lineto
57735.8 26515.2 lineto
57679.6 26571.4 lineto
57623.3 26683.9 lineto
57567.1 26908.9 lineto
57567.1 27190.1 lineto
57623.3 27415.1 lineto
57679.6 27527.6 lineto
57735.8 27583.8 lineto
57848.3 27640.1 lineto
stroke
newpath
59648.1 26459 moveto
59648.1 27640.1 lineto
stroke
newpath
60154.3 26459 moveto
60154.3 27077.6 lineto
60098 27190.1 lineto
59985.5 27246.4 lineto
59816.8 27246.4 lineto
59704.3 27190.1 lineto
59648.1 27133.9 lineto
stroke
newpath
60885.4 26459 moveto
60772.9 26515.2 lineto
60716.7 26571.4 lineto
60660.4 26683.9 lineto
60660.4 27021.4 lineto
60716.7 27133.9 lineto
60772.9 27190.1 lineto
60885.4 27246.4 lineto
61054.1 27246.4 lineto
61166.6 27190.1 lineto
61222.9 27133.9 lineto
61279.1 27021.4 lineto
61279.1 26683.9 lineto
61222.9 26571.4 lineto
61166.6 26515.2 lineto
61054.1 26459 lineto
60885.4 26459 lineto
stroke
newpath
61954 26459 moveto
61841.5 26515.2 lineto
61785.3 26627.7 lineto
61785.3 27640.1 lineto
stroke
newpath
62853.9 26515.2 moveto
62741.4 26459 lineto
62516.5 26459 lineto
62404 26515.2 lineto
62347.7 26627.7 lineto
62347.7 27077.6 lineto
62404 27190.1 lineto
62516.5 27246.4 lineto
62741.4 27246.4 lineto
62853.9 27190.1 lineto
62910.2 27077.6 lineto
62910.2 26965.1 lineto
62347.7 26852.7 lineto
stroke
newpath
63360.1 26515.2 moveto
63472.6 26459 lineto
63697.6 26459 lineto
63810 26515.2 lineto
63866.3 26627.7 lineto
63866.3 26683.9 lineto
63810 26796.4 lineto
63697.6 26852.7 lineto
63528.8 26852.7 lineto
63416.3 26908.9 lineto
63360.1 27021.4 lineto
63360.1 27077.6 lineto
63416.3 27190.1 lineto
63528.8 27246.4 lineto
63697.6 27246.4 lineto
63810 27190.1 lineto
stroke
newpath
64260 26009 moveto
64316.2 26065.3 lineto
64428.7 26234 lineto
64485 26346.5 lineto
64541.2 26515.2 lineto
64597.4 26796.4 lineto
64597.4 27021.4 lineto
64541.2 27302.6 lineto
64485 27471.3 lineto
64428.7 27583.8 lineto
64316.2 27752.5 lineto
64260 27808.8 lineto
stroke
newpath
35655.1 26405.6 moveto
37598 24462.8 lineto
stroke
newpath
37598 26405.6 moveto
35655.1 24462.8 lineto
stroke
36626.6 25434.2 971.43 cir0
0 0 0 setrgbcolor
0 0 0 setrgbcolor
newpath
38669.4 25968.5 moveto
38725.7 26024.8 lineto
38838.2 26081 lineto
39119.4 26081 lineto
39231.9 26024.8 lineto
39288.1 25968.5 lineto
39344.4 25856 lineto
39344.4 25743.5 lineto
39288.1 25574.8 lineto
38613.2 24899.9 lineto
39344.4 24899.9 lineto
stroke
newpath
39850.5 25012.4 moveto
39906.8 24956.1 lineto
39850.5 24899.9 lineto
39794.3 24956.1 lineto
39850.5 25012.4 lineto
39850.5 24899.9 lineto
stroke
newpath
40300.5 26081 moveto
41031.6 26081 lineto
40637.9 25631.1 lineto
40806.7 25631.1 lineto
40919.2 25574.8 lineto
40975.4 25518.6 lineto
41031.6 25406.1 lineto
41031.6 25124.9 lineto
40975.4 25012.4 lineto
40919.2 24956.1 lineto
40806.7 24899.9 lineto
40469.2 24899.9 lineto
40356.7 24956.1 lineto
40300.5 25012.4 lineto
stroke
newpath
41425.3 26081 moveto
42156.5 26081 lineto
41762.8 25631.1 lineto
41931.5 25631.1 lineto
42044 25574.8 lineto
42100.3 25518.6 lineto
42156.5 25406.1 lineto
42156.5 25124.9 lineto
42100.3 25012.4 lineto
42044 24956.1 lineto
41931.5 24899.9 lineto
41594.1 24899.9 lineto
41481.6 24956.1 lineto
41425.3 25012.4 lineto
stroke
newpath
42662.7 24899.9 moveto
42662.7 25687.3 lineto
stroke
newpath
42662.7 25574.8 moveto
42718.9 25631.1 lineto
42831.4 25687.3 lineto
43000.1 25687.3 lineto
43112.6 25631.1 lineto
43168.9 25518.6 lineto
43168.9 24899.9 lineto
stroke
newpath
43168.9 25518.6 moveto
43225.1 25631.1 lineto
43337.6 25687.3 lineto
43506.3 25687.3 lineto
43618.8 25631.1 lineto
43675.1 25518.6 lineto
43675.1 24899.9 lineto
stroke
newpath
44237.5 24899.9 moveto
44237.5 25687.3 lineto
stroke
newpath
44237.5 25574.8 moveto
44293.7 25631.1 lineto
44406.2 25687.3 lineto
44574.9 25687.3 lineto
44687.4 25631.1 lineto
44743.7 25518.6 lineto
44743.7 24899.9 lineto
stroke
newpath
44743.7 25518.6 moveto
44799.9 25631.1 lineto
44912.4 25687.3 lineto
45081.1 25687.3 lineto
45193.6 25631.1 lineto
45249.9 25518.6 lineto
45249.9 24899.9 lineto
stroke
newpath
47555.8 26137.2 moveto
46543.5 24618.7 lineto
stroke
newpath
49074.4 26081 moveto
49186.9 26081 lineto
49299.4 26024.8 lineto
49355.6 25968.5 lineto
49411.8 25856 lineto
49468.1 25631.1 lineto
49468.1 25349.8 lineto
49411.8 25124.9 lineto
49355.6 25012.4 lineto
49299.4 24956.1 lineto
49186.9 24899.9 lineto
49074.4 24899.9 lineto
48961.9 24956.1 lineto
48905.7 25012.4 lineto
48849.4 25124.9 lineto
48793.2 25349.8 lineto
48793.2 25631.1 lineto
48849.4 25856 lineto
48905.7 25968.5 lineto
48961.9 26024.8 lineto
49074.4 26081 lineto
stroke
newpath
49974.3 25012.4 moveto
50030.5 24956.1 lineto
49974.3 24899.9 lineto
49918 24956.1 lineto
49974.3 25012.4 lineto
49974.3 24899.9 lineto
stroke
newpath
50761.7 26081 moveto
50874.2 26081 lineto
50986.6 26024.8 lineto
51042.9 25968.5 lineto
51099.1 25856 lineto
51155.4 25631.1 lineto
51155.4 25349.8 lineto
51099.1 25124.9 lineto
51042.9 25012.4 lineto
50986.6 24956.1 lineto
50874.2 24899.9 lineto
50761.7 24899.9 lineto
50649.2 24956.1 lineto
50592.9 25012.4 lineto
50536.7 25124.9 lineto
50480.5 25349.8 lineto
50480.5 25631.1 lineto
50536.7 25856 lineto
50592.9 25968.5 lineto
50649.2 26024.8 lineto
50761.7 26081 lineto
stroke
newpath
51717.8 24899.9 moveto
51942.8 24899.9 lineto
52055.3 24956.1 lineto
52111.5 25012.4 lineto
52224 25181.1 lineto
52280.2 25406.1 lineto
52280.2 25856 lineto
52224 25968.5 lineto
52167.8 26024.8 lineto
52055.3 26081 lineto
51830.3 26081 lineto
51717.8 26024.8 lineto
51661.6 25968.5 lineto
51605.3 25856 lineto
51605.3 25574.8 lineto
51661.6 25462.3 lineto
51717.8 25406.1 lineto
51830.3 25349.8 lineto
52055.3 25349.8 lineto
52167.8 25406.1 lineto
52224 25462.3 lineto
52280.2 25574.8 lineto
stroke
newpath
52730.2 25968.5 moveto
52786.4 26024.8 lineto
52898.9 26081 lineto
53180.1 26081 lineto
53292.6 26024.8 lineto
53348.9 25968.5 lineto
53405.1 25856 lineto
53405.1 25743.5 lineto
53348.9 25574.8 lineto
52673.9 24899.9 lineto
53405.1 24899.9 lineto
stroke
newpath
53855 26081 moveto
53855 25856 lineto
stroke
newpath
54305 26081 moveto
54305 25856 lineto
stroke
newpath
56048.5 24450 moveto
55992.3 24506.2 lineto
55879.8 24674.9 lineto
55823.5 24787.4 lineto
55767.3 24956.1 lineto
55711.1 25237.4 lineto
55711.1 25462.3 lineto
55767.3 25743.5 lineto
55823.5 25912.3 lineto
55879.8 26024.8 lineto
55992.3 26193.5 lineto
56048.5 26249.7 lineto
stroke
newpath
56442.2 25968.5 moveto
56498.5 26024.8 lineto
56610.9 26081 lineto
56892.2 26081 lineto
57004.6 26024.8 lineto
57060.9 25968.5 lineto
57117.1 25856 lineto
57117.1 25743.5 lineto
57060.9 25574.8 lineto
56386 24899.9 lineto
57117.1 24899.9 lineto
stroke
newpath
58523.2 24899.9 moveto
58523.2 26081 lineto
stroke
newpath
59029.4 24899.9 moveto
59029.4 25518.6 lineto
58973.2 25631.1 lineto
58860.7 25687.3 lineto
58691.9 25687.3 lineto
58579.5 25631.1 lineto
58523.2 25574.8 lineto
stroke
newpath
59760.6 24899.9 moveto
59648.1 24956.1 lineto
59591.8 25012.4 lineto
59535.6 25124.9 lineto
59535.6 25462.3 lineto
59591.8 25574.8 lineto
59648.1 25631.1 lineto
59760.6 25687.3 lineto
59929.3 25687.3 lineto
60041.8 25631.1 lineto
60098 25574.8 lineto
60154.3 25462.3 lineto
60154.3 25124.9 lineto
60098 25012.4 lineto
60041.8 24956.1 lineto
59929.3 24899.9 lineto
59760.6 24899.9 lineto
stroke
newpath
60829.2 24899.9 moveto
60716.7 24956.1 lineto
60660.4 25068.6 lineto
60660.4 26081 lineto
stroke
newpath
61729.1 24956.1 moveto
61616.6 24899.9 lineto
61391.6 24899.9 lineto
61279.1 24956.1 lineto
61222.9 25068.6 lineto
61222.9 25518.6 lineto
61279.1 25631.1 lineto
61391.6 25687.3 lineto
61616.6 25687.3 lineto
61729.1 25631.1 lineto
61785.3 25518.6 lineto
61785.3 25406.1 lineto
61222.9 25293.6 lineto
stroke
newpath
62235.2 24956.1 moveto
62347.7 24899.9 lineto
62572.7 24899.9 lineto
62685.2 24956.1 lineto
62741.4 25068.6 lineto
62741.4 25124.9 lineto
62685.2 25237.4 lineto
62572.7 25293.6 lineto
62404 25293.6 lineto
62291.5 25349.8 lineto
62235.2 25462.3 lineto
62235.2 25518.6 lineto
62291.5 25631.1 lineto
62404 25687.3 lineto
62572.7 25687.3 lineto
62685.2 25631.1 lineto
stroke
newpath
63135.1 24450 moveto
63191.4 24506.2 lineto
63303.9 24674.9 lineto
63360.1 24787.4 lineto
63416.3 24956.1 lineto
63472.6 25237.4 lineto
63472.6 25462.3 lineto
63416.3 25743.5 lineto
63360.1 25912.3 lineto
63303.9 26024.8 lineto
63191.4 26193.5 lineto
63135.1 26249.7 lineto
stroke
showpage
grestore
%%EOF
