%!PS-Adobe-3.0
%%Creator: PCBNEW
%%CreationDate: Fri May  1 15:11:26 2020
%%Title: /home/bastian/Projects/TheFullStack/cat-hardware/cat-programmer/CAT_PRG_Rev1/cat-programmer-NPTH-drl_map.ps
%%Pages: 1
%%PageOrder: Ascend
%%BoundingBox: 0 0 596 842
%%DocumentMedia: A4 595 842 0 () ()
%%Orientation: Landscape
%%EndComments
%%BeginProlog
/line { newpath moveto lineto stroke } bind def
/cir0 { newpath 0 360 arc stroke } bind def
/cir1 { newpath 0 360 arc gsave fill grestore stroke } bind def
/cir2 { newpath 0 360 arc gsave fill grestore stroke } bind def
/arc0 { newpath arc stroke } bind def
/arc1 { newpath 4 index 4 index moveto arc closepath gsave fill
    grestore stroke } bind def
/arc2 { newpath 4 index 4 index moveto arc closepath gsave fill
    grestore stroke } bind def
/poly0 { stroke } bind def
/poly1 { closepath gsave fill grestore stroke } bind def
/poly2 { closepath gsave fill grestore stroke } bind def
/rect0 { rectstroke } bind def
/rect1 { rectfill } bind def
/rect2 { rectfill } bind def
/linemode0 { 0 setlinecap 0 setlinejoin 0 setlinewidth } bind def
/linemode1 { 1 setlinecap 1 setlinejoin } bind def
/dashedline { [200] 100 setdash } bind def
/solidline { [] 0 setdash } bind def
/phantomshow { moveto
    /KicadFont findfont 0.000001 scalefont setfont
    show } bind def
/textshow { gsave
    findfont exch scalefont setfont concat 1 scale 0 0 moveto show
    } bind def
/reencodefont {
  findfont dup length dict begin
  { 1 index /FID ne
    { def }
    { pop pop } ifelse
  } forall
  /Encoding ISOLatin1Encoding def
  currentdict
  end } bind def
/KicadFont /Helvetica reencodefont definefont pop
/KicadFont-Bold /Helvetica-Bold reencodefont definefont pop
/KicadFont-Oblique /Helvetica-Oblique reencodefont definefont pop
/KicadFont-BoldOblique /Helvetica-BoldOblique reencodefont definefont pop
%%EndProlog
%%Page: 1 1
%%BeginPageSetup
gsave
0.0072 0.0072 scale
linemode1
82680 0 translate 90 rotate
105.898 setlinewidth
%%EndPageSetup
0 0 0 setrgbcolor
41.6923 setlinewidth
newpath
79311.1 78722.1 moveto
37618.9 78722.1 lineto
stroke
0 0 0 setrgbcolor
newpath
79311.1 37029.9 moveto
79311.1 78722.1 lineto
stroke
0 0 0 setrgbcolor
newpath
37618.9 37029.9 moveto
79311.1 37029.9 lineto
stroke
0 0 0 setrgbcolor
newpath
37618.9 78722.1 moveto
37618.9 37029.9 lineto
stroke
78.7401 setlinewidth
newpath
73182.4 70258.6 moveto
75016.8 68424.1 lineto
stroke
newpath
75016.8 70258.6 moveto
73182.4 68424.1 lineto
stroke
newpath
53587 55666.3 moveto
55421.5 53831.8 lineto
stroke
newpath
55421.5 55666.3 moveto
53587 53831.8 lineto
stroke
118.11 setlinewidth
0 0 0 setrgbcolor
0 0 0 setrgbcolor
newpath
38725.7 35175.5 moveto
38725.7 36356.6 lineto
39006.9 36356.6 lineto
39175.6 36300.3 lineto
39288.1 36187.9 lineto
39344.4 36075.4 lineto
39400.6 35850.4 lineto
39400.6 35681.7 lineto
39344.4 35456.7 lineto
39288.1 35344.2 lineto
39175.6 35231.7 lineto
39006.9 35175.5 lineto
38725.7 35175.5 lineto
stroke
newpath
39906.8 35175.5 moveto
39906.8 35962.9 lineto
stroke
newpath
39906.8 35737.9 moveto
39963 35850.4 lineto
40019.3 35906.6 lineto
40131.8 35962.9 lineto
40244.2 35962.9 lineto
stroke
newpath
40637.9 35175.5 moveto
40637.9 35962.9 lineto
stroke
newpath
40637.9 36356.6 moveto
40581.7 36300.3 lineto
40637.9 36244.1 lineto
40694.2 36300.3 lineto
40637.9 36356.6 lineto
40637.9 36244.1 lineto
stroke
newpath
41369.1 35175.5 moveto
41256.6 35231.7 lineto
41200.4 35344.2 lineto
41200.4 36356.6 lineto
stroke
newpath
41987.8 35175.5 moveto
41875.3 35231.7 lineto
41819 35344.2 lineto
41819 36356.6 lineto
stroke
newpath
43337.6 35175.5 moveto
43337.6 36356.6 lineto
43731.3 35512.9 lineto
44125 36356.6 lineto
44125 35175.5 lineto
stroke
newpath
45193.6 35175.5 moveto
45193.6 35794.2 lineto
45137.4 35906.6 lineto
45024.9 35962.9 lineto
44799.9 35962.9 lineto
44687.4 35906.6 lineto
stroke
newpath
45193.6 35231.7 moveto
45081.1 35175.5 lineto
44799.9 35175.5 lineto
44687.4 35231.7 lineto
44631.2 35344.2 lineto
44631.2 35456.7 lineto
44687.4 35569.2 lineto
44799.9 35625.4 lineto
45081.1 35625.4 lineto
45193.6 35681.7 lineto
stroke
newpath
45756.1 35962.9 moveto
45756.1 34781.8 lineto
stroke
newpath
45756.1 35906.6 moveto
45868.5 35962.9 lineto
46093.5 35962.9 lineto
46206 35906.6 lineto
46262.2 35850.4 lineto
46318.5 35737.9 lineto
46318.5 35400.5 lineto
46262.2 35288 lineto
46206 35231.7 lineto
46093.5 35175.5 lineto
45868.5 35175.5 lineto
45756.1 35231.7 lineto
stroke
newpath
46824.7 35288 moveto
46880.9 35231.7 lineto
46824.7 35175.5 lineto
46768.4 35231.7 lineto
46824.7 35288 lineto
46824.7 35175.5 lineto
stroke
newpath
46824.7 35906.6 moveto
46880.9 35850.4 lineto
46824.7 35794.2 lineto
46768.4 35850.4 lineto
46824.7 35906.6 lineto
46824.7 35794.2 lineto
stroke
newpath
35763.5 34146.7 moveto
37598 32312.2 lineto
stroke
newpath
37598 34146.7 moveto
35763.5 32312.2 lineto
stroke
0 0 0 setrgbcolor
0 0 0 setrgbcolor
newpath
38669.4 33763.8 moveto
38725.7 33820 lineto
38838.2 33876.3 lineto
39119.4 33876.3 lineto
39231.9 33820 lineto
39288.1 33763.8 lineto
39344.4 33651.3 lineto
39344.4 33538.8 lineto
39288.1 33370.1 lineto
38613.2 32695.2 lineto
39344.4 32695.2 lineto
stroke
newpath
39850.5 32807.7 moveto
39906.8 32751.4 lineto
39850.5 32695.2 lineto
39794.3 32751.4 lineto
39850.5 32807.7 lineto
39850.5 32695.2 lineto
stroke
newpath
40356.7 33763.8 moveto
40413 33820 lineto
40525.5 33876.3 lineto
40806.7 33876.3 lineto
40919.2 33820 lineto
40975.4 33763.8 lineto
41031.6 33651.3 lineto
41031.6 33538.8 lineto
40975.4 33370.1 lineto
40300.5 32695.2 lineto
41031.6 32695.2 lineto
stroke
newpath
41762.8 33876.3 moveto
41875.3 33876.3 lineto
41987.8 33820 lineto
42044 33763.8 lineto
42100.3 33651.3 lineto
42156.5 33426.3 lineto
42156.5 33145.1 lineto
42100.3 32920.1 lineto
42044 32807.7 lineto
41987.8 32751.4 lineto
41875.3 32695.2 lineto
41762.8 32695.2 lineto
41650.3 32751.4 lineto
41594.1 32807.7 lineto
41537.8 32920.1 lineto
41481.6 33145.1 lineto
41481.6 33426.3 lineto
41537.8 33651.3 lineto
41594.1 33763.8 lineto
41650.3 33820 lineto
41762.8 33876.3 lineto
stroke
newpath
42662.7 32695.2 moveto
42662.7 33482.6 lineto
stroke
newpath
42662.7 33370.1 moveto
42718.9 33426.3 lineto
42831.4 33482.6 lineto
43000.1 33482.6 lineto
43112.6 33426.3 lineto
43168.9 33313.8 lineto
43168.9 32695.2 lineto
stroke
newpath
43168.9 33313.8 moveto
43225.1 33426.3 lineto
43337.6 33482.6 lineto
43506.3 33482.6 lineto
43618.8 33426.3 lineto
43675.1 33313.8 lineto
43675.1 32695.2 lineto
stroke
newpath
44237.5 32695.2 moveto
44237.5 33482.6 lineto
stroke
newpath
44237.5 33370.1 moveto
44293.7 33426.3 lineto
44406.2 33482.6 lineto
44574.9 33482.6 lineto
44687.4 33426.3 lineto
44743.7 33313.8 lineto
44743.7 32695.2 lineto
stroke
newpath
44743.7 33313.8 moveto
44799.9 33426.3 lineto
44912.4 33482.6 lineto
45081.1 33482.6 lineto
45193.6 33426.3 lineto
45249.9 33313.8 lineto
45249.9 32695.2 lineto
stroke
newpath
47555.8 33932.5 moveto
46543.5 32414 lineto
stroke
newpath
49074.4 33876.3 moveto
49186.9 33876.3 lineto
49299.4 33820 lineto
49355.6 33763.8 lineto
49411.8 33651.3 lineto
49468.1 33426.3 lineto
49468.1 33145.1 lineto
49411.8 32920.1 lineto
49355.6 32807.7 lineto
49299.4 32751.4 lineto
49186.9 32695.2 lineto
49074.4 32695.2 lineto
48961.9 32751.4 lineto
48905.7 32807.7 lineto
48849.4 32920.1 lineto
48793.2 33145.1 lineto
48793.2 33426.3 lineto
48849.4 33651.3 lineto
48905.7 33763.8 lineto
48961.9 33820 lineto
49074.4 33876.3 lineto
stroke
newpath
49974.3 32807.7 moveto
50030.5 32751.4 lineto
49974.3 32695.2 lineto
49918 32751.4 lineto
49974.3 32807.7 lineto
49974.3 32695.2 lineto
stroke
newpath
50761.7 33876.3 moveto
50874.2 33876.3 lineto
50986.6 33820 lineto
51042.9 33763.8 lineto
51099.1 33651.3 lineto
51155.4 33426.3 lineto
51155.4 33145.1 lineto
51099.1 32920.1 lineto
51042.9 32807.7 lineto
50986.6 32751.4 lineto
50874.2 32695.2 lineto
50761.7 32695.2 lineto
50649.2 32751.4 lineto
50592.9 32807.7 lineto
50536.7 32920.1 lineto
50480.5 33145.1 lineto
50480.5 33426.3 lineto
50536.7 33651.3 lineto
50592.9 33763.8 lineto
50649.2 33820 lineto
50761.7 33876.3 lineto
stroke
newpath
51830.3 33370.1 moveto
51717.8 33426.3 lineto
51661.6 33482.6 lineto
51605.3 33595.1 lineto
51605.3 33651.3 lineto
51661.6 33763.8 lineto
51717.8 33820 lineto
51830.3 33876.3 lineto
52055.3 33876.3 lineto
52167.8 33820 lineto
52224 33763.8 lineto
52280.2 33651.3 lineto
52280.2 33595.1 lineto
52224 33482.6 lineto
52167.8 33426.3 lineto
52055.3 33370.1 lineto
51830.3 33370.1 lineto
51717.8 33313.8 lineto
51661.6 33257.6 lineto
51605.3 33145.1 lineto
51605.3 32920.1 lineto
51661.6 32807.7 lineto
51717.8 32751.4 lineto
51830.3 32695.2 lineto
52055.3 32695.2 lineto
52167.8 32751.4 lineto
52224 32807.7 lineto
52280.2 32920.1 lineto
52280.2 33145.1 lineto
52224 33257.6 lineto
52167.8 33313.8 lineto
52055.3 33370.1 lineto
stroke
newpath
52673.9 33876.3 moveto
53461.3 33876.3 lineto
52955.2 32695.2 lineto
stroke
newpath
53855 33876.3 moveto
53855 33651.3 lineto
stroke
newpath
54305 33876.3 moveto
54305 33651.3 lineto
stroke
newpath
56048.5 32245.2 moveto
55992.3 32301.5 lineto
55879.8 32470.2 lineto
55823.5 32582.7 lineto
55767.3 32751.4 lineto
55711.1 33032.6 lineto
55711.1 33257.6 lineto
55767.3 33538.8 lineto
55823.5 33707.5 lineto
55879.8 33820 lineto
55992.3 33988.8 lineto
56048.5 34045 lineto
stroke
newpath
56442.2 33763.8 moveto
56498.5 33820 lineto
56610.9 33876.3 lineto
56892.2 33876.3 lineto
57004.6 33820 lineto
57060.9 33763.8 lineto
57117.1 33651.3 lineto
57117.1 33538.8 lineto
57060.9 33370.1 lineto
56386 32695.2 lineto
57117.1 32695.2 lineto
stroke
newpath
58523.2 32695.2 moveto
58523.2 33876.3 lineto
stroke
newpath
59029.4 32695.2 moveto
59029.4 33313.8 lineto
58973.2 33426.3 lineto
58860.7 33482.6 lineto
58691.9 33482.6 lineto
58579.5 33426.3 lineto
58523.2 33370.1 lineto
stroke
newpath
59760.6 32695.2 moveto
59648.1 32751.4 lineto
59591.8 32807.7 lineto
59535.6 32920.1 lineto
59535.6 33257.6 lineto
59591.8 33370.1 lineto
59648.1 33426.3 lineto
59760.6 33482.6 lineto
59929.3 33482.6 lineto
60041.8 33426.3 lineto
60098 33370.1 lineto
60154.3 33257.6 lineto
60154.3 32920.1 lineto
60098 32807.7 lineto
60041.8 32751.4 lineto
59929.3 32695.2 lineto
59760.6 32695.2 lineto
stroke
newpath
60829.2 32695.2 moveto
60716.7 32751.4 lineto
60660.4 32863.9 lineto
60660.4 33876.3 lineto
stroke
newpath
61729.1 32751.4 moveto
61616.6 32695.2 lineto
61391.6 32695.2 lineto
61279.1 32751.4 lineto
61222.9 32863.9 lineto
61222.9 33313.8 lineto
61279.1 33426.3 lineto
61391.6 33482.6 lineto
61616.6 33482.6 lineto
61729.1 33426.3 lineto
61785.3 33313.8 lineto
61785.3 33201.4 lineto
61222.9 33088.9 lineto
stroke
newpath
62235.2 32751.4 moveto
62347.7 32695.2 lineto
62572.7 32695.2 lineto
62685.2 32751.4 lineto
62741.4 32863.9 lineto
62741.4 32920.1 lineto
62685.2 33032.6 lineto
62572.7 33088.9 lineto
62404 33088.9 lineto
62291.5 33145.1 lineto
62235.2 33257.6 lineto
62235.2 33313.8 lineto
62291.5 33426.3 lineto
62404 33482.6 lineto
62572.7 33482.6 lineto
62685.2 33426.3 lineto
stroke
newpath
63135.1 32245.2 moveto
63191.4 32301.5 lineto
63303.9 32470.2 lineto
63360.1 32582.7 lineto
63416.3 32751.4 lineto
63472.6 33032.6 lineto
63472.6 33257.6 lineto
63416.3 33538.8 lineto
63360.1 33707.5 lineto
63303.9 33820 lineto
63191.4 33988.8 lineto
63135.1 34045 lineto
stroke
newpath
65272.4 32245.2 moveto
65216.1 32301.5 lineto
65103.6 32470.2 lineto
65047.4 32582.7 lineto
64991.2 32751.4 lineto
64934.9 33032.6 lineto
64934.9 33257.6 lineto
64991.2 33538.8 lineto
65047.4 33707.5 lineto
65103.6 33820 lineto
65216.1 33988.8 lineto
65272.4 34045 lineto
stroke
newpath
65722.3 33482.6 moveto
65722.3 32695.2 lineto
stroke
newpath
65722.3 33370.1 moveto
65778.6 33426.3 lineto
65891 33482.6 lineto
66059.8 33482.6 lineto
66172.3 33426.3 lineto
66228.5 33313.8 lineto
66228.5 32695.2 lineto
stroke
newpath
66959.7 32695.2 moveto
66847.2 32751.4 lineto
66790.9 32807.7 lineto
66734.7 32920.1 lineto
66734.7 33257.6 lineto
66790.9 33370.1 lineto
66847.2 33426.3 lineto
66959.7 33482.6 lineto
67128.4 33482.6 lineto
67240.9 33426.3 lineto
67297.1 33370.1 lineto
67353.4 33257.6 lineto
67353.4 32920.1 lineto
67297.1 32807.7 lineto
67240.9 32751.4 lineto
67128.4 32695.2 lineto
66959.7 32695.2 lineto
stroke
newpath
67690.8 33482.6 moveto
68140.8 33482.6 lineto
stroke
newpath
67859.5 33876.3 moveto
67859.5 32863.9 lineto
67915.8 32751.4 lineto
68028.3 32695.2 lineto
68140.8 32695.2 lineto
stroke
newpath
69434.3 33482.6 moveto
69434.3 32301.5 lineto
stroke
newpath
69434.3 33426.3 moveto
69546.8 33482.6 lineto
69771.8 33482.6 lineto
69884.3 33426.3 lineto
69940.5 33370.1 lineto
69996.8 33257.6 lineto
69996.8 32920.1 lineto
69940.5 32807.7 lineto
69884.3 32751.4 lineto
69771.8 32695.2 lineto
69546.8 32695.2 lineto
69434.3 32751.4 lineto
stroke
newpath
70671.7 32695.2 moveto
70559.2 32751.4 lineto
70503 32863.9 lineto
70503 33876.3 lineto
stroke
newpath
71627.8 32695.2 moveto
71627.8 33313.8 lineto
71571.6 33426.3 lineto
71459.1 33482.6 lineto
71234.1 33482.6 lineto
71121.6 33426.3 lineto
stroke
newpath
71627.8 32751.4 moveto
71515.3 32695.2 lineto
71234.1 32695.2 lineto
71121.6 32751.4 lineto
71065.4 32863.9 lineto
71065.4 32976.4 lineto
71121.6 33088.9 lineto
71234.1 33145.1 lineto
71515.3 33145.1 lineto
71627.8 33201.4 lineto
stroke
newpath
72021.5 33482.6 moveto
72471.5 33482.6 lineto
stroke
newpath
72190.3 33876.3 moveto
72190.3 32863.9 lineto
72246.5 32751.4 lineto
72359 32695.2 lineto
72471.5 32695.2 lineto
stroke
newpath
73315.1 32751.4 moveto
73202.6 32695.2 lineto
72977.7 32695.2 lineto
72865.2 32751.4 lineto
72808.9 32863.9 lineto
72808.9 33313.8 lineto
72865.2 33426.3 lineto
72977.7 33482.6 lineto
73202.6 33482.6 lineto
73315.1 33426.3 lineto
73371.4 33313.8 lineto
73371.4 33201.4 lineto
72808.9 33088.9 lineto
stroke
newpath
74383.7 32695.2 moveto
74383.7 33876.3 lineto
stroke
newpath
74383.7 32751.4 moveto
74271.2 32695.2 lineto
74046.3 32695.2 lineto
73933.8 32751.4 lineto
73877.5 32807.7 lineto
73821.3 32920.1 lineto
73821.3 33257.6 lineto
73877.5 33370.1 lineto
73933.8 33426.3 lineto
74046.3 33482.6 lineto
74271.2 33482.6 lineto
74383.7 33426.3 lineto
stroke
newpath
74833.7 32245.2 moveto
74889.9 32301.5 lineto
75002.4 32470.2 lineto
75058.6 32582.7 lineto
75114.9 32751.4 lineto
75171.1 33032.6 lineto
75171.1 33257.6 lineto
75114.9 33538.8 lineto
75058.6 33707.5 lineto
75002.4 33820 lineto
74889.9 33988.8 lineto
74833.7 34045 lineto
stroke
showpage
grestore
%%EOF
