G04 #@! TF.GenerationSoftware,KiCad,Pcbnew,5.1.6-c6e7f7d~87~ubuntu20.04.1*
G04 #@! TF.CreationDate,2020-08-03T20:41:32+02:00*
G04 #@! TF.ProjectId,catracker,63617472-6163-46b6-9572-2e6b69636164,rev?*
G04 #@! TF.SameCoordinates,Original*
G04 #@! TF.FileFunction,Copper,L4,Bot*
G04 #@! TF.FilePolarity,Positive*
%FSLAX46Y46*%
G04 Gerber Fmt 4.6, Leading zero omitted, Abs format (unit mm)*
G04 Created by KiCad (PCBNEW 5.1.6-c6e7f7d~87~ubuntu20.04.1) date 2020-08-03 20:41:32*
%MOMM*%
%LPD*%
G01*
G04 APERTURE LIST*
G04 #@! TA.AperFunction,ComponentPad*
%ADD10C,0.600000*%
G04 #@! TD*
G04 #@! TA.AperFunction,ComponentPad*
%ADD11R,1.000000X1.000000*%
G04 #@! TD*
G04 #@! TA.AperFunction,ComponentPad*
%ADD12C,2.000000*%
G04 #@! TD*
G04 #@! TA.AperFunction,SMDPad,CuDef*
%ADD13R,0.350000X0.250000*%
G04 #@! TD*
G04 #@! TA.AperFunction,SMDPad,CuDef*
%ADD14R,2.000000X0.900000*%
G04 #@! TD*
G04 #@! TA.AperFunction,SMDPad,CuDef*
%ADD15R,0.270000X0.710000*%
G04 #@! TD*
G04 #@! TA.AperFunction,ComponentPad*
%ADD16O,1.350000X1.350000*%
G04 #@! TD*
G04 #@! TA.AperFunction,ComponentPad*
%ADD17R,1.350000X1.350000*%
G04 #@! TD*
G04 #@! TA.AperFunction,SMDPad,CuDef*
%ADD18R,0.800000X0.900000*%
G04 #@! TD*
G04 #@! TA.AperFunction,ViaPad*
%ADD19C,0.450000*%
G04 #@! TD*
G04 #@! TA.AperFunction,Conductor*
%ADD20C,0.200000*%
G04 #@! TD*
G04 #@! TA.AperFunction,Conductor*
%ADD21C,0.500000*%
G04 #@! TD*
G04 #@! TA.AperFunction,Conductor*
%ADD22C,0.400000*%
G04 #@! TD*
G04 #@! TA.AperFunction,Conductor*
%ADD23C,0.250000*%
G04 #@! TD*
G04 #@! TA.AperFunction,Conductor*
%ADD24C,0.300000*%
G04 #@! TD*
G04 #@! TA.AperFunction,Conductor*
%ADD25C,0.152400*%
G04 #@! TD*
G04 #@! TA.AperFunction,Conductor*
%ADD26C,0.254000*%
G04 #@! TD*
G04 APERTURE END LIST*
D10*
X117850000Y-89200000D03*
X120100000Y-86400000D03*
X122000000Y-86400000D03*
D11*
X125350000Y-83825000D03*
X102000000Y-78775000D03*
G04 #@! TA.AperFunction,SMDPad,CuDef*
G36*
G01*
X115200000Y-84643750D02*
X115200000Y-85156250D01*
G75*
G02*
X114981250Y-85375000I-218750J0D01*
G01*
X114543750Y-85375000D01*
G75*
G02*
X114325000Y-85156250I0J218750D01*
G01*
X114325000Y-84643750D01*
G75*
G02*
X114543750Y-84425000I218750J0D01*
G01*
X114981250Y-84425000D01*
G75*
G02*
X115200000Y-84643750I0J-218750D01*
G01*
G37*
G04 #@! TD.AperFunction*
G04 #@! TA.AperFunction,SMDPad,CuDef*
G36*
G01*
X116775000Y-84643750D02*
X116775000Y-85156250D01*
G75*
G02*
X116556250Y-85375000I-218750J0D01*
G01*
X116118750Y-85375000D01*
G75*
G02*
X115900000Y-85156250I0J218750D01*
G01*
X115900000Y-84643750D01*
G75*
G02*
X116118750Y-84425000I218750J0D01*
G01*
X116556250Y-84425000D01*
G75*
G02*
X116775000Y-84643750I0J-218750D01*
G01*
G37*
G04 #@! TD.AperFunction*
G04 #@! TA.AperFunction,SMDPad,CuDef*
G36*
G01*
X115200000Y-87043750D02*
X115200000Y-87556250D01*
G75*
G02*
X114981250Y-87775000I-218750J0D01*
G01*
X114543750Y-87775000D01*
G75*
G02*
X114325000Y-87556250I0J218750D01*
G01*
X114325000Y-87043750D01*
G75*
G02*
X114543750Y-86825000I218750J0D01*
G01*
X114981250Y-86825000D01*
G75*
G02*
X115200000Y-87043750I0J-218750D01*
G01*
G37*
G04 #@! TD.AperFunction*
G04 #@! TA.AperFunction,SMDPad,CuDef*
G36*
G01*
X116775000Y-87043750D02*
X116775000Y-87556250D01*
G75*
G02*
X116556250Y-87775000I-218750J0D01*
G01*
X116118750Y-87775000D01*
G75*
G02*
X115900000Y-87556250I0J218750D01*
G01*
X115900000Y-87043750D01*
G75*
G02*
X116118750Y-86825000I218750J0D01*
G01*
X116556250Y-86825000D01*
G75*
G02*
X116775000Y-87043750I0J-218750D01*
G01*
G37*
G04 #@! TD.AperFunction*
D12*
X110700000Y-96500000D03*
X113000000Y-96500000D03*
X115300000Y-96500000D03*
D13*
X121375000Y-84800000D03*
X118925000Y-83800000D03*
X118925000Y-84300000D03*
X118925000Y-84800000D03*
X118925000Y-85300000D03*
X121375000Y-85300000D03*
X121375000Y-84300000D03*
X121375000Y-83800000D03*
D14*
X105200000Y-84900000D03*
D15*
X103950000Y-85905000D03*
X104450000Y-85905000D03*
X104950000Y-85905000D03*
X105450000Y-85905000D03*
X105950000Y-85905000D03*
X106450000Y-85905000D03*
X106450000Y-83895000D03*
X105950000Y-83895000D03*
X105450000Y-83895000D03*
X104950000Y-83895000D03*
X104450000Y-83895000D03*
X103950000Y-83895000D03*
D16*
X102150000Y-91450000D03*
X102150000Y-93450000D03*
X102150000Y-95450000D03*
D17*
X102150000Y-97450000D03*
G04 #@! TA.AperFunction,SMDPad,CuDef*
G36*
G01*
X124350000Y-89543750D02*
X124350000Y-90056250D01*
G75*
G02*
X124131250Y-90275000I-218750J0D01*
G01*
X123693750Y-90275000D01*
G75*
G02*
X123475000Y-90056250I0J218750D01*
G01*
X123475000Y-89543750D01*
G75*
G02*
X123693750Y-89325000I218750J0D01*
G01*
X124131250Y-89325000D01*
G75*
G02*
X124350000Y-89543750I0J-218750D01*
G01*
G37*
G04 #@! TD.AperFunction*
G04 #@! TA.AperFunction,SMDPad,CuDef*
G36*
G01*
X125925000Y-89543750D02*
X125925000Y-90056250D01*
G75*
G02*
X125706250Y-90275000I-218750J0D01*
G01*
X125268750Y-90275000D01*
G75*
G02*
X125050000Y-90056250I0J218750D01*
G01*
X125050000Y-89543750D01*
G75*
G02*
X125268750Y-89325000I218750J0D01*
G01*
X125706250Y-89325000D01*
G75*
G02*
X125925000Y-89543750I0J-218750D01*
G01*
G37*
G04 #@! TD.AperFunction*
G04 #@! TA.AperFunction,SMDPad,CuDef*
G36*
G01*
X124350000Y-86743750D02*
X124350000Y-87256250D01*
G75*
G02*
X124131250Y-87475000I-218750J0D01*
G01*
X123693750Y-87475000D01*
G75*
G02*
X123475000Y-87256250I0J218750D01*
G01*
X123475000Y-86743750D01*
G75*
G02*
X123693750Y-86525000I218750J0D01*
G01*
X124131250Y-86525000D01*
G75*
G02*
X124350000Y-86743750I0J-218750D01*
G01*
G37*
G04 #@! TD.AperFunction*
G04 #@! TA.AperFunction,SMDPad,CuDef*
G36*
G01*
X125925000Y-86743750D02*
X125925000Y-87256250D01*
G75*
G02*
X125706250Y-87475000I-218750J0D01*
G01*
X125268750Y-87475000D01*
G75*
G02*
X125050000Y-87256250I0J218750D01*
G01*
X125050000Y-86743750D01*
G75*
G02*
X125268750Y-86525000I218750J0D01*
G01*
X125706250Y-86525000D01*
G75*
G02*
X125925000Y-86743750I0J-218750D01*
G01*
G37*
G04 #@! TD.AperFunction*
G04 #@! TA.AperFunction,SMDPad,CuDef*
G36*
G01*
X119943750Y-91700000D02*
X120456250Y-91700000D01*
G75*
G02*
X120675000Y-91918750I0J-218750D01*
G01*
X120675000Y-92356250D01*
G75*
G02*
X120456250Y-92575000I-218750J0D01*
G01*
X119943750Y-92575000D01*
G75*
G02*
X119725000Y-92356250I0J218750D01*
G01*
X119725000Y-91918750D01*
G75*
G02*
X119943750Y-91700000I218750J0D01*
G01*
G37*
G04 #@! TD.AperFunction*
G04 #@! TA.AperFunction,SMDPad,CuDef*
G36*
G01*
X119943750Y-90125000D02*
X120456250Y-90125000D01*
G75*
G02*
X120675000Y-90343750I0J-218750D01*
G01*
X120675000Y-90781250D01*
G75*
G02*
X120456250Y-91000000I-218750J0D01*
G01*
X119943750Y-91000000D01*
G75*
G02*
X119725000Y-90781250I0J218750D01*
G01*
X119725000Y-90343750D01*
G75*
G02*
X119943750Y-90125000I218750J0D01*
G01*
G37*
G04 #@! TD.AperFunction*
D18*
X122850000Y-93250000D03*
X123800000Y-91250000D03*
X121900000Y-91250000D03*
D16*
X102150000Y-85850000D03*
D17*
X102150000Y-87850000D03*
G04 #@! TA.AperFunction,SMDPad,CuDef*
G36*
G01*
X123806250Y-83950000D02*
X123293750Y-83950000D01*
G75*
G02*
X123075000Y-83731250I0J218750D01*
G01*
X123075000Y-83293750D01*
G75*
G02*
X123293750Y-83075000I218750J0D01*
G01*
X123806250Y-83075000D01*
G75*
G02*
X124025000Y-83293750I0J-218750D01*
G01*
X124025000Y-83731250D01*
G75*
G02*
X123806250Y-83950000I-218750J0D01*
G01*
G37*
G04 #@! TD.AperFunction*
G04 #@! TA.AperFunction,SMDPad,CuDef*
G36*
G01*
X123806250Y-85525000D02*
X123293750Y-85525000D01*
G75*
G02*
X123075000Y-85306250I0J218750D01*
G01*
X123075000Y-84868750D01*
G75*
G02*
X123293750Y-84650000I218750J0D01*
G01*
X123806250Y-84650000D01*
G75*
G02*
X124025000Y-84868750I0J-218750D01*
G01*
X124025000Y-85306250D01*
G75*
G02*
X123806250Y-85525000I-218750J0D01*
G01*
G37*
G04 #@! TD.AperFunction*
G04 #@! TA.AperFunction,SMDPad,CuDef*
G36*
G01*
X117943750Y-91700000D02*
X118456250Y-91700000D01*
G75*
G02*
X118675000Y-91918750I0J-218750D01*
G01*
X118675000Y-92356250D01*
G75*
G02*
X118456250Y-92575000I-218750J0D01*
G01*
X117943750Y-92575000D01*
G75*
G02*
X117725000Y-92356250I0J218750D01*
G01*
X117725000Y-91918750D01*
G75*
G02*
X117943750Y-91700000I218750J0D01*
G01*
G37*
G04 #@! TD.AperFunction*
G04 #@! TA.AperFunction,SMDPad,CuDef*
G36*
G01*
X117943750Y-90125000D02*
X118456250Y-90125000D01*
G75*
G02*
X118675000Y-90343750I0J-218750D01*
G01*
X118675000Y-90781250D01*
G75*
G02*
X118456250Y-91000000I-218750J0D01*
G01*
X117943750Y-91000000D01*
G75*
G02*
X117725000Y-90781250I0J218750D01*
G01*
X117725000Y-90343750D01*
G75*
G02*
X117943750Y-90125000I218750J0D01*
G01*
G37*
G04 #@! TD.AperFunction*
G04 #@! TA.AperFunction,SMDPad,CuDef*
G36*
G01*
X116956250Y-91000000D02*
X116443750Y-91000000D01*
G75*
G02*
X116225000Y-90781250I0J218750D01*
G01*
X116225000Y-90343750D01*
G75*
G02*
X116443750Y-90125000I218750J0D01*
G01*
X116956250Y-90125000D01*
G75*
G02*
X117175000Y-90343750I0J-218750D01*
G01*
X117175000Y-90781250D01*
G75*
G02*
X116956250Y-91000000I-218750J0D01*
G01*
G37*
G04 #@! TD.AperFunction*
G04 #@! TA.AperFunction,SMDPad,CuDef*
G36*
G01*
X116956250Y-92575000D02*
X116443750Y-92575000D01*
G75*
G02*
X116225000Y-92356250I0J218750D01*
G01*
X116225000Y-91918750D01*
G75*
G02*
X116443750Y-91700000I218750J0D01*
G01*
X116956250Y-91700000D01*
G75*
G02*
X117175000Y-91918750I0J-218750D01*
G01*
X117175000Y-92356250D01*
G75*
G02*
X116956250Y-92575000I-218750J0D01*
G01*
G37*
G04 #@! TD.AperFunction*
G04 #@! TA.AperFunction,SMDPad,CuDef*
G36*
G01*
X104950000Y-88943750D02*
X104950000Y-89456250D01*
G75*
G02*
X104731250Y-89675000I-218750J0D01*
G01*
X104293750Y-89675000D01*
G75*
G02*
X104075000Y-89456250I0J218750D01*
G01*
X104075000Y-88943750D01*
G75*
G02*
X104293750Y-88725000I218750J0D01*
G01*
X104731250Y-88725000D01*
G75*
G02*
X104950000Y-88943750I0J-218750D01*
G01*
G37*
G04 #@! TD.AperFunction*
G04 #@! TA.AperFunction,SMDPad,CuDef*
G36*
G01*
X106525000Y-88943750D02*
X106525000Y-89456250D01*
G75*
G02*
X106306250Y-89675000I-218750J0D01*
G01*
X105868750Y-89675000D01*
G75*
G02*
X105650000Y-89456250I0J218750D01*
G01*
X105650000Y-88943750D01*
G75*
G02*
X105868750Y-88725000I218750J0D01*
G01*
X106306250Y-88725000D01*
G75*
G02*
X106525000Y-88943750I0J-218750D01*
G01*
G37*
G04 #@! TD.AperFunction*
G04 #@! TA.AperFunction,SMDPad,CuDef*
G36*
G01*
X104306250Y-80650000D02*
X103393750Y-80650000D01*
G75*
G02*
X103150000Y-80406250I0J243750D01*
G01*
X103150000Y-79918750D01*
G75*
G02*
X103393750Y-79675000I243750J0D01*
G01*
X104306250Y-79675000D01*
G75*
G02*
X104550000Y-79918750I0J-243750D01*
G01*
X104550000Y-80406250D01*
G75*
G02*
X104306250Y-80650000I-243750J0D01*
G01*
G37*
G04 #@! TD.AperFunction*
G04 #@! TA.AperFunction,SMDPad,CuDef*
G36*
G01*
X104306250Y-82525000D02*
X103393750Y-82525000D01*
G75*
G02*
X103150000Y-82281250I0J243750D01*
G01*
X103150000Y-81793750D01*
G75*
G02*
X103393750Y-81550000I243750J0D01*
G01*
X104306250Y-81550000D01*
G75*
G02*
X104550000Y-81793750I0J-243750D01*
G01*
X104550000Y-82281250D01*
G75*
G02*
X104306250Y-82525000I-243750J0D01*
G01*
G37*
G04 #@! TD.AperFunction*
G04 #@! TA.AperFunction,SMDPad,CuDef*
G36*
G01*
X109706250Y-73950000D02*
X109193750Y-73950000D01*
G75*
G02*
X108975000Y-73731250I0J218750D01*
G01*
X108975000Y-73293750D01*
G75*
G02*
X109193750Y-73075000I218750J0D01*
G01*
X109706250Y-73075000D01*
G75*
G02*
X109925000Y-73293750I0J-218750D01*
G01*
X109925000Y-73731250D01*
G75*
G02*
X109706250Y-73950000I-218750J0D01*
G01*
G37*
G04 #@! TD.AperFunction*
G04 #@! TA.AperFunction,SMDPad,CuDef*
G36*
G01*
X109706250Y-75525000D02*
X109193750Y-75525000D01*
G75*
G02*
X108975000Y-75306250I0J218750D01*
G01*
X108975000Y-74868750D01*
G75*
G02*
X109193750Y-74650000I218750J0D01*
G01*
X109706250Y-74650000D01*
G75*
G02*
X109925000Y-74868750I0J-218750D01*
G01*
X109925000Y-75306250D01*
G75*
G02*
X109706250Y-75525000I-218750J0D01*
G01*
G37*
G04 #@! TD.AperFunction*
G04 #@! TA.AperFunction,SMDPad,CuDef*
G36*
G01*
X107593750Y-74650000D02*
X108106250Y-74650000D01*
G75*
G02*
X108325000Y-74868750I0J-218750D01*
G01*
X108325000Y-75306250D01*
G75*
G02*
X108106250Y-75525000I-218750J0D01*
G01*
X107593750Y-75525000D01*
G75*
G02*
X107375000Y-75306250I0J218750D01*
G01*
X107375000Y-74868750D01*
G75*
G02*
X107593750Y-74650000I218750J0D01*
G01*
G37*
G04 #@! TD.AperFunction*
G04 #@! TA.AperFunction,SMDPad,CuDef*
G36*
G01*
X107593750Y-73075000D02*
X108106250Y-73075000D01*
G75*
G02*
X108325000Y-73293750I0J-218750D01*
G01*
X108325000Y-73731250D01*
G75*
G02*
X108106250Y-73950000I-218750J0D01*
G01*
X107593750Y-73950000D01*
G75*
G02*
X107375000Y-73731250I0J218750D01*
G01*
X107375000Y-73293750D01*
G75*
G02*
X107593750Y-73075000I218750J0D01*
G01*
G37*
G04 #@! TD.AperFunction*
G04 #@! TA.AperFunction,SMDPad,CuDef*
G36*
G01*
X114050000Y-80593750D02*
X114050000Y-81106250D01*
G75*
G02*
X113831250Y-81325000I-218750J0D01*
G01*
X113393750Y-81325000D01*
G75*
G02*
X113175000Y-81106250I0J218750D01*
G01*
X113175000Y-80593750D01*
G75*
G02*
X113393750Y-80375000I218750J0D01*
G01*
X113831250Y-80375000D01*
G75*
G02*
X114050000Y-80593750I0J-218750D01*
G01*
G37*
G04 #@! TD.AperFunction*
G04 #@! TA.AperFunction,SMDPad,CuDef*
G36*
G01*
X115625000Y-80593750D02*
X115625000Y-81106250D01*
G75*
G02*
X115406250Y-81325000I-218750J0D01*
G01*
X114968750Y-81325000D01*
G75*
G02*
X114750000Y-81106250I0J218750D01*
G01*
X114750000Y-80593750D01*
G75*
G02*
X114968750Y-80375000I218750J0D01*
G01*
X115406250Y-80375000D01*
G75*
G02*
X115625000Y-80593750I0J-218750D01*
G01*
G37*
G04 #@! TD.AperFunction*
G04 #@! TA.AperFunction,SMDPad,CuDef*
G36*
G01*
X105000000Y-92493750D02*
X105000000Y-93006250D01*
G75*
G02*
X104781250Y-93225000I-218750J0D01*
G01*
X104343750Y-93225000D01*
G75*
G02*
X104125000Y-93006250I0J218750D01*
G01*
X104125000Y-92493750D01*
G75*
G02*
X104343750Y-92275000I218750J0D01*
G01*
X104781250Y-92275000D01*
G75*
G02*
X105000000Y-92493750I0J-218750D01*
G01*
G37*
G04 #@! TD.AperFunction*
G04 #@! TA.AperFunction,SMDPad,CuDef*
G36*
G01*
X106575000Y-92493750D02*
X106575000Y-93006250D01*
G75*
G02*
X106356250Y-93225000I-218750J0D01*
G01*
X105918750Y-93225000D01*
G75*
G02*
X105700000Y-93006250I0J218750D01*
G01*
X105700000Y-92493750D01*
G75*
G02*
X105918750Y-92275000I218750J0D01*
G01*
X106356250Y-92275000D01*
G75*
G02*
X106575000Y-92493750I0J-218750D01*
G01*
G37*
G04 #@! TD.AperFunction*
G04 #@! TA.AperFunction,SMDPad,CuDef*
G36*
G01*
X105000000Y-90993750D02*
X105000000Y-91506250D01*
G75*
G02*
X104781250Y-91725000I-218750J0D01*
G01*
X104343750Y-91725000D01*
G75*
G02*
X104125000Y-91506250I0J218750D01*
G01*
X104125000Y-90993750D01*
G75*
G02*
X104343750Y-90775000I218750J0D01*
G01*
X104781250Y-90775000D01*
G75*
G02*
X105000000Y-90993750I0J-218750D01*
G01*
G37*
G04 #@! TD.AperFunction*
G04 #@! TA.AperFunction,SMDPad,CuDef*
G36*
G01*
X106575000Y-90993750D02*
X106575000Y-91506250D01*
G75*
G02*
X106356250Y-91725000I-218750J0D01*
G01*
X105918750Y-91725000D01*
G75*
G02*
X105700000Y-91506250I0J218750D01*
G01*
X105700000Y-90993750D01*
G75*
G02*
X105918750Y-90775000I218750J0D01*
G01*
X106356250Y-90775000D01*
G75*
G02*
X106575000Y-90993750I0J-218750D01*
G01*
G37*
G04 #@! TD.AperFunction*
G04 #@! TA.AperFunction,SMDPad,CuDef*
G36*
G01*
X108343750Y-91700000D02*
X108856250Y-91700000D01*
G75*
G02*
X109075000Y-91918750I0J-218750D01*
G01*
X109075000Y-92356250D01*
G75*
G02*
X108856250Y-92575000I-218750J0D01*
G01*
X108343750Y-92575000D01*
G75*
G02*
X108125000Y-92356250I0J218750D01*
G01*
X108125000Y-91918750D01*
G75*
G02*
X108343750Y-91700000I218750J0D01*
G01*
G37*
G04 #@! TD.AperFunction*
G04 #@! TA.AperFunction,SMDPad,CuDef*
G36*
G01*
X108343750Y-90125000D02*
X108856250Y-90125000D01*
G75*
G02*
X109075000Y-90343750I0J-218750D01*
G01*
X109075000Y-90781250D01*
G75*
G02*
X108856250Y-91000000I-218750J0D01*
G01*
X108343750Y-91000000D01*
G75*
G02*
X108125000Y-90781250I0J218750D01*
G01*
X108125000Y-90343750D01*
G75*
G02*
X108343750Y-90125000I218750J0D01*
G01*
G37*
G04 #@! TD.AperFunction*
G04 #@! TA.AperFunction,SMDPad,CuDef*
G36*
G01*
X114343750Y-91700000D02*
X114856250Y-91700000D01*
G75*
G02*
X115075000Y-91918750I0J-218750D01*
G01*
X115075000Y-92356250D01*
G75*
G02*
X114856250Y-92575000I-218750J0D01*
G01*
X114343750Y-92575000D01*
G75*
G02*
X114125000Y-92356250I0J218750D01*
G01*
X114125000Y-91918750D01*
G75*
G02*
X114343750Y-91700000I218750J0D01*
G01*
G37*
G04 #@! TD.AperFunction*
G04 #@! TA.AperFunction,SMDPad,CuDef*
G36*
G01*
X114343750Y-90125000D02*
X114856250Y-90125000D01*
G75*
G02*
X115075000Y-90343750I0J-218750D01*
G01*
X115075000Y-90781250D01*
G75*
G02*
X114856250Y-91000000I-218750J0D01*
G01*
X114343750Y-91000000D01*
G75*
G02*
X114125000Y-90781250I0J218750D01*
G01*
X114125000Y-90343750D01*
G75*
G02*
X114343750Y-90125000I218750J0D01*
G01*
G37*
G04 #@! TD.AperFunction*
G04 #@! TA.AperFunction,SMDPad,CuDef*
G36*
G01*
X109843750Y-91700000D02*
X110356250Y-91700000D01*
G75*
G02*
X110575000Y-91918750I0J-218750D01*
G01*
X110575000Y-92356250D01*
G75*
G02*
X110356250Y-92575000I-218750J0D01*
G01*
X109843750Y-92575000D01*
G75*
G02*
X109625000Y-92356250I0J218750D01*
G01*
X109625000Y-91918750D01*
G75*
G02*
X109843750Y-91700000I218750J0D01*
G01*
G37*
G04 #@! TD.AperFunction*
G04 #@! TA.AperFunction,SMDPad,CuDef*
G36*
G01*
X109843750Y-90125000D02*
X110356250Y-90125000D01*
G75*
G02*
X110575000Y-90343750I0J-218750D01*
G01*
X110575000Y-90781250D01*
G75*
G02*
X110356250Y-91000000I-218750J0D01*
G01*
X109843750Y-91000000D01*
G75*
G02*
X109625000Y-90781250I0J218750D01*
G01*
X109625000Y-90343750D01*
G75*
G02*
X109843750Y-90125000I218750J0D01*
G01*
G37*
G04 #@! TD.AperFunction*
G04 #@! TA.AperFunction,SMDPad,CuDef*
G36*
G01*
X111343750Y-91700000D02*
X111856250Y-91700000D01*
G75*
G02*
X112075000Y-91918750I0J-218750D01*
G01*
X112075000Y-92356250D01*
G75*
G02*
X111856250Y-92575000I-218750J0D01*
G01*
X111343750Y-92575000D01*
G75*
G02*
X111125000Y-92356250I0J218750D01*
G01*
X111125000Y-91918750D01*
G75*
G02*
X111343750Y-91700000I218750J0D01*
G01*
G37*
G04 #@! TD.AperFunction*
G04 #@! TA.AperFunction,SMDPad,CuDef*
G36*
G01*
X111343750Y-90125000D02*
X111856250Y-90125000D01*
G75*
G02*
X112075000Y-90343750I0J-218750D01*
G01*
X112075000Y-90781250D01*
G75*
G02*
X111856250Y-91000000I-218750J0D01*
G01*
X111343750Y-91000000D01*
G75*
G02*
X111125000Y-90781250I0J218750D01*
G01*
X111125000Y-90343750D01*
G75*
G02*
X111343750Y-90125000I218750J0D01*
G01*
G37*
G04 #@! TD.AperFunction*
G04 #@! TA.AperFunction,SMDPad,CuDef*
G36*
G01*
X112843750Y-91700000D02*
X113356250Y-91700000D01*
G75*
G02*
X113575000Y-91918750I0J-218750D01*
G01*
X113575000Y-92356250D01*
G75*
G02*
X113356250Y-92575000I-218750J0D01*
G01*
X112843750Y-92575000D01*
G75*
G02*
X112625000Y-92356250I0J218750D01*
G01*
X112625000Y-91918750D01*
G75*
G02*
X112843750Y-91700000I218750J0D01*
G01*
G37*
G04 #@! TD.AperFunction*
G04 #@! TA.AperFunction,SMDPad,CuDef*
G36*
G01*
X112843750Y-90125000D02*
X113356250Y-90125000D01*
G75*
G02*
X113575000Y-90343750I0J-218750D01*
G01*
X113575000Y-90781250D01*
G75*
G02*
X113356250Y-91000000I-218750J0D01*
G01*
X112843750Y-91000000D01*
G75*
G02*
X112625000Y-90781250I0J218750D01*
G01*
X112625000Y-90343750D01*
G75*
G02*
X112843750Y-90125000I218750J0D01*
G01*
G37*
G04 #@! TD.AperFunction*
G04 #@! TA.AperFunction,SMDPad,CuDef*
G36*
G01*
X101793750Y-81250000D02*
X102306250Y-81250000D01*
G75*
G02*
X102525000Y-81468750I0J-218750D01*
G01*
X102525000Y-81906250D01*
G75*
G02*
X102306250Y-82125000I-218750J0D01*
G01*
X101793750Y-82125000D01*
G75*
G02*
X101575000Y-81906250I0J218750D01*
G01*
X101575000Y-81468750D01*
G75*
G02*
X101793750Y-81250000I218750J0D01*
G01*
G37*
G04 #@! TD.AperFunction*
G04 #@! TA.AperFunction,SMDPad,CuDef*
G36*
G01*
X101793750Y-79675000D02*
X102306250Y-79675000D01*
G75*
G02*
X102525000Y-79893750I0J-218750D01*
G01*
X102525000Y-80331250D01*
G75*
G02*
X102306250Y-80550000I-218750J0D01*
G01*
X101793750Y-80550000D01*
G75*
G02*
X101575000Y-80331250I0J218750D01*
G01*
X101575000Y-79893750D01*
G75*
G02*
X101793750Y-79675000I218750J0D01*
G01*
G37*
G04 #@! TD.AperFunction*
G04 #@! TA.AperFunction,SMDPad,CuDef*
G36*
G01*
X106943750Y-81250000D02*
X107456250Y-81250000D01*
G75*
G02*
X107675000Y-81468750I0J-218750D01*
G01*
X107675000Y-81906250D01*
G75*
G02*
X107456250Y-82125000I-218750J0D01*
G01*
X106943750Y-82125000D01*
G75*
G02*
X106725000Y-81906250I0J218750D01*
G01*
X106725000Y-81468750D01*
G75*
G02*
X106943750Y-81250000I218750J0D01*
G01*
G37*
G04 #@! TD.AperFunction*
G04 #@! TA.AperFunction,SMDPad,CuDef*
G36*
G01*
X106943750Y-79675000D02*
X107456250Y-79675000D01*
G75*
G02*
X107675000Y-79893750I0J-218750D01*
G01*
X107675000Y-80331250D01*
G75*
G02*
X107456250Y-80550000I-218750J0D01*
G01*
X106943750Y-80550000D01*
G75*
G02*
X106725000Y-80331250I0J218750D01*
G01*
X106725000Y-79893750D01*
G75*
G02*
X106943750Y-79675000I218750J0D01*
G01*
G37*
G04 #@! TD.AperFunction*
D19*
X125300000Y-88100000D03*
X110250000Y-82400000D03*
X112750000Y-82400000D03*
X112750000Y-84900000D03*
X110250000Y-87400000D03*
X112750000Y-87400000D03*
X110250000Y-84900000D03*
X125400000Y-91000000D03*
X118100000Y-72600000D03*
X117100000Y-72600000D03*
X116100000Y-72600000D03*
X115100000Y-72600000D03*
X114100000Y-72600000D03*
X113100000Y-72600000D03*
X112100000Y-72600000D03*
X111800000Y-73600000D03*
X111900000Y-77100000D03*
X111900000Y-78100000D03*
X113300000Y-77600000D03*
X118100000Y-79600000D03*
X118100000Y-78600000D03*
X118100000Y-77600000D03*
X118100000Y-76600000D03*
X117100000Y-79600000D03*
X114500000Y-75300000D03*
X116300000Y-75300000D03*
X115900000Y-77600000D03*
X102050000Y-82850000D03*
X103500000Y-93050000D03*
X110750000Y-72625000D03*
X106650000Y-75250000D03*
X115500000Y-82000000D03*
X110050000Y-93200000D03*
X112650000Y-94850000D03*
X109334763Y-89288279D03*
X122613291Y-86184617D03*
X107374071Y-86174990D03*
X119388065Y-91105816D03*
X103975000Y-90050000D03*
X113850000Y-92137510D03*
X109700000Y-98600000D03*
X125227929Y-92950000D03*
X116700000Y-92949999D03*
X111300000Y-89400000D03*
X110300000Y-89400000D03*
X106650000Y-74200000D03*
X104000000Y-78850000D03*
X114250000Y-95050000D03*
X110850000Y-80400000D03*
X117400000Y-98850010D03*
X104721441Y-88171441D03*
X105150000Y-88025010D03*
X106100000Y-90350000D03*
X107400000Y-91750000D03*
X109300000Y-97550000D03*
X114650000Y-89450000D03*
X114400000Y-86125016D03*
X113139896Y-86179270D03*
X107927915Y-83773497D03*
X108800000Y-86150000D03*
X117800000Y-93100000D03*
X117883070Y-80576189D03*
X115550000Y-89399999D03*
X117700000Y-84600000D03*
X115675010Y-86100000D03*
X106650000Y-73200000D03*
X108112916Y-80825409D03*
X106042586Y-78683001D03*
X106979922Y-82880715D03*
X110794570Y-73662115D03*
X105063495Y-78886497D03*
X122300000Y-83500000D03*
X123827928Y-92688753D03*
X117617007Y-81859485D03*
X103400000Y-94600000D03*
X118300001Y-84350000D03*
X107350000Y-87000000D03*
X107675000Y-82800000D03*
X105299974Y-81500000D03*
X120971246Y-83478768D03*
X119663178Y-84911502D03*
X122600000Y-84625000D03*
X118702407Y-87502407D03*
X112300000Y-80850000D03*
X121500000Y-93950000D03*
X122304000Y-89254000D03*
X122296000Y-87546000D03*
X109653010Y-80320538D03*
X118850000Y-89800000D03*
X107533600Y-88722606D03*
X108335267Y-89320397D03*
D20*
X104900000Y-84600000D02*
X105200000Y-84900000D01*
X104900000Y-83900000D02*
X104900000Y-84600000D01*
X105000000Y-84500000D02*
X105000000Y-83900000D01*
X105400000Y-84900000D02*
X105000000Y-84500000D01*
X105400000Y-85000000D02*
X105400000Y-84900000D01*
D21*
X102050000Y-81700000D02*
X102050000Y-82850000D01*
D22*
X110100000Y-92137500D02*
X111600000Y-92137500D01*
X111600000Y-92137500D02*
X113100000Y-92137500D01*
X104562500Y-91450000D02*
X104562500Y-93000000D01*
X103550000Y-93000000D02*
X103500000Y-93050000D01*
X104562500Y-93000000D02*
X103550000Y-93000000D01*
X124100000Y-91000000D02*
X123800000Y-91300000D01*
X125400000Y-91000000D02*
X124100000Y-91000000D01*
D21*
X113100000Y-92137500D02*
X109337500Y-92137500D01*
D22*
X109337500Y-92137500D02*
X110100000Y-92137500D01*
X108600000Y-92137500D02*
X109337500Y-92137500D01*
D21*
X108600000Y-92137500D02*
X110100000Y-92137500D01*
D23*
X115187500Y-81687500D02*
X115500000Y-82000000D01*
X115187500Y-80850000D02*
X115187500Y-81687500D01*
D22*
X110100000Y-92137500D02*
X110100000Y-93150000D01*
X110100000Y-93150000D02*
X110050000Y-93200000D01*
D23*
X107200000Y-81700000D02*
X107200000Y-81956479D01*
D20*
X109537500Y-81687500D02*
X110250000Y-82400000D01*
X107200000Y-81687500D02*
X109537500Y-81687500D01*
D21*
X104562500Y-94550000D02*
X104562500Y-93000000D01*
D23*
X122613291Y-86013291D02*
X122613291Y-86184617D01*
X121900000Y-85300000D02*
X122613291Y-86013291D01*
X121375000Y-85300000D02*
X121900000Y-85300000D01*
D22*
X105200000Y-84900000D02*
X106655002Y-84900000D01*
X107374071Y-85619069D02*
X107374071Y-86174990D01*
X106655002Y-84900000D02*
X107374071Y-85619069D01*
D21*
X113100000Y-92137500D02*
X113787500Y-92137500D01*
X114600000Y-92137500D02*
X113787500Y-92137500D01*
X113787500Y-92137500D02*
X113787490Y-92137510D01*
D24*
X123267892Y-94102467D02*
X123097533Y-94102467D01*
X123367097Y-94039408D02*
X123267892Y-94102467D01*
X123374873Y-94041140D02*
X123367097Y-94039408D01*
X123476315Y-93981747D02*
X123374873Y-94041140D01*
X123595366Y-93862696D02*
X123476315Y-93981747D01*
X123749548Y-93862696D02*
X123595366Y-93862696D01*
X124662244Y-92950000D02*
X123749548Y-93862696D01*
X125227929Y-92950000D02*
X124662244Y-92950000D01*
D22*
X114350001Y-97850001D02*
X113000000Y-96500000D01*
X114577999Y-97850001D02*
X114350001Y-97850001D01*
X114627999Y-97900001D02*
X114577999Y-97850001D01*
X115972001Y-97900001D02*
X114627999Y-97900001D01*
X116022001Y-97850001D02*
X115972001Y-97900001D01*
X122257760Y-94942242D02*
X119349999Y-97850001D01*
X122559085Y-94587018D02*
X122257334Y-94936427D01*
X122942240Y-94257759D02*
X122936427Y-94257334D01*
X122657860Y-94499152D02*
X122648839Y-94499481D01*
X123097533Y-94102467D02*
X122942240Y-94257759D01*
X122257334Y-94936427D02*
X122257760Y-94942242D01*
X122846658Y-94334858D02*
X122837637Y-94334529D01*
X119349999Y-97850001D02*
X116022001Y-97850001D01*
X122936427Y-94257334D02*
X122846658Y-94334858D01*
X122837637Y-94334529D02*
X122750758Y-94415281D01*
X122568087Y-94586360D02*
X122559085Y-94587018D01*
X122741731Y-94415281D02*
X122657860Y-94499152D01*
X122750758Y-94415281D02*
X122741731Y-94415281D01*
X122648839Y-94499481D02*
X122568087Y-94586360D01*
D20*
X105950000Y-85900000D02*
X105950000Y-86550000D01*
X105950000Y-86550000D02*
X105700000Y-86800000D01*
X103100000Y-86800000D02*
X102150000Y-85850000D01*
X105450000Y-85900000D02*
X105450000Y-86800000D01*
X105700000Y-86800000D02*
X105450000Y-86800000D01*
X105450000Y-86800000D02*
X104950000Y-86800000D01*
X104450000Y-85900000D02*
X104450000Y-86800000D01*
X104950000Y-86800000D02*
X104450000Y-86800000D01*
X103950000Y-86750000D02*
X103900000Y-86800000D01*
X103950000Y-85900000D02*
X103950000Y-86750000D01*
X103900000Y-86800000D02*
X103100000Y-86800000D01*
X104450000Y-86800000D02*
X103900000Y-86800000D01*
X104950000Y-85950000D02*
X104950000Y-86800000D01*
X116700000Y-92137500D02*
X116700000Y-92949999D01*
X106014251Y-80914251D02*
X105700000Y-80600000D01*
X106014251Y-83935749D02*
X106014251Y-80914251D01*
X105950000Y-84000000D02*
X106014251Y-83935749D01*
D23*
X107162500Y-74200000D02*
X107850000Y-73512500D01*
X106650000Y-74200000D02*
X107162500Y-74200000D01*
X109425000Y-75087500D02*
X107850000Y-73512500D01*
X109450000Y-75087500D02*
X109425000Y-75087500D01*
D22*
X104000000Y-80012500D02*
X103850000Y-80162500D01*
X104000000Y-78850000D02*
X104000000Y-80012500D01*
D24*
X114250000Y-95050000D02*
X115700000Y-93600000D01*
X115700000Y-91662500D02*
X114600000Y-90562500D01*
X115700000Y-93600000D02*
X115700000Y-91662500D01*
D22*
X104867872Y-88025010D02*
X105150000Y-88025010D01*
X104721441Y-88171441D02*
X104867872Y-88025010D01*
X106087500Y-88962510D02*
X105150000Y-88025010D01*
X106087500Y-89200000D02*
X106087500Y-88962510D01*
X106137500Y-90312500D02*
X106100000Y-90350000D01*
X106100000Y-91412500D02*
X106137500Y-91450000D01*
X106100000Y-90350000D02*
X106100000Y-91412500D01*
X106137500Y-93000000D02*
X106137500Y-91450000D01*
X107100000Y-91450000D02*
X107400000Y-91750000D01*
X106137500Y-91450000D02*
X107100000Y-91450000D01*
X105150000Y-90350000D02*
X106100000Y-90350000D01*
X104512500Y-89712500D02*
X105150000Y-90350000D01*
X104512500Y-89200000D02*
X104512500Y-89712500D01*
D21*
X106137500Y-94550000D02*
X106137500Y-93000000D01*
X106137500Y-93000000D02*
X106137500Y-91500000D01*
X107150000Y-91500000D02*
X107400000Y-91750000D01*
X106137500Y-91500000D02*
X107150000Y-91500000D01*
D20*
X114762500Y-85762516D02*
X114400000Y-86125016D01*
X114762500Y-84900000D02*
X114762500Y-85762516D01*
X114260626Y-87300000D02*
X114762500Y-87300000D01*
X113139896Y-86179270D02*
X114260626Y-87300000D01*
D23*
X106450000Y-84100000D02*
X106700000Y-84350000D01*
X106450000Y-83895000D02*
X106450000Y-84100000D01*
X106700000Y-84350000D02*
X106950000Y-84350000D01*
D22*
X107675002Y-84350000D02*
X106950000Y-84350000D01*
X104608998Y-87400000D02*
X106200000Y-87400000D01*
X102150000Y-95450000D02*
X101074999Y-94374999D01*
X101074999Y-94374999D02*
X101074999Y-90933999D01*
X101074999Y-90933999D02*
X104608998Y-87400000D01*
X106325001Y-87525001D02*
X106200000Y-87400000D01*
X107602001Y-87525001D02*
X106325001Y-87525001D01*
X108025001Y-87102001D02*
X107602001Y-87525001D01*
X108025001Y-84699999D02*
X108025001Y-87102001D01*
X108025001Y-84699999D02*
X107675002Y-84350000D01*
D23*
X109025000Y-83800000D02*
X108175000Y-84650000D01*
X118925000Y-83800000D02*
X109025000Y-83800000D01*
D20*
X118200000Y-92700000D02*
X117800000Y-93100000D01*
X118200000Y-92137500D02*
X118200000Y-92700000D01*
X116700000Y-90562500D02*
X118200000Y-90562500D01*
X115550000Y-89412500D02*
X116700000Y-90562500D01*
X115550000Y-89399999D02*
X115550000Y-89412500D01*
X117700000Y-84600000D02*
X117550000Y-84600000D01*
X117250000Y-84900000D02*
X116337500Y-84900000D01*
X117550000Y-84600000D02*
X117250000Y-84900000D01*
X116337500Y-86762490D02*
X115675010Y-86100000D01*
X116337500Y-87300000D02*
X116337500Y-86762490D01*
D23*
X105063495Y-78320812D02*
X105063495Y-78886497D01*
X106734307Y-76650000D02*
X105063495Y-78320812D01*
X110794570Y-76455430D02*
X110600000Y-76650000D01*
X110600000Y-76650000D02*
X106734307Y-76650000D01*
X110794570Y-73662115D02*
X110794570Y-76455430D01*
D20*
X122312500Y-83512500D02*
X122300000Y-83500000D01*
X123550000Y-83512500D02*
X122312500Y-83512500D01*
D23*
X121375000Y-84800000D02*
X122036410Y-84800000D01*
D20*
X122036410Y-84800000D02*
X122036410Y-84895854D01*
X122036410Y-84895854D02*
X122490556Y-85350000D01*
X122490556Y-85350000D02*
X123287500Y-85350000D01*
X123287500Y-85350000D02*
X123550000Y-85087500D01*
X106450000Y-86100000D02*
X107350000Y-87000000D01*
X106450000Y-85905000D02*
X106450000Y-86100000D01*
X105450000Y-83850000D02*
X105450000Y-81650026D01*
X105450000Y-81650026D02*
X105299974Y-81500000D01*
D23*
X121375000Y-83800000D02*
X121292478Y-83800000D01*
X121292478Y-83800000D02*
X120971246Y-83478768D01*
X118925000Y-84800000D02*
X119551676Y-84800000D01*
X119551676Y-84800000D02*
X119663178Y-84911502D01*
X121375000Y-84300000D02*
X122275000Y-84300000D01*
X122275000Y-84300000D02*
X122600000Y-84625000D01*
D20*
X118925000Y-87279814D02*
X118702407Y-87502407D01*
X118925000Y-85300000D02*
X118925000Y-87279814D01*
D23*
X112300000Y-80850000D02*
X113612500Y-80850000D01*
X120874999Y-84888498D02*
X120874999Y-85593197D01*
X115287500Y-83000000D02*
X118986501Y-83000000D01*
X113612500Y-81325000D02*
X115287500Y-83000000D01*
X113612500Y-80850000D02*
X113612500Y-81325000D01*
X121681802Y-86400000D02*
X122000000Y-86400000D01*
X120874999Y-85593197D02*
X121681802Y-86400000D01*
X118986501Y-83000000D02*
X120874999Y-84888498D01*
D22*
X122150000Y-93300000D02*
X121500000Y-93950000D01*
X122850000Y-93300000D02*
X122150000Y-93300000D01*
D23*
X122850000Y-89800000D02*
X122304000Y-89254000D01*
X123912500Y-89800000D02*
X122850000Y-89800000D01*
X123912500Y-87000000D02*
X122842000Y-87000000D01*
X122842000Y-87000000D02*
X122296000Y-87546000D01*
D20*
X121900000Y-91300000D02*
X121900000Y-92050000D01*
X121812500Y-92137500D02*
X120200000Y-92137500D01*
X121900000Y-92050000D02*
X121812500Y-92137500D01*
X119437500Y-89800000D02*
X120200000Y-90562500D01*
X118900000Y-89800000D02*
X119437500Y-89800000D01*
D25*
X108077394Y-88722606D02*
X107533600Y-88722606D01*
X108576934Y-88223066D02*
X108077394Y-88722606D01*
X124264434Y-88223066D02*
X108576934Y-88223066D01*
X125487500Y-87000000D02*
X124264434Y-88223066D01*
X108335267Y-89017565D02*
X108335267Y-89320397D01*
X108775032Y-88577800D02*
X108335267Y-89017565D01*
X124265300Y-88577800D02*
X108775032Y-88577800D01*
X125487500Y-89800000D02*
X124265300Y-88577800D01*
D26*
G36*
X102623000Y-79425000D02*
G01*
X102625440Y-79449776D01*
X102632667Y-79473601D01*
X102644403Y-79495557D01*
X102660197Y-79514803D01*
X102679443Y-79530597D01*
X102701399Y-79542333D01*
X102725224Y-79549560D01*
X102750367Y-79551999D01*
X111273000Y-79527367D01*
X111273000Y-80773000D01*
X109872460Y-80773000D01*
X109890796Y-80765405D01*
X109973016Y-80710467D01*
X110042939Y-80640544D01*
X110097877Y-80558324D01*
X110135718Y-80466966D01*
X110155010Y-80369981D01*
X110155010Y-80271095D01*
X110135718Y-80174110D01*
X110097877Y-80082752D01*
X110042939Y-80000532D01*
X109973016Y-79930609D01*
X109890796Y-79875671D01*
X109799438Y-79837830D01*
X109702453Y-79818538D01*
X109603567Y-79818538D01*
X109506582Y-79837830D01*
X109415224Y-79875671D01*
X109333004Y-79930609D01*
X109263081Y-80000532D01*
X109208143Y-80082752D01*
X109170302Y-80174110D01*
X109151010Y-80271095D01*
X109151010Y-80369981D01*
X109170302Y-80466966D01*
X109208143Y-80558324D01*
X109263081Y-80640544D01*
X109333004Y-80710467D01*
X109415224Y-80765405D01*
X109433560Y-80773000D01*
X108614326Y-80773000D01*
X108595624Y-80678981D01*
X108557783Y-80587623D01*
X108502845Y-80505403D01*
X108432922Y-80435480D01*
X108350702Y-80380542D01*
X108259344Y-80342701D01*
X108162359Y-80323409D01*
X108063473Y-80323409D01*
X107966488Y-80342701D01*
X107875130Y-80380542D01*
X107792910Y-80435480D01*
X107722987Y-80505403D01*
X107668049Y-80587623D01*
X107630208Y-80678981D01*
X107611506Y-80773000D01*
X101377000Y-80773000D01*
X101377000Y-78302000D01*
X102623000Y-78302000D01*
X102623000Y-79425000D01*
G37*
X102623000Y-79425000D02*
X102625440Y-79449776D01*
X102632667Y-79473601D01*
X102644403Y-79495557D01*
X102660197Y-79514803D01*
X102679443Y-79530597D01*
X102701399Y-79542333D01*
X102725224Y-79549560D01*
X102750367Y-79551999D01*
X111273000Y-79527367D01*
X111273000Y-80773000D01*
X109872460Y-80773000D01*
X109890796Y-80765405D01*
X109973016Y-80710467D01*
X110042939Y-80640544D01*
X110097877Y-80558324D01*
X110135718Y-80466966D01*
X110155010Y-80369981D01*
X110155010Y-80271095D01*
X110135718Y-80174110D01*
X110097877Y-80082752D01*
X110042939Y-80000532D01*
X109973016Y-79930609D01*
X109890796Y-79875671D01*
X109799438Y-79837830D01*
X109702453Y-79818538D01*
X109603567Y-79818538D01*
X109506582Y-79837830D01*
X109415224Y-79875671D01*
X109333004Y-79930609D01*
X109263081Y-80000532D01*
X109208143Y-80082752D01*
X109170302Y-80174110D01*
X109151010Y-80271095D01*
X109151010Y-80369981D01*
X109170302Y-80466966D01*
X109208143Y-80558324D01*
X109263081Y-80640544D01*
X109333004Y-80710467D01*
X109415224Y-80765405D01*
X109433560Y-80773000D01*
X108614326Y-80773000D01*
X108595624Y-80678981D01*
X108557783Y-80587623D01*
X108502845Y-80505403D01*
X108432922Y-80435480D01*
X108350702Y-80380542D01*
X108259344Y-80342701D01*
X108162359Y-80323409D01*
X108063473Y-80323409D01*
X107966488Y-80342701D01*
X107875130Y-80380542D01*
X107792910Y-80435480D01*
X107722987Y-80505403D01*
X107668049Y-80587623D01*
X107630208Y-80678981D01*
X107611506Y-80773000D01*
X101377000Y-80773000D01*
X101377000Y-78302000D01*
X102623000Y-78302000D01*
X102623000Y-79425000D01*
G36*
X104673000Y-83301814D02*
G01*
X104660363Y-83308569D01*
X104618184Y-83343184D01*
X104583569Y-83385363D01*
X104557847Y-83433484D01*
X104542008Y-83485699D01*
X104536660Y-83540000D01*
X104536660Y-83799047D01*
X104528455Y-83826096D01*
X104523000Y-83881482D01*
X104523000Y-84171660D01*
X104363340Y-84171660D01*
X104363340Y-83540000D01*
X104357992Y-83485699D01*
X104342153Y-83433484D01*
X104327000Y-83405136D01*
X104327000Y-83250000D01*
X104324560Y-83225224D01*
X104317333Y-83201399D01*
X104305597Y-83179443D01*
X104289803Y-83160197D01*
X104270557Y-83144403D01*
X104248601Y-83132667D01*
X104224776Y-83125440D01*
X104200000Y-83123000D01*
X103027000Y-83123000D01*
X103027000Y-81377000D01*
X104673000Y-81377000D01*
X104673000Y-83301814D01*
G37*
X104673000Y-83301814D02*
X104660363Y-83308569D01*
X104618184Y-83343184D01*
X104583569Y-83385363D01*
X104557847Y-83433484D01*
X104542008Y-83485699D01*
X104536660Y-83540000D01*
X104536660Y-83799047D01*
X104528455Y-83826096D01*
X104523000Y-83881482D01*
X104523000Y-84171660D01*
X104363340Y-84171660D01*
X104363340Y-83540000D01*
X104357992Y-83485699D01*
X104342153Y-83433484D01*
X104327000Y-83405136D01*
X104327000Y-83250000D01*
X104324560Y-83225224D01*
X104317333Y-83201399D01*
X104305597Y-83179443D01*
X104289803Y-83160197D01*
X104270557Y-83144403D01*
X104248601Y-83132667D01*
X104224776Y-83125440D01*
X104200000Y-83123000D01*
X103027000Y-83123000D01*
X103027000Y-81377000D01*
X104673000Y-81377000D01*
X104673000Y-83301814D01*
G36*
X103873000Y-84373000D02*
G01*
X103100000Y-84373000D01*
X103075224Y-84375440D01*
X103051399Y-84382667D01*
X103029443Y-84394403D01*
X103010197Y-84410197D01*
X102994403Y-84429443D01*
X102982667Y-84451399D01*
X102975440Y-84475224D01*
X102973000Y-84500000D01*
X102973000Y-86673000D01*
X101127000Y-86673000D01*
X101127000Y-83627000D01*
X103873000Y-83627000D01*
X103873000Y-84373000D01*
G37*
X103873000Y-84373000D02*
X103100000Y-84373000D01*
X103075224Y-84375440D01*
X103051399Y-84382667D01*
X103029443Y-84394403D01*
X103010197Y-84410197D01*
X102994403Y-84429443D01*
X102982667Y-84451399D01*
X102975440Y-84475224D01*
X102973000Y-84500000D01*
X102973000Y-86673000D01*
X101127000Y-86673000D01*
X101127000Y-83627000D01*
X103873000Y-83627000D01*
X103873000Y-84373000D01*
G36*
X107002813Y-88883618D02*
G01*
X107044424Y-88984076D01*
X107104834Y-89074486D01*
X107181720Y-89151372D01*
X107272130Y-89211782D01*
X107372588Y-89253393D01*
X107479233Y-89274606D01*
X107587967Y-89274606D01*
X107694612Y-89253393D01*
X107793967Y-89212239D01*
X107783267Y-89266030D01*
X107783267Y-89374764D01*
X107804480Y-89481409D01*
X107846091Y-89581867D01*
X107906501Y-89672277D01*
X107983387Y-89749163D01*
X108073797Y-89809573D01*
X108174255Y-89851184D01*
X108280900Y-89872397D01*
X108389634Y-89872397D01*
X108496279Y-89851184D01*
X108596737Y-89809573D01*
X108687147Y-89749163D01*
X108764033Y-89672277D01*
X108824443Y-89581867D01*
X108866054Y-89481409D01*
X108867788Y-89472691D01*
X108889896Y-89526065D01*
X108944834Y-89608285D01*
X109014757Y-89678208D01*
X109096977Y-89733146D01*
X109188335Y-89770987D01*
X109285320Y-89790279D01*
X109384206Y-89790279D01*
X109481191Y-89770987D01*
X109572549Y-89733146D01*
X109654769Y-89678208D01*
X109724692Y-89608285D01*
X109779630Y-89526065D01*
X109817471Y-89434707D01*
X109836763Y-89337722D01*
X109836763Y-89238836D01*
X109817471Y-89141851D01*
X109779630Y-89050493D01*
X109733196Y-88981000D01*
X114470477Y-88981000D01*
X114412214Y-89005133D01*
X114329994Y-89060071D01*
X114260071Y-89129994D01*
X114205133Y-89212214D01*
X114167292Y-89303572D01*
X114148000Y-89400557D01*
X114148000Y-89499443D01*
X114167292Y-89596428D01*
X114205133Y-89687786D01*
X114260071Y-89770006D01*
X114329994Y-89839929D01*
X114412214Y-89894867D01*
X114503572Y-89932708D01*
X114600557Y-89952000D01*
X114699443Y-89952000D01*
X114796428Y-89932708D01*
X114887786Y-89894867D01*
X114970006Y-89839929D01*
X115039929Y-89770006D01*
X115094867Y-89687786D01*
X115111581Y-89647435D01*
X115160071Y-89720005D01*
X115223000Y-89782934D01*
X115223000Y-91223000D01*
X107618289Y-91223000D01*
X107540955Y-91145666D01*
X107524448Y-91125552D01*
X107444202Y-91059696D01*
X107352650Y-91010761D01*
X107253310Y-90980626D01*
X107175881Y-90973000D01*
X107150000Y-90970451D01*
X107124119Y-90973000D01*
X107123415Y-90973000D01*
X107100000Y-90970694D01*
X107076585Y-90973000D01*
X106851296Y-90973000D01*
X106843789Y-90896773D01*
X106815501Y-90803522D01*
X106769565Y-90717582D01*
X106707746Y-90642254D01*
X106632418Y-90580435D01*
X106577000Y-90550813D01*
X106577000Y-90510209D01*
X106582708Y-90496428D01*
X106587545Y-90472109D01*
X106607597Y-90406007D01*
X106616806Y-90312501D01*
X106607597Y-90218993D01*
X106580322Y-90129078D01*
X106536028Y-90046212D01*
X106476421Y-89973579D01*
X106403788Y-89913972D01*
X106320922Y-89869678D01*
X106231007Y-89842403D01*
X106137499Y-89833194D01*
X106043993Y-89842403D01*
X105977891Y-89862455D01*
X105953572Y-89867292D01*
X105939791Y-89873000D01*
X105727000Y-89873000D01*
X105727000Y-88877000D01*
X107001497Y-88877000D01*
X107002813Y-88883618D01*
G37*
X107002813Y-88883618D02*
X107044424Y-88984076D01*
X107104834Y-89074486D01*
X107181720Y-89151372D01*
X107272130Y-89211782D01*
X107372588Y-89253393D01*
X107479233Y-89274606D01*
X107587967Y-89274606D01*
X107694612Y-89253393D01*
X107793967Y-89212239D01*
X107783267Y-89266030D01*
X107783267Y-89374764D01*
X107804480Y-89481409D01*
X107846091Y-89581867D01*
X107906501Y-89672277D01*
X107983387Y-89749163D01*
X108073797Y-89809573D01*
X108174255Y-89851184D01*
X108280900Y-89872397D01*
X108389634Y-89872397D01*
X108496279Y-89851184D01*
X108596737Y-89809573D01*
X108687147Y-89749163D01*
X108764033Y-89672277D01*
X108824443Y-89581867D01*
X108866054Y-89481409D01*
X108867788Y-89472691D01*
X108889896Y-89526065D01*
X108944834Y-89608285D01*
X109014757Y-89678208D01*
X109096977Y-89733146D01*
X109188335Y-89770987D01*
X109285320Y-89790279D01*
X109384206Y-89790279D01*
X109481191Y-89770987D01*
X109572549Y-89733146D01*
X109654769Y-89678208D01*
X109724692Y-89608285D01*
X109779630Y-89526065D01*
X109817471Y-89434707D01*
X109836763Y-89337722D01*
X109836763Y-89238836D01*
X109817471Y-89141851D01*
X109779630Y-89050493D01*
X109733196Y-88981000D01*
X114470477Y-88981000D01*
X114412214Y-89005133D01*
X114329994Y-89060071D01*
X114260071Y-89129994D01*
X114205133Y-89212214D01*
X114167292Y-89303572D01*
X114148000Y-89400557D01*
X114148000Y-89499443D01*
X114167292Y-89596428D01*
X114205133Y-89687786D01*
X114260071Y-89770006D01*
X114329994Y-89839929D01*
X114412214Y-89894867D01*
X114503572Y-89932708D01*
X114600557Y-89952000D01*
X114699443Y-89952000D01*
X114796428Y-89932708D01*
X114887786Y-89894867D01*
X114970006Y-89839929D01*
X115039929Y-89770006D01*
X115094867Y-89687786D01*
X115111581Y-89647435D01*
X115160071Y-89720005D01*
X115223000Y-89782934D01*
X115223000Y-91223000D01*
X107618289Y-91223000D01*
X107540955Y-91145666D01*
X107524448Y-91125552D01*
X107444202Y-91059696D01*
X107352650Y-91010761D01*
X107253310Y-90980626D01*
X107175881Y-90973000D01*
X107150000Y-90970451D01*
X107124119Y-90973000D01*
X107123415Y-90973000D01*
X107100000Y-90970694D01*
X107076585Y-90973000D01*
X106851296Y-90973000D01*
X106843789Y-90896773D01*
X106815501Y-90803522D01*
X106769565Y-90717582D01*
X106707746Y-90642254D01*
X106632418Y-90580435D01*
X106577000Y-90550813D01*
X106577000Y-90510209D01*
X106582708Y-90496428D01*
X106587545Y-90472109D01*
X106607597Y-90406007D01*
X106616806Y-90312501D01*
X106607597Y-90218993D01*
X106580322Y-90129078D01*
X106536028Y-90046212D01*
X106476421Y-89973579D01*
X106403788Y-89913972D01*
X106320922Y-89869678D01*
X106231007Y-89842403D01*
X106137499Y-89833194D01*
X106043993Y-89842403D01*
X105977891Y-89862455D01*
X105953572Y-89867292D01*
X105939791Y-89873000D01*
X105727000Y-89873000D01*
X105727000Y-88877000D01*
X107001497Y-88877000D01*
X107002813Y-88883618D01*
G36*
X111273000Y-73505359D02*
G01*
X111239437Y-73424329D01*
X111184499Y-73342109D01*
X111114576Y-73272186D01*
X111032356Y-73217248D01*
X110940998Y-73179407D01*
X110844013Y-73160115D01*
X110745127Y-73160115D01*
X110648142Y-73179407D01*
X110556784Y-73217248D01*
X110474564Y-73272186D01*
X110404641Y-73342109D01*
X110349703Y-73424329D01*
X110311862Y-73515687D01*
X110292570Y-73612672D01*
X110292570Y-73711558D01*
X110311862Y-73808543D01*
X110349703Y-73899901D01*
X110392570Y-73964056D01*
X110392571Y-76023000D01*
X106177000Y-76023000D01*
X106177000Y-75852078D01*
X106231975Y-75669991D01*
X106237280Y-75643199D01*
X106242983Y-75616367D01*
X106243424Y-75612173D01*
X106300559Y-75029471D01*
X106300559Y-75029464D01*
X106302000Y-75014833D01*
X106302000Y-74561935D01*
X106329994Y-74589929D01*
X106412214Y-74644867D01*
X106503572Y-74682708D01*
X106600557Y-74702000D01*
X106699443Y-74702000D01*
X106796428Y-74682708D01*
X106887786Y-74644867D01*
X106951941Y-74602000D01*
X107142761Y-74602000D01*
X107162500Y-74603944D01*
X107182239Y-74602000D01*
X107182247Y-74602000D01*
X107241306Y-74596183D01*
X107317083Y-74573197D01*
X107386920Y-74535868D01*
X107448132Y-74485632D01*
X107460723Y-74470290D01*
X107702673Y-74228340D01*
X107997327Y-74228340D01*
X108696660Y-74927673D01*
X108696660Y-75306250D01*
X108706211Y-75403227D01*
X108734499Y-75496478D01*
X108780435Y-75582418D01*
X108842254Y-75657746D01*
X108917582Y-75719565D01*
X109003522Y-75765501D01*
X109096773Y-75793789D01*
X109193750Y-75803340D01*
X109706250Y-75803340D01*
X109803227Y-75793789D01*
X109896478Y-75765501D01*
X109982418Y-75719565D01*
X110057746Y-75657746D01*
X110119565Y-75582418D01*
X110165501Y-75496478D01*
X110193789Y-75403227D01*
X110203340Y-75306250D01*
X110203340Y-74868750D01*
X110193789Y-74771773D01*
X110165501Y-74678522D01*
X110119565Y-74592582D01*
X110057746Y-74517254D01*
X109982418Y-74455435D01*
X109896478Y-74409499D01*
X109803227Y-74381211D01*
X109706250Y-74371660D01*
X109277673Y-74371660D01*
X108603340Y-73697327D01*
X108603340Y-73293750D01*
X108593789Y-73196773D01*
X108565501Y-73103522D01*
X108519565Y-73017582D01*
X108457746Y-72942254D01*
X108382418Y-72880435D01*
X108296478Y-72834499D01*
X108203227Y-72806211D01*
X108106250Y-72796660D01*
X107593750Y-72796660D01*
X107496773Y-72806211D01*
X107403522Y-72834499D01*
X107317582Y-72880435D01*
X107242254Y-72942254D01*
X107180435Y-73017582D01*
X107140435Y-73092417D01*
X107132708Y-73053572D01*
X107094867Y-72962214D01*
X107039929Y-72879994D01*
X106970006Y-72810071D01*
X106887786Y-72755133D01*
X106796428Y-72717292D01*
X106699443Y-72698000D01*
X106600557Y-72698000D01*
X106503572Y-72717292D01*
X106412214Y-72755133D01*
X106334022Y-72807379D01*
X106356007Y-72734562D01*
X106419827Y-72614535D01*
X106505745Y-72509188D01*
X106610494Y-72422531D01*
X106730074Y-72357875D01*
X106859936Y-72317676D01*
X107009079Y-72302000D01*
X111273000Y-72302000D01*
X111273000Y-73505359D01*
G37*
X111273000Y-73505359D02*
X111239437Y-73424329D01*
X111184499Y-73342109D01*
X111114576Y-73272186D01*
X111032356Y-73217248D01*
X110940998Y-73179407D01*
X110844013Y-73160115D01*
X110745127Y-73160115D01*
X110648142Y-73179407D01*
X110556784Y-73217248D01*
X110474564Y-73272186D01*
X110404641Y-73342109D01*
X110349703Y-73424329D01*
X110311862Y-73515687D01*
X110292570Y-73612672D01*
X110292570Y-73711558D01*
X110311862Y-73808543D01*
X110349703Y-73899901D01*
X110392570Y-73964056D01*
X110392571Y-76023000D01*
X106177000Y-76023000D01*
X106177000Y-75852078D01*
X106231975Y-75669991D01*
X106237280Y-75643199D01*
X106242983Y-75616367D01*
X106243424Y-75612173D01*
X106300559Y-75029471D01*
X106300559Y-75029464D01*
X106302000Y-75014833D01*
X106302000Y-74561935D01*
X106329994Y-74589929D01*
X106412214Y-74644867D01*
X106503572Y-74682708D01*
X106600557Y-74702000D01*
X106699443Y-74702000D01*
X106796428Y-74682708D01*
X106887786Y-74644867D01*
X106951941Y-74602000D01*
X107142761Y-74602000D01*
X107162500Y-74603944D01*
X107182239Y-74602000D01*
X107182247Y-74602000D01*
X107241306Y-74596183D01*
X107317083Y-74573197D01*
X107386920Y-74535868D01*
X107448132Y-74485632D01*
X107460723Y-74470290D01*
X107702673Y-74228340D01*
X107997327Y-74228340D01*
X108696660Y-74927673D01*
X108696660Y-75306250D01*
X108706211Y-75403227D01*
X108734499Y-75496478D01*
X108780435Y-75582418D01*
X108842254Y-75657746D01*
X108917582Y-75719565D01*
X109003522Y-75765501D01*
X109096773Y-75793789D01*
X109193750Y-75803340D01*
X109706250Y-75803340D01*
X109803227Y-75793789D01*
X109896478Y-75765501D01*
X109982418Y-75719565D01*
X110057746Y-75657746D01*
X110119565Y-75582418D01*
X110165501Y-75496478D01*
X110193789Y-75403227D01*
X110203340Y-75306250D01*
X110203340Y-74868750D01*
X110193789Y-74771773D01*
X110165501Y-74678522D01*
X110119565Y-74592582D01*
X110057746Y-74517254D01*
X109982418Y-74455435D01*
X109896478Y-74409499D01*
X109803227Y-74381211D01*
X109706250Y-74371660D01*
X109277673Y-74371660D01*
X108603340Y-73697327D01*
X108603340Y-73293750D01*
X108593789Y-73196773D01*
X108565501Y-73103522D01*
X108519565Y-73017582D01*
X108457746Y-72942254D01*
X108382418Y-72880435D01*
X108296478Y-72834499D01*
X108203227Y-72806211D01*
X108106250Y-72796660D01*
X107593750Y-72796660D01*
X107496773Y-72806211D01*
X107403522Y-72834499D01*
X107317582Y-72880435D01*
X107242254Y-72942254D01*
X107180435Y-73017582D01*
X107140435Y-73092417D01*
X107132708Y-73053572D01*
X107094867Y-72962214D01*
X107039929Y-72879994D01*
X106970006Y-72810071D01*
X106887786Y-72755133D01*
X106796428Y-72717292D01*
X106699443Y-72698000D01*
X106600557Y-72698000D01*
X106503572Y-72717292D01*
X106412214Y-72755133D01*
X106334022Y-72807379D01*
X106356007Y-72734562D01*
X106419827Y-72614535D01*
X106505745Y-72509188D01*
X106610494Y-72422531D01*
X106730074Y-72357875D01*
X106859936Y-72317676D01*
X107009079Y-72302000D01*
X111273000Y-72302000D01*
X111273000Y-73505359D01*
M02*
