EESchema Schematic File Version 4
EELAYER 30 0
EELAYER END
$Descr A4 11693 8268
encoding utf-8
Sheet 1 1
Title "CAT Programmer"
Date "2020-05-01"
Rev "1"
Comp ""
Comment1 ""
Comment2 ""
Comment3 ""
Comment4 ""
$EndDescr
$Comp
L Connector:USB_B J2
U 1 1 5EB18B11
P 3100 2750
F 0 "J2" H 3157 3217 50  0000 C CNN
F 1 "USB_B" H 3157 3126 50  0000 C CNN
F 2 "Connector_USB:USB_B_OST_USB-B1HSxx_Horizontal" H 3250 2700 50  0001 C CNN
F 3 " ~" H 3250 2700 50  0001 C CNN
	1    3100 2750
	1    0    0    -1  
$EndComp
Wire Wire Line
	3400 2550 3650 2550
$Comp
L power:+5V #PWR01
U 1 1 5EB19855
P 3650 2500
F 0 "#PWR01" H 3650 2350 50  0001 C CNN
F 1 "+5V" H 3665 2673 50  0000 C CNN
F 2 "" H 3650 2500 50  0001 C CNN
F 3 "" H 3650 2500 50  0001 C CNN
	1    3650 2500
	1    0    0    -1  
$EndComp
Wire Wire Line
	3650 2500 3650 2550
Connection ~ 3650 2550
Wire Wire Line
	3650 2550 4050 2550
$Comp
L Connector_Generic:Conn_02x10_Odd_Even J4
U 1 1 5EB19EE6
P 3850 5350
F 0 "J4" H 3900 5967 50  0000 C CNN
F 1 "J-Link SWD" H 3900 5876 50  0000 C CNN
F 2 "Connector_PinHeader_2.54mm:PinHeader_2x10_P2.54mm_Vertical" H 3850 5350 50  0001 C CNN
F 3 "~" H 3850 5350 50  0001 C CNN
	1    3850 5350
	1    0    0    -1  
$EndComp
Wire Wire Line
	3650 4950 3150 4950
Wire Wire Line
	3650 5250 3150 5250
Wire Wire Line
	3650 5350 3150 5350
Wire Wire Line
	3650 5650 3150 5650
Wire Wire Line
	3650 5850 3500 5850
NoConn ~ 3650 5050
NoConn ~ 3650 5150
NoConn ~ 3650 5450
NoConn ~ 3650 5550
NoConn ~ 3650 5750
Wire Wire Line
	4150 5050 4200 5050
Wire Wire Line
	4200 5050 4200 5150
Wire Wire Line
	4150 5150 4200 5150
Connection ~ 4200 5150
Wire Wire Line
	4200 5150 4200 5250
Wire Wire Line
	4150 5250 4200 5250
Connection ~ 4200 5250
Wire Wire Line
	4200 5250 4200 5350
Wire Wire Line
	4150 5350 4200 5350
Connection ~ 4200 5350
Wire Wire Line
	4200 5350 4200 5450
Wire Wire Line
	4150 5450 4200 5450
Connection ~ 4200 5450
Wire Wire Line
	4200 5450 4200 5550
Wire Wire Line
	4150 5550 4200 5550
Connection ~ 4200 5550
Wire Wire Line
	4200 5550 4200 5650
Wire Wire Line
	4150 5650 4200 5650
Connection ~ 4200 5650
Wire Wire Line
	4200 5650 4200 5750
Wire Wire Line
	4150 5750 4200 5750
Connection ~ 4200 5750
Wire Wire Line
	4200 5750 4200 5850
Wire Wire Line
	4150 5850 4200 5850
Connection ~ 4200 5850
Wire Wire Line
	4200 5850 4200 5950
$Comp
L power:GND #PWR08
U 1 1 5EB1DBD9
P 4200 5950
F 0 "#PWR08" H 4200 5700 50  0001 C CNN
F 1 "GND" H 4205 5777 50  0000 C CNN
F 2 "" H 4200 5950 50  0001 C CNN
F 3 "" H 4200 5950 50  0001 C CNN
	1    4200 5950
	1    0    0    -1  
$EndComp
Text Label 3150 4950 0    50   ~ 0
Vref
Text Label 3150 5250 0    50   ~ 0
SWDIO
Text Label 3150 5350 0    50   ~ 0
SWDCLK
Text Label 3150 5650 0    50   ~ 0
RESET
$Comp
L power:+5V #PWR07
U 1 1 5EB1E044
P 3500 5850
F 0 "#PWR07" H 3500 5700 50  0001 C CNN
F 1 "+5V" V 3515 5978 50  0000 L CNN
F 2 "" H 3500 5850 50  0001 C CNN
F 3 "" H 3500 5850 50  0001 C CNN
	1    3500 5850
	0    -1   -1   0   
$EndComp
$Comp
L Connector_Generic:Conn_02x03_Odd_Even J3
U 1 1 5EB1F346
P 3900 3600
F 0 "J3" H 3950 3275 50  0000 C CNN
F 1 "PROG" H 3950 3366 50  0000 C CNN
F 2 "Connector_PinSocket_1.27mm:PinSocket_2x03_P1.27mm_Vertical" H 3900 3600 50  0001 C CNN
F 3 "~" H 3900 3600 50  0001 C CNN
	1    3900 3600
	-1   0    0    1   
$EndComp
$Comp
L Connector_Generic:Conn_01x02 J1
U 1 1 5EB1F7B8
P 4250 2650
F 0 "J1" H 4330 2642 50  0000 L CNN
F 1 "CHRG" H 4330 2551 50  0000 L CNN
F 2 "Connector_PinHeader_1.27mm:PinHeader_1x02_P1.27mm_Vertical" H 4250 2650 50  0001 C CNN
F 3 "~" H 4250 2650 50  0001 C CNN
	1    4250 2650
	1    0    0    1   
$EndComp
$Comp
L Mechanical:MountingHole H1
U 1 1 5EB1FAC4
P 5150 2900
F 0 "H1" H 5250 2946 50  0000 L CNN
F 1 "MountingHole" H 5250 2855 50  0000 L CNN
F 2 "MountingHole:MountingHole_2.2mm_M2" H 5150 2900 50  0001 C CNN
F 3 "~" H 5150 2900 50  0001 C CNN
	1    5150 2900
	1    0    0    -1  
$EndComp
$Comp
L Mechanical:MountingHole H2
U 1 1 5EB1FC58
P 5150 3100
F 0 "H2" H 5250 3146 50  0000 L CNN
F 1 "MountingHole" H 5250 3055 50  0000 L CNN
F 2 "MountingHole:MountingHole_2.2mm_M2" H 5150 3100 50  0001 C CNN
F 3 "~" H 5150 3100 50  0001 C CNN
	1    5150 3100
	1    0    0    -1  
$EndComp
$Comp
L Switch:SW_Push SW1
U 1 1 5EB2000F
P 3650 4100
F 0 "SW1" H 3650 4385 50  0000 C CNN
F 1 "RESET" H 3650 4294 50  0000 C CNN
F 2 "Button_Switch_SMD:SW_SPST_TL3342" H 3650 4300 50  0001 C CNN
F 3 "~" H 3650 4300 50  0001 C CNN
	1    3650 4100
	1    0    0    -1  
$EndComp
$Comp
L Device:LED D1
U 1 1 5EB202B8
P 5100 4700
F 0 "D1" H 5093 4916 50  0000 C CNN
F 1 "5V" H 5093 4825 50  0000 C CNN
F 2 "Resistor_SMD:R_0603_1608Metric_Pad1.05x0.95mm_HandSolder" H 5100 4700 50  0001 C CNN
F 3 "~" H 5100 4700 50  0001 C CNN
	1    5100 4700
	0    -1   -1   0   
$EndComp
$Comp
L Device:LED D2
U 1 1 5EB2066A
P 5450 4700
F 0 "D2" H 5443 4916 50  0000 C CNN
F 1 "3V3" H 5443 4825 50  0000 C CNN
F 2 "Resistor_SMD:R_0603_1608Metric_Pad1.05x0.95mm_HandSolder" H 5450 4700 50  0001 C CNN
F 3 "~" H 5450 4700 50  0001 C CNN
	1    5450 4700
	0    -1   -1   0   
$EndComp
$Comp
L Device:R R1
U 1 1 5EB20C91
P 5100 4250
F 0 "R1" V 4893 4250 50  0000 C CNN
F 1 "R" V 4984 4250 50  0000 C CNN
F 2 "Resistor_SMD:R_0603_1608Metric" V 5030 4250 50  0001 C CNN
F 3 "~" H 5100 4250 50  0001 C CNN
	1    5100 4250
	1    0    0    -1  
$EndComp
$Comp
L Device:R R2
U 1 1 5EB2118E
P 5450 4250
F 0 "R2" V 5243 4250 50  0000 C CNN
F 1 "R" V 5334 4250 50  0000 C CNN
F 2 "Resistor_SMD:R_0603_1608Metric" V 5380 4250 50  0001 C CNN
F 3 "~" H 5450 4250 50  0001 C CNN
	1    5450 4250
	1    0    0    -1  
$EndComp
$Comp
L power:GND #PWR05
U 1 1 5EB22723
P 4150 4150
F 0 "#PWR05" H 4150 3900 50  0001 C CNN
F 1 "GND" H 4155 3977 50  0000 C CNN
F 2 "" H 4150 4150 50  0001 C CNN
F 3 "" H 4150 4150 50  0001 C CNN
	1    4150 4150
	1    0    0    -1  
$EndComp
Wire Wire Line
	4150 4150 4150 4100
Wire Wire Line
	4150 3700 4100 3700
Wire Wire Line
	4100 3500 4600 3500
Wire Wire Line
	4100 3600 4600 3600
Text Label 4600 3500 2    50   ~ 0
SWDIO
Text Label 4600 3600 2    50   ~ 0
SWDCLK
Wire Wire Line
	3100 3700 3400 3700
Wire Wire Line
	3600 3600 3100 3600
Text Label 3100 3600 0    50   ~ 0
Vref
$Comp
L power:+5V #PWR03
U 1 1 5EB24C13
P 3550 3450
F 0 "#PWR03" H 3550 3300 50  0001 C CNN
F 1 "+5V" H 3565 3623 50  0000 C CNN
F 2 "" H 3550 3450 50  0001 C CNN
F 3 "" H 3550 3450 50  0001 C CNN
	1    3550 3450
	1    0    0    -1  
$EndComp
Wire Wire Line
	3550 3450 3550 3500
Wire Wire Line
	3550 3500 3600 3500
Text Label 3100 3700 0    50   ~ 0
RESET
Wire Wire Line
	3850 4100 4150 4100
Connection ~ 4150 4100
Wire Wire Line
	4150 4100 4150 3700
Wire Wire Line
	3450 4100 3400 4100
Connection ~ 3400 3700
Wire Wire Line
	3400 3700 3600 3700
Wire Wire Line
	3400 3700 3400 4100
$Comp
L power:GND #PWR02
U 1 1 5EB83FD5
P 4000 2700
F 0 "#PWR02" H 4000 2450 50  0001 C CNN
F 1 "GND" H 4005 2527 50  0000 C CNN
F 2 "" H 4000 2700 50  0001 C CNN
F 3 "" H 4000 2700 50  0001 C CNN
	1    4000 2700
	1    0    0    -1  
$EndComp
Wire Wire Line
	4000 2700 4000 2650
Wire Wire Line
	4000 2650 4050 2650
$Comp
L power:GND #PWR06
U 1 1 5EB8AB27
P 5100 5100
F 0 "#PWR06" H 5100 4850 50  0001 C CNN
F 1 "GND" H 5105 4927 50  0000 C CNN
F 2 "" H 5100 5100 50  0001 C CNN
F 3 "" H 5100 5100 50  0001 C CNN
	1    5100 5100
	1    0    0    -1  
$EndComp
Wire Wire Line
	5100 5100 5100 5000
Wire Wire Line
	5450 4850 5450 5000
Wire Wire Line
	5450 5000 5100 5000
Connection ~ 5100 5000
Wire Wire Line
	5100 5000 5100 4850
Wire Wire Line
	5100 4400 5100 4550
Wire Wire Line
	5450 4400 5450 4550
$Comp
L power:+5V #PWR04
U 1 1 5EB8D90A
P 5100 4000
F 0 "#PWR04" H 5100 3850 50  0001 C CNN
F 1 "+5V" H 5115 4173 50  0000 C CNN
F 2 "" H 5100 4000 50  0001 C CNN
F 3 "" H 5100 4000 50  0001 C CNN
	1    5100 4000
	1    0    0    -1  
$EndComp
Wire Wire Line
	5100 4000 5100 4100
Text Label 5450 3900 1    50   ~ 0
Vref
Wire Wire Line
	5450 3900 5450 4100
$Comp
L power:GND #PWR?
U 1 1 5EB9B6FD
P 3100 3150
F 0 "#PWR?" H 3100 2900 50  0001 C CNN
F 1 "GND" H 3105 2977 50  0000 C CNN
F 2 "" H 3100 3150 50  0001 C CNN
F 3 "" H 3100 3150 50  0001 C CNN
	1    3100 3150
	1    0    0    -1  
$EndComp
Wire Wire Line
	3100 3150 3000 3150
Connection ~ 3100 3150
$EndSCHEMATC
