EESchema Schematic File Version 4
EELAYER 30 0
EELAYER END
$Descr A3 16535 11693
encoding utf-8
Sheet 1 1
Title "CATracker"
Date "2020-11-25"
Rev "3"
Comp ""
Comment1 ""
Comment2 ""
Comment3 ""
Comment4 ""
$EndDescr
$Comp
L BQ21040DBVR:BQ21040DBVR U1
U 1 1 5EA0A0A5
P 2300 1600
F 0 "U1" H 2300 2167 50  0000 C CNN
F 1 "BQ21040DBVR" H 2300 2076 50  0000 C CNN
F 2 "Package_TO_SOT_SMD:SOT-23-6" H 2300 1600 50  0001 L BNN
F 3 "http://www.ti.com/lit/ds/symlink/bq21040.pdf" H 2300 1600 50  0001 L BNN
F 4 "BQ21040DBVR" H 2300 1600 50  0001 C CNN "MPN"
	1    2300 1600
	1    0    0    -1  
$EndComp
$Comp
L LSM6DSOXTR:LSM6DSOXTR U6
U 1 1 5EA0B8EF
P 2850 9700
F 0 "U6" H 2850 10467 50  0000 C CNN
F 1 "LSM6DSOXTR" H 2850 10376 50  0000 C CNN
F 2 "Layout:PQFN50P250X300X86-14N" H 2850 9700 50  0001 L BNN
F 3 "3.0" H 2850 9700 50  0001 L BNN
F 4 "ST Microelectronics" H 2850 9700 50  0001 L BNN "Field4"
F 5 "IPC7351B" H 2850 9700 50  0001 L BNN "Field5"
F 6 "LSM6DSOXTR" H 2850 9700 50  0001 C CNN "MPN"
	1    2850 9700
	1    0    0    -1  
$EndComp
Wire Notes Line
	2000 5650 2000 6150
Wire Notes Line
	2000 6150 2350 6150
Wire Notes Line
	2350 6150 2350 5650
Wire Notes Line
	2350 5650 2000 5650
Text Notes 2100 5800 0    50   ~ 0
BAT
Wire Notes Line
	1300 5350 1300 5700
Wire Notes Line
	1300 5700 1900 5700
Wire Notes Line
	1900 5350 1300 5350
Text Notes 1450 5600 0    50   ~ 0
CHRG\nCTRL
Wire Notes Line
	950  5500 1300 5500
Wire Notes Line
	1900 5500 2700 5500
Text Notes 900  5450 0    50   ~ 0
5V_CHRG
Text Notes 1350 5500 0    50   ~ 0
IN
Text Notes 1700 5500 0    50   ~ 0
OUT
Wire Notes Line
	2700 5350 2700 5700
Wire Notes Line
	2700 5700 3200 5700
Wire Notes Line
	3200 5700 3200 5350
Wire Notes Line
	3200 5350 2700 5350
Text Notes 2750 5550 0    50   ~ 0
DCDC 3V3
Wire Notes Line
	2700 6200 2700 6700
Wire Notes Line
	2700 6700 3200 6700
Wire Notes Line
	3200 6700 3200 6200
Wire Notes Line
	3200 6200 2700 6200
Wire Notes Line
	3750 5350 3750 5850
Wire Notes Line
	3750 5850 4250 5850
Wire Notes Line
	4250 5850 4250 5350
Wire Notes Line
	4250 5350 3750 5350
Wire Notes Line
	3750 4700 3750 5200
Wire Notes Line
	3750 5200 4250 5200
Wire Notes Line
	4250 5200 4250 4700
Wire Notes Line
	4250 4700 3750 4700
Text Notes 2800 6550 0    50   ~ 0
GPS\nMODUL
Text Notes 3850 5650 0    50   ~ 0
MCU +\nRADIO
Text Notes 3950 5000 0    50   ~ 0
IMU
Wire Notes Line
	3200 5500 3750 5500
Wire Notes Line
	3650 4850 3750 4850
Wire Notes Line
	3350 5900 3350 6550
Wire Notes Line
	3350 6550 3200 6550
Text Notes 3250 5450 0    50   ~ 0
VOUT
Text Notes 3200 5700 0    50   ~ 0
LS
Text Notes 2300 5500 0    50   ~ 0
4,2..3,7V
Text Notes 3350 5600 0    50   ~ 0
3,3V
$Comp
L power:GND #PWR04
U 1 1 5EA15ABB
P 1200 1450
F 0 "#PWR04" H 1200 1200 50  0001 C CNN
F 1 "GND" H 1205 1277 50  0000 C CNN
F 2 "" H 1200 1450 50  0001 C CNN
F 3 "" H 1200 1450 50  0001 C CNN
	1    1200 1450
	1    0    0    -1  
$EndComp
Wire Wire Line
	1200 1450 1200 1400
Wire Wire Line
	1200 1400 1150 1400
$Comp
L Device:C C1
U 1 1 5EA1825C
P 1550 1500
F 0 "C1" H 1665 1546 50  0000 L CNN
F 1 "1u" H 1665 1455 50  0000 L CNN
F 2 "Capacitor_SMD:C_0402_1005Metric" H 1588 1350 50  0001 C CNN
F 3 "~" H 1550 1500 50  0001 C CNN
F 4 "0603DC105MAT2A" H 1550 1500 50  0001 C CNN "MPN"
	1    1550 1500
	1    0    0    -1  
$EndComp
Wire Wire Line
	1550 1350 1550 1300
Connection ~ 1550 1300
Wire Wire Line
	1550 1300 1800 1300
$Comp
L power:GND #PWR05
U 1 1 5EA1907D
P 1550 1650
F 0 "#PWR05" H 1550 1400 50  0001 C CNN
F 1 "GND" H 1555 1477 50  0000 C CNN
F 2 "" H 1550 1650 50  0001 C CNN
F 3 "" H 1550 1650 50  0001 C CNN
	1    1550 1650
	1    0    0    -1  
$EndComp
$Comp
L Connector_Generic:Conn_01x02 J2
U 1 1 5EA1979E
P 1600 3550
F 0 "J2" H 1518 3225 50  0000 C CNN
F 1 "BAT" H 1518 3316 50  0000 C CNN
F 2 "Connector_PinSocket_2.00mm:PinSocket_1x02_P2.00mm_Vertical" H 1600 3550 50  0001 C CNN
F 3 "~" H 1600 3550 50  0001 C CNN
	1    1600 3550
	-1   0    0    1   
$EndComp
$Comp
L power:GND #PWR020
U 1 1 5EA19BB8
P 1850 3600
F 0 "#PWR020" H 1850 3350 50  0001 C CNN
F 1 "GND" H 1855 3427 50  0000 C CNN
F 2 "" H 1850 3600 50  0001 C CNN
F 3 "" H 1850 3600 50  0001 C CNN
	1    1850 3600
	1    0    0    -1  
$EndComp
Wire Wire Line
	1850 3600 1850 3550
Wire Wire Line
	1850 3550 1800 3550
Wire Wire Line
	1800 3450 1850 3450
Wire Wire Line
	2000 3450 2000 3400
Wire Wire Line
	1750 1850 1800 1850
$Comp
L power:GND #PWR021
U 1 1 5EA1B272
P 1750 2300
F 0 "#PWR021" H 1750 2050 50  0001 C CNN
F 1 "GND" H 1755 2127 50  0000 C CNN
F 2 "" H 1750 2300 50  0001 C CNN
F 3 "" H 1750 2300 50  0001 C CNN
	1    1750 2300
	1    0    0    -1  
$EndComp
$Comp
L power:+BATT #PWR014
U 1 1 5EA1CB0C
P 2000 3400
F 0 "#PWR014" H 2000 3250 50  0001 C CNN
F 1 "+BATT" H 2015 3573 50  0000 C CNN
F 2 "" H 2000 3400 50  0001 C CNN
F 3 "" H 2000 3400 50  0001 C CNN
	1    2000 3400
	1    0    0    -1  
$EndComp
$Comp
L power:+BATT #PWR02
U 1 1 5EA1D01A
P 2900 1250
F 0 "#PWR02" H 2900 1100 50  0001 C CNN
F 1 "+BATT" H 2915 1423 50  0000 C CNN
F 2 "" H 2900 1250 50  0001 C CNN
F 3 "" H 2900 1250 50  0001 C CNN
	1    2900 1250
	1    0    0    -1  
$EndComp
Wire Wire Line
	2900 1250 2900 1300
Wire Wire Line
	2900 1300 2800 1300
$Comp
L power:GND #PWR013
U 1 1 5EA1D9EF
P 2300 2100
F 0 "#PWR013" H 2300 1850 50  0001 C CNN
F 1 "GND" H 2305 1927 50  0000 C CNN
F 2 "" H 2300 2100 50  0001 C CNN
F 3 "" H 2300 2100 50  0001 C CNN
	1    2300 2100
	1    0    0    -1  
$EndComp
$Comp
L Device:R R1
U 1 1 5EA1E062
P 2850 2150
F 0 "R1" H 2920 2196 50  0000 L CNN
F 1 "10k" H 2920 2105 50  0000 L CNN
F 2 "Resistor_SMD:R_0402_1005Metric" V 2780 2150 50  0001 C CNN
F 3 "~" H 2850 2150 50  0001 C CNN
F 4 "CRCW060310K0JNEAC" H 2850 2150 50  0001 C CNN "MPN"
	1    2850 2150
	1    0    0    -1  
$EndComp
Wire Wire Line
	2850 2000 2850 1850
Wire Wire Line
	2850 1850 2800 1850
$Comp
L power:GND #PWR018
U 1 1 5EA1ECFC
P 2850 2350
F 0 "#PWR018" H 2850 2100 50  0001 C CNN
F 1 "GND" H 2855 2177 50  0000 C CNN
F 2 "" H 2850 2350 50  0001 C CNN
F 3 "" H 2850 2350 50  0001 C CNN
	1    2850 2350
	1    0    0    -1  
$EndComp
Wire Wire Line
	2850 2350 2850 2300
$Comp
L Device:C C2
U 1 1 5EA20611
P 3300 1500
F 0 "C2" H 3415 1546 50  0000 L CNN
F 1 "1u" H 3415 1455 50  0000 L CNN
F 2 "Capacitor_SMD:C_0402_1005Metric" H 3338 1350 50  0001 C CNN
F 3 "~" H 3300 1500 50  0001 C CNN
F 4 "0603DC105MAT2A" H 3300 1500 50  0001 C CNN "MPN"
	1    3300 1500
	1    0    0    -1  
$EndComp
$Comp
L power:GND #PWR06
U 1 1 5EA2061B
P 3300 1650
F 0 "#PWR06" H 3300 1400 50  0001 C CNN
F 1 "GND" H 3305 1477 50  0000 C CNN
F 2 "" H 3300 1650 50  0001 C CNN
F 3 "" H 3300 1650 50  0001 C CNN
	1    3300 1650
	1    0    0    -1  
$EndComp
Wire Wire Line
	3300 1350 3300 1300
Wire Wire Line
	3300 1300 2900 1300
Connection ~ 2900 1300
$Comp
L Device:C C3
U 1 1 5EA2533F
P 3650 1500
F 0 "C3" H 3765 1546 50  0000 L CNN
F 1 "10u" H 3765 1455 50  0000 L CNN
F 2 "Capacitor_SMD:C_0603_1608Metric" H 3688 1350 50  0001 C CNN
F 3 "~" H 3650 1500 50  0001 C CNN
F 4 "GRM188R60J106ME84J" H 3650 1500 50  0001 C CNN "MPN"
	1    3650 1500
	1    0    0    -1  
$EndComp
$Comp
L power:GND #PWR07
U 1 1 5EA25345
P 3650 1650
F 0 "#PWR07" H 3650 1400 50  0001 C CNN
F 1 "GND" H 3655 1477 50  0000 C CNN
F 2 "" H 3650 1650 50  0001 C CNN
F 3 "" H 3650 1650 50  0001 C CNN
	1    3650 1650
	1    0    0    -1  
$EndComp
$Comp
L Device:C C4
U 1 1 5EA25E3E
P 7350 1500
F 0 "C4" H 7465 1546 50  0000 L CNN
F 1 "1u" H 7465 1455 50  0000 L CNN
F 2 "Capacitor_SMD:C_0402_1005Metric" H 7388 1350 50  0001 C CNN
F 3 "~" H 7350 1500 50  0001 C CNN
F 4 "0603DC105MAT2A" H 7350 1500 50  0001 C CNN "MPN"
	1    7350 1500
	1    0    0    -1  
$EndComp
$Comp
L power:GND #PWR08
U 1 1 5EA25E44
P 7350 1650
F 0 "#PWR08" H 7350 1400 50  0001 C CNN
F 1 "GND" H 7355 1477 50  0000 C CNN
F 2 "" H 7350 1650 50  0001 C CNN
F 3 "" H 7350 1650 50  0001 C CNN
	1    7350 1650
	1    0    0    -1  
$EndComp
Wire Wire Line
	3650 1350 3650 1300
Wire Wire Line
	3300 1300 3650 1300
Connection ~ 3300 1300
Wire Wire Line
	5200 1300 5250 1300
Wire Wire Line
	5200 1400 5250 1400
Wire Wire Line
	5200 1400 5200 1300
Wire Wire Line
	5250 2100 5200 2100
Wire Wire Line
	5200 2100 5200 2200
Wire Wire Line
	5250 2200 5200 2200
Connection ~ 5200 2200
Wire Wire Line
	5200 2200 5200 2300
$Comp
L power:GND #PWR017
U 1 1 5EA2A825
P 5200 2300
F 0 "#PWR017" H 5200 2050 50  0001 C CNN
F 1 "GND" H 5205 2127 50  0000 C CNN
F 2 "" H 5200 2300 50  0001 C CNN
F 3 "" H 5200 2300 50  0001 C CNN
	1    5200 2300
	1    0    0    -1  
$EndComp
$Comp
L Device:L L1
U 1 1 5EA61F76
P 6850 1300
F 0 "L1" V 7040 1300 50  0000 C CNN
F 1 "2.2u 740mA" V 6949 1300 50  0000 C CNN
F 2 "Inductor_SMD:L_0805_2012Metric" H 6850 1300 50  0001 C CNN
F 3 "~" H 6850 1300 50  0001 C CNN
F 4 "AISC-0805F-2R2G-T" H 6850 1300 50  0001 C CNN "MPN"
	1    6850 1300
	0    -1   -1   0   
$EndComp
Wire Wire Line
	6700 1300 6650 1300
Wire Wire Line
	7000 1300 7250 1300
Wire Wire Line
	7250 1300 7250 1400
Wire Wire Line
	7250 1400 6650 1400
Wire Wire Line
	7350 1350 7350 1300
Wire Wire Line
	7350 1300 7250 1300
Connection ~ 7250 1300
$Comp
L power:+3.3V #PWR03
U 1 1 5EA67C34
P 7350 1250
F 0 "#PWR03" H 7350 1100 50  0001 C CNN
F 1 "+3.3V" H 7365 1423 50  0000 C CNN
F 2 "" H 7350 1250 50  0001 C CNN
F 3 "" H 7350 1250 50  0001 C CNN
	1    7350 1250
	1    0    0    -1  
$EndComp
Wire Wire Line
	7350 1250 7350 1300
Connection ~ 7350 1300
$Comp
L power:+VSW #PWR015
U 1 1 5EA750E2
P 6700 2150
F 0 "#PWR015" H 6700 2000 50  0001 C CNN
F 1 "+VSW" H 6715 2323 50  0000 C CNN
F 2 "" H 6700 2150 50  0001 C CNN
F 3 "" H 6700 2150 50  0001 C CNN
	1    6700 2150
	1    0    0    -1  
$EndComp
Wire Wire Line
	6700 2150 6700 2200
Wire Wire Line
	6700 2200 6650 2200
$Comp
L power:+5V #PWR01
U 1 1 5EA79219
P 1550 1250
F 0 "#PWR01" H 1550 1100 50  0001 C CNN
F 1 "+5V" H 1565 1423 50  0000 C CNN
F 2 "" H 1550 1250 50  0001 C CNN
F 3 "" H 1550 1250 50  0001 C CNN
	1    1550 1250
	1    0    0    -1  
$EndComp
Wire Wire Line
	1550 1250 1550 1300
$Comp
L power:+3.3V #PWR029
U 1 1 5EA7B814
P 15000 8750
F 0 "#PWR029" H 15000 8600 50  0001 C CNN
F 1 "+3.3V" H 15015 8923 50  0000 C CNN
F 2 "" H 15000 8750 50  0001 C CNN
F 3 "" H 15000 8750 50  0001 C CNN
	1    15000 8750
	1    0    0    -1  
$EndComp
Text Label 13000 8900 0    50   ~ 0
SWDIO
Text Label 13000 9000 0    50   ~ 0
SWDCLK
$Comp
L power:GND #PWR031
U 1 1 5EA8AE43
P 1500 7700
F 0 "#PWR031" H 1500 7450 50  0001 C CNN
F 1 "GND" H 1505 7527 50  0000 C CNN
F 2 "" H 1500 7700 50  0001 C CNN
F 3 "" H 1500 7700 50  0001 C CNN
	1    1500 7700
	1    0    0    -1  
$EndComp
Wire Wire Line
	15050 8900 15000 8900
Wire Wire Line
	15000 8900 15000 8750
$Comp
L TPS62742DSSR:TPS62742DSSR U2
U 1 1 5EAB4682
P 5950 1750
F 0 "U2" H 5950 2517 50  0000 C CNN
F 1 "TPS62742DSSR" H 5950 2426 50  0000 C CNN
F 2 "Layout:QFN50P300X200X80-13N" H 5950 1750 50  0001 L BNN
F 3 "Texas Instruments" H 5950 1750 50  0001 L BNN
F 4 "QFN50P300X200X80-13N" H 5950 1750 50  0001 L BNN "Field4"
F 5 "TPS62742DSSR" H 5950 1750 50  0001 C CNN "MPN"
	1    5950 1750
	1    0    0    -1  
$EndComp
Wire Wire Line
	12800 4900 13450 4900
Wire Wire Line
	12800 5000 13450 5000
Text Label 13450 4900 2    50   ~ 0
I2C1_SCL
Text Label 13450 5000 2    50   ~ 0
I2C1_SDA
Wire Wire Line
	2150 9600 1600 9600
Wire Wire Line
	2150 9700 1900 9700
Text Label 1200 9600 0    50   ~ 0
I2C1_SCL
Text Label 1200 9700 0    50   ~ 0
I2C1_SDA
Wire Wire Line
	3700 9200 3550 9200
Wire Wire Line
	3550 9300 3700 9300
Connection ~ 3700 9200
Wire Wire Line
	3700 9200 3700 9300
$Comp
L Device:C C8
U 1 1 5EB192B1
P 8900 1500
F 0 "C8" H 9015 1546 50  0000 L CNN
F 1 "100n" H 9015 1455 50  0000 L CNN
F 2 "Capacitor_SMD:C_0402_1005Metric" H 8938 1350 50  0001 C CNN
F 3 "~" H 8900 1500 50  0001 C CNN
F 4 "C1608X7R1V105K080AC" H 8900 1500 50  0001 C CNN "MPN"
	1    8900 1500
	1    0    0    -1  
$EndComp
$Comp
L Device:C C7
U 1 1 5EB191AA
P 8500 1500
F 0 "C7" H 8615 1546 50  0000 L CNN
F 1 "1u" H 8615 1455 50  0000 L CNN
F 2 "Capacitor_SMD:C_0402_1005Metric" H 8538 1350 50  0001 C CNN
F 3 "~" H 8500 1500 50  0001 C CNN
F 4 "0603DC105MAT2A" H 8500 1500 50  0001 C CNN "MPN"
	1    8500 1500
	1    0    0    -1  
$EndComp
$Comp
L Device:C C6
U 1 1 5EB18944
P 8100 1500
F 0 "C6" H 8215 1546 50  0000 L CNN
F 1 "10u" H 8215 1455 50  0000 L CNN
F 2 "Capacitor_SMD:C_0603_1608Metric" H 8138 1350 50  0001 C CNN
F 3 "~" H 8100 1500 50  0001 C CNN
F 4 "GRM188R60J106ME84J" H 8100 1500 50  0001 C CNN "MPN"
	1    8100 1500
	1    0    0    -1  
$EndComp
Wire Wire Line
	8100 1350 8100 1300
Wire Wire Line
	8500 1350 8500 1300
Wire Wire Line
	8500 1300 8100 1300
Connection ~ 8100 1300
Wire Wire Line
	8900 1350 8900 1300
Wire Wire Line
	8900 1300 8500 1300
Connection ~ 8500 1300
Wire Wire Line
	8900 1650 8900 1700
Wire Wire Line
	8900 1700 8500 1700
Wire Wire Line
	8100 1700 8100 1650
Wire Wire Line
	8500 1650 8500 1700
Connection ~ 8500 1700
Wire Wire Line
	8500 1700 8100 1700
Wire Wire Line
	7450 3100 7850 3100
Wire Wire Line
	8100 1700 8100 1750
Connection ~ 8100 1700
Wire Wire Line
	7350 1300 7600 1300
$Comp
L power:GND #PWR010
U 1 1 5EC13B5F
P 8100 1750
F 0 "#PWR010" H 8100 1500 50  0001 C CNN
F 1 "GND" H 8105 1577 50  0000 C CNN
F 2 "" H 8100 1750 50  0001 C CNN
F 3 "" H 8100 1750 50  0001 C CNN
	1    8100 1750
	1    0    0    -1  
$EndComp
$Comp
L power:+3.3V #PWR032
U 1 1 5EC6F4D7
P 4250 8600
F 0 "#PWR032" H 4250 8450 50  0001 C CNN
F 1 "+3.3V" H 4265 8773 50  0000 C CNN
F 2 "" H 4250 8600 50  0001 C CNN
F 3 "" H 4250 8600 50  0001 C CNN
	1    4250 8600
	1    0    0    -1  
$EndComp
Wire Wire Line
	4250 8600 4250 8650
$Comp
L Device:R R13
U 1 1 5ED55885
P 1600 9200
F 0 "R13" H 1670 9246 50  0000 L CNN
F 1 "10k" H 1670 9155 50  0000 L CNN
F 2 "Resistor_SMD:R_0402_1005Metric" V 1530 9200 50  0001 C CNN
F 3 "~" H 1600 9200 50  0001 C CNN
F 4 "CRCW060310K0JNEAC" H 1600 9200 50  0001 C CNN "MPN"
	1    1600 9200
	1    0    0    -1  
$EndComp
$Comp
L Device:R R14
U 1 1 5ED55F2A
P 1900 9200
F 0 "R14" H 1970 9246 50  0000 L CNN
F 1 "10k" H 1970 9155 50  0000 L CNN
F 2 "Resistor_SMD:R_0402_1005Metric" V 1830 9200 50  0001 C CNN
F 3 "~" H 1900 9200 50  0001 C CNN
F 4 "CRCW060310K0JNEAC" H 1900 9200 50  0001 C CNN "MPN"
	1    1900 9200
	1    0    0    -1  
$EndComp
Connection ~ 1600 9600
Wire Wire Line
	1600 9600 1200 9600
Wire Wire Line
	1900 9350 1900 9700
Connection ~ 1900 9700
Wire Wire Line
	1900 9700 1200 9700
Wire Wire Line
	1900 9050 1900 8650
Wire Wire Line
	1600 8650 1900 8650
Wire Wire Line
	1600 8650 1600 9050
Connection ~ 3700 8650
Wire Wire Line
	3700 8650 3700 9200
Wire Wire Line
	1900 8650 2150 8650
Connection ~ 1900 8650
$Comp
L Device:C C15
U 1 1 5EE3852C
P 6950 9850
F 0 "C15" V 6698 9850 50  0000 C CNN
F 1 "100n" V 6789 9850 50  0000 C CNN
F 2 "Capacitor_SMD:C_0402_1005Metric" H 6988 9700 50  0001 C CNN
F 3 "~" H 6950 9850 50  0001 C CNN
F 4 "C1608X7R1V105K080AC" H 6950 9850 50  0001 C CNN "MPN"
	1    6950 9850
	-1   0    0    1   
$EndComp
$Comp
L power:GND #PWR022
U 1 1 5EE458B7
P 6950 10000
F 0 "#PWR022" H 6950 9750 50  0001 C CNN
F 1 "GND" H 6955 9827 50  0000 C CNN
F 2 "" H 6950 10000 50  0001 C CNN
F 3 "" H 6950 10000 50  0001 C CNN
	1    6950 10000
	1    0    0    -1  
$EndComp
$Comp
L Device:C C5
U 1 1 5EE52931
P 7700 1500
F 0 "C5" H 7585 1546 50  0000 R CNN
F 1 "1u" H 7585 1455 50  0000 R CNN
F 2 "Capacitor_SMD:C_0402_1005Metric" H 7738 1350 50  0001 C CNN
F 3 "~" H 7700 1500 50  0001 C CNN
F 4 "0603DC105MAT2A" H 7700 1500 50  0001 C CNN "MPN"
	1    7700 1500
	-1   0    0    -1  
$EndComp
$Comp
L power:GND #PWR09
U 1 1 5EE9DB80
P 7700 1650
F 0 "#PWR09" H 7700 1400 50  0001 C CNN
F 1 "GND" H 7705 1477 50  0000 C CNN
F 2 "" H 7700 1650 50  0001 C CNN
F 3 "" H 7700 1650 50  0001 C CNN
	1    7700 1650
	1    0    0    -1  
$EndComp
Connection ~ 7700 1300
Wire Wire Line
	7700 1300 8100 1300
Wire Wire Line
	7700 1300 7700 1350
Wire Wire Line
	2150 9500 2150 8650
Connection ~ 2150 8650
$Comp
L power:GND #PWR038
U 1 1 5EFA24FD
P 3650 9500
F 0 "#PWR038" H 3650 9250 50  0001 C CNN
F 1 "GND" H 3655 9327 50  0000 C CNN
F 2 "" H 3650 9500 50  0001 C CNN
F 3 "" H 3650 9500 50  0001 C CNN
	1    3650 9500
	0    -1   1    0   
$EndComp
Wire Wire Line
	3650 9500 3600 9500
Text Notes 1400 9950 0    50   ~ 0
I2C Addr \n0x6A / 0xD4
NoConn ~ 2150 9900
NoConn ~ 2150 10000
$Comp
L Device:C C19
U 1 1 5EFCA48A
P 4250 8800
F 0 "C19" H 4365 8846 50  0000 L CNN
F 1 "100n" H 4365 8755 50  0000 L CNN
F 2 "Capacitor_SMD:C_0402_1005Metric" H 4288 8650 50  0001 C CNN
F 3 "~" H 4250 8800 50  0001 C CNN
F 4 "C1608X7R1V105K080AC" H 4250 8800 50  0001 C CNN "MPN"
	1    4250 8800
	1    0    0    -1  
$EndComp
Connection ~ 4250 8650
Wire Wire Line
	4250 8650 3850 8650
$Comp
L Device:C C18
U 1 1 5EFD8EF6
P 3850 8800
F 0 "C18" H 3965 8846 50  0000 L CNN
F 1 "100n" H 3965 8755 50  0000 L CNN
F 2 "Capacitor_SMD:C_0402_1005Metric" H 3888 8650 50  0001 C CNN
F 3 "~" H 3850 8800 50  0001 C CNN
F 4 "C1608X7R1V105K080AC" H 3850 8800 50  0001 C CNN "MPN"
	1    3850 8800
	1    0    0    -1  
$EndComp
$Comp
L power:GND #PWR037
U 1 1 5EFD90A3
P 4250 8950
F 0 "#PWR037" H 4250 8700 50  0001 C CNN
F 1 "GND" H 4255 8777 50  0000 C CNN
F 2 "" H 4250 8950 50  0001 C CNN
F 3 "" H 4250 8950 50  0001 C CNN
	1    4250 8950
	-1   0    0    -1  
$EndComp
$Comp
L power:GND #PWR036
U 1 1 5EFD9461
P 3850 8950
F 0 "#PWR036" H 3850 8700 50  0001 C CNN
F 1 "GND" H 3855 8777 50  0000 C CNN
F 2 "" H 3850 8950 50  0001 C CNN
F 3 "" H 3850 8950 50  0001 C CNN
	1    3850 8950
	-1   0    0    -1  
$EndComp
Wire Wire Line
	2150 8650 3700 8650
Connection ~ 3850 8650
Wire Wire Line
	3850 8650 3700 8650
Wire Wire Line
	3600 9500 3600 9600
Wire Wire Line
	3600 9600 3550 9600
Connection ~ 3600 9500
Wire Wire Line
	3600 9500 3550 9500
Wire Wire Line
	3600 9600 3600 9700
Wire Wire Line
	3600 9700 3550 9700
Connection ~ 3600 9600
$Comp
L power:GND #PWR042
U 1 1 5F02D51C
P 3600 10350
F 0 "#PWR042" H 3600 10100 50  0001 C CNN
F 1 "GND" H 3605 10177 50  0000 C CNN
F 2 "" H 3600 10350 50  0001 C CNN
F 3 "" H 3600 10350 50  0001 C CNN
	1    3600 10350
	-1   0    0    -1  
$EndComp
Wire Wire Line
	3600 10350 3600 10300
Wire Wire Line
	3600 10300 3550 10300
Wire Wire Line
	3550 10200 3600 10200
Wire Wire Line
	3600 10200 3600 10300
Connection ~ 3600 10300
Wire Wire Line
	2800 1600 3050 1600
Wire Wire Line
	12800 5100 13450 5100
Text Label 13450 5100 2    50   ~ 0
CHRG
Text Label 3050 1600 2    50   ~ 0
CHRG
$Comp
L Device:R R2
U 1 1 5EB7CF69
P 2850 3100
F 0 "R2" H 2920 3146 50  0000 L CNN
F 1 "2k4" H 2920 3055 50  0000 L CNN
F 2 "Resistor_SMD:R_0402_1005Metric" V 2780 3100 50  0001 C CNN
F 3 "~" H 2850 3100 50  0001 C CNN
F 4 "RC0603FR-132K4L" H 2850 3100 50  0001 C CNN "MPN"
	1    2850 3100
	1    0    0    -1  
$EndComp
$Comp
L Device:R R3
U 1 1 5EB7D278
P 2850 3500
F 0 "R3" H 2920 3546 50  0000 L CNN
F 1 "8k2" H 2920 3455 50  0000 L CNN
F 2 "Resistor_SMD:R_0402_1005Metric" V 2780 3500 50  0001 C CNN
F 3 "~" H 2850 3500 50  0001 C CNN
F 4 "RC0603JR-138K2L" H 2850 3500 50  0001 C CNN "MPN"
	1    2850 3500
	1    0    0    -1  
$EndComp
$Comp
L power:GND #PWR024
U 1 1 5EB7D7D6
P 2850 4050
F 0 "#PWR024" H 2850 3800 50  0001 C CNN
F 1 "GND" H 2855 3877 50  0000 C CNN
F 2 "" H 2850 4050 50  0001 C CNN
F 3 "" H 2850 4050 50  0001 C CNN
	1    2850 4050
	1    0    0    -1  
$EndComp
Wire Wire Line
	2850 3350 2850 3300
Wire Wire Line
	2850 3300 3700 3300
Connection ~ 2850 3300
Wire Wire Line
	2850 3300 2850 3250
Wire Wire Line
	2850 2950 2850 2900
$Comp
L power:+BATT #PWR016
U 1 1 5EBC1CB4
P 2850 2900
F 0 "#PWR016" H 2850 2750 50  0001 C CNN
F 1 "+BATT" H 2865 3073 50  0000 C CNN
F 2 "" H 2850 2900 50  0001 C CNN
F 3 "" H 2850 2900 50  0001 C CNN
	1    2850 2900
	1    0    0    -1  
$EndComp
$Comp
L Device:Q_NPN_BEC Q1
U 1 1 5EBC2F70
P 2950 3850
F 0 "Q1" H 3141 3896 50  0000 L CNN
F 1 "MMBT3904" H 3141 3805 50  0000 L CNN
F 2 "Package_TO_SOT_SMD:SOT-23" H 3150 3950 50  0001 C CNN
F 3 "~" H 2950 3850 50  0001 C CNN
F 4 "MMBT3904,215" H 2950 3850 50  0001 C CNN "MPN"
	1    2950 3850
	-1   0    0    -1  
$EndComp
Text Label 3700 3300 2    50   ~ 0
VBAT_MEAS_U
Text Label 4200 3850 2    50   ~ 0
VBAT_MEAS_ON
Text Label 13450 4600 2    50   ~ 0
IMU_INT1
Text Label 13450 4700 2    50   ~ 0
IMU_INT2
Text Label 3950 9900 2    50   ~ 0
IMU_INT1
Text Label 3950 10000 2    50   ~ 0
IMU_INT2
Wire Wire Line
	3550 9900 3950 9900
Wire Wire Line
	3550 10000 3950 10000
$Comp
L power:GND #PWR041
U 1 1 5ED134F1
P 9750 10000
F 0 "#PWR041" H 9750 9750 50  0001 C CNN
F 1 "GND" H 9755 9827 50  0000 C CNN
F 2 "" H 9750 10000 50  0001 C CNN
F 3 "" H 9750 10000 50  0001 C CNN
	1    9750 10000
	-1   0    0    -1  
$EndComp
$Comp
L power:+VSW #PWR033
U 1 1 5ED127E3
P 9700 9450
F 0 "#PWR033" H 9700 9300 50  0001 C CNN
F 1 "+VSW" H 9715 9623 50  0000 C CNN
F 2 "" H 9700 9450 50  0001 C CNN
F 3 "" H 9700 9450 50  0001 C CNN
	1    9700 9450
	-1   0    0    -1  
$EndComp
$Comp
L Device:R R15
U 1 1 5ECD67DC
P 9500 9650
F 0 "R15" V 9450 9800 50  0000 C CNN
F 1 "0" V 9500 9650 50  0000 C CNN
F 2 "Resistor_SMD:R_0402_1005Metric" V 9430 9650 50  0001 C CNN
F 3 "~" H 9500 9650 50  0001 C CNN
F 4 "CRCW06030000Z0EAC" H 9500 9650 50  0001 C CNN "MPN"
	1    9500 9650
	0    1    1    0   
$EndComp
$Comp
L power:PWR_FLAG #FLG0103
U 1 1 5EDC0C1A
P 1850 3300
F 0 "#FLG0103" H 1850 3375 50  0001 C CNN
F 1 "PWR_FLAG" H 1850 3473 50  0000 C CNN
F 2 "" H 1850 3300 50  0001 C CNN
F 3 "~" H 1850 3300 50  0001 C CNN
	1    1850 3300
	1    0    0    -1  
$EndComp
Wire Wire Line
	1850 3300 1850 3450
Connection ~ 1850 3450
Wire Wire Line
	1850 3450 2000 3450
Wire Wire Line
	7600 1150 7600 1300
Connection ~ 7600 1300
Wire Wire Line
	7600 1300 7700 1300
$Comp
L power:PWR_FLAG #FLG0106
U 1 1 5EE4736E
P 7600 1150
F 0 "#FLG0106" H 7600 1225 50  0001 C CNN
F 1 "PWR_FLAG" H 7600 1323 50  0000 C CNN
F 2 "" H 7600 1150 50  0001 C CNN
F 3 "~" H 7600 1150 50  0001 C CNN
	1    7600 1150
	1    0    0    -1  
$EndComp
$Comp
L Device:R R17
U 1 1 5EA86F2E
P 3400 3850
F 0 "R17" V 3350 4000 50  0000 C CNN
F 1 "100" V 3400 3850 50  0000 C CNN
F 2 "Resistor_SMD:R_0402_1005Metric" V 3330 3850 50  0001 C CNN
F 3 "~" H 3400 3850 50  0001 C CNN
F 4 "AC0603FR-13100RL" H 3400 3850 50  0001 C CNN "MPN"
	1    3400 3850
	0    1    1    0   
$EndComp
Wire Wire Line
	3550 3850 4200 3850
Wire Wire Line
	3250 3850 3150 3850
Text Notes 3650 3200 0    50   ~ 0
3,25V
Text Notes 3650 3400 0    50   ~ 0
2,87V
$Comp
L W25X10CL:W25X10CL U4
U 1 1 5EA9BEDD
P 10150 9750
F 0 "U4" H 10150 10215 50  0000 C CNN
F 1 "W25X10CL" H 10150 10124 50  0000 C CNN
F 2 "Layout:USON-8-2x3mm" H 10100 10400 50  0001 C CNN
F 3 "" H 10100 10400 50  0001 C CNN
F 4 "GD25D05CKIGR" H 10150 9750 50  0001 C CNN "MPN"
	1    10150 9750
	1    0    0    -1  
$EndComp
Wire Wire Line
	11000 9550 10500 9550
Wire Wire Line
	10500 9650 11000 9650
Wire Wire Line
	10500 9750 11000 9750
Wire Wire Line
	11000 9850 10500 9850
Wire Wire Line
	9800 9550 9700 9550
Wire Wire Line
	9700 9550 9700 9450
Wire Wire Line
	9800 9850 9750 9850
Wire Wire Line
	9750 9850 9750 10000
Wire Wire Line
	9800 9650 9650 9650
Wire Wire Line
	13450 4700 12800 4700
Wire Wire Line
	13450 4600 12800 4600
$Comp
L Device:Antenna AE1
U 1 1 5EAADF1F
P 9650 4950
F 0 "AE1" H 9600 5200 50  0000 L CNN
F 1 "GPS" H 9700 4900 50  0000 L CNN
F 2 "Layout:M200047-1-PS" H 9650 4950 50  0001 C CNN
F 3 "~" H 9650 4950 50  0001 C CNN
F 4 "" H 9650 4950 50  0001 C CNN "MPN"
	1    9650 4950
	-1   0    0    -1  
$EndComp
Wire Wire Line
	9650 5150 9650 5300
$Comp
L Device:C C21
U 1 1 5EAD6FDF
P 9650 5450
F 0 "C21" H 9765 5496 50  0000 L CNN
F 1 "?" H 9765 5405 50  0000 L CNN
F 2 "Capacitor_SMD:C_0402_1005Metric" H 9688 5300 50  0001 C CNN
F 3 "~" H 9650 5450 50  0001 C CNN
F 4 "0603N0R3C500CT" H 9650 5450 50  0001 C CNN "MPN"
	1    9650 5450
	-1   0    0    -1  
$EndComp
Connection ~ 9650 5300
$Comp
L Device:C C20
U 1 1 5EAD7C9E
P 10950 5450
F 0 "C20" H 11065 5496 50  0000 L CNN
F 1 "?" H 11065 5405 50  0000 L CNN
F 2 "Capacitor_SMD:C_0402_1005Metric" H 10988 5300 50  0001 C CNN
F 3 "~" H 10950 5450 50  0001 C CNN
F 4 "CC0603CRNPO9BN3R9" H 10950 5450 50  0001 C CNN "MPN"
	1    10950 5450
	-1   0    0    -1  
$EndComp
Connection ~ 10950 5300
Wire Wire Line
	10950 5300 11200 5300
Wire Wire Line
	10750 5300 10950 5300
$Comp
L power:GND #PWR039
U 1 1 5EB025BE
P 9650 5600
F 0 "#PWR039" H 9650 5350 50  0001 C CNN
F 1 "GND" H 9655 5427 50  0000 C CNN
F 2 "" H 9650 5600 50  0001 C CNN
F 3 "" H 9650 5600 50  0001 C CNN
	1    9650 5600
	-1   0    0    -1  
$EndComp
Wire Wire Line
	3650 1300 4600 1300
Connection ~ 5200 1300
Wire Wire Line
	5250 1900 5200 1900
Wire Wire Line
	5200 1900 5200 1800
Wire Wire Line
	5200 1600 5250 1600
Wire Wire Line
	5250 1700 5200 1700
Connection ~ 5200 1700
Wire Wire Line
	5200 1700 5200 1600
Wire Wire Line
	5250 1800 5200 1800
Connection ~ 5200 1800
Wire Wire Line
	5200 1800 5200 1700
Wire Wire Line
	5200 1600 5200 1400
Connection ~ 5200 1600
Connection ~ 5200 1400
Text Label 10850 3400 0    50   ~ 0
RESET
Text Notes 3000 1250 0    50   ~ 0
4,2 .. 3,7V
$Comp
L CMT-4023S-SMT-TR:CMT-4023S-SMT-TR LS1
U 1 1 5F234199
P 6700 7350
F 0 "LS1" H 6804 7396 50  0000 L CNN
F 1 "CMT-4023S-SMT-TR" H 6804 7305 50  0000 L CNN
F 2 "CUI_CMT-4023S-SMT-TR" H 6700 7350 50  0001 L BNN
F 3 "Manufacturer recommendations" H 6700 7350 50  0001 L BNN
F 4 "CUI INC" H 6700 7350 50  0001 L BNN "Field4"
F 5 "1.0" H 6700 7350 50  0001 L BNN "Field5"
F 6 "CMT-4023S-SMT-TR" H 6700 7350 50  0001 C CNN "MPN"
	1    6700 7350
	1    0    0    -1  
$EndComp
$Comp
L Device:Q_NPN_BEC Q2
U 1 1 5F235194
P 6800 7900
F 0 "Q2" H 6991 7946 50  0000 L CNN
F 1 "MMBT3904" H 6991 7855 50  0000 L CNN
F 2 "Package_TO_SOT_SMD:SOT-23" H 7000 8000 50  0001 C CNN
F 3 "~" H 6800 7900 50  0001 C CNN
F 4 "MMBT3904,215" H 6800 7900 50  0001 C CNN "MPN"
	1    6800 7900
	-1   0    0    -1  
$EndComp
$Comp
L Device:R R10
U 1 1 5F235808
P 7250 7900
F 0 "R10" V 7200 8050 50  0000 C CNN
F 1 "100" V 7250 7900 50  0000 C CNN
F 2 "Resistor_SMD:R_0402_1005Metric" V 7180 7900 50  0001 C CNN
F 3 "~" H 7250 7900 50  0001 C CNN
F 4 "AC0603FR-13100RL" H 7250 7900 50  0001 C CNN "MPN"
	1    7250 7900
	0    1    1    0   
$EndComp
Wire Wire Line
	7100 7900 7000 7900
$Comp
L power:GND #PWR0101
U 1 1 5F24933B
P 6700 8100
F 0 "#PWR0101" H 6700 7850 50  0001 C CNN
F 1 "GND" H 6705 7927 50  0000 C CNN
F 2 "" H 6700 8100 50  0001 C CNN
F 3 "" H 6700 8100 50  0001 C CNN
	1    6700 8100
	1    0    0    -1  
$EndComp
Text Label 7800 7900 2    50   ~ 0
SIGNAL
Wire Wire Line
	7800 7900 7400 7900
Wire Wire Line
	6700 7550 6700 7700
Wire Wire Line
	6700 7150 6700 7050
$Comp
L Device:D_Schottky_Small D2
U 1 1 5F297EF4
P 6250 7350
F 0 "D2" V 6204 7420 50  0000 L CNN
F 1 "D_Small" V 6295 7420 50  0000 L CNN
F 2 "Diode_SMD:D_0603_1608Metric_Pad1.05x0.95mm_HandSolder" V 6250 7350 50  0001 C CNN
F 3 "~" V 6250 7350 50  0001 C CNN
F 4 "CDBURT0530LL-HF " H 6250 7350 50  0001 C CNN "MPN"
	1    6250 7350
	0    1    1    0   
$EndComp
Wire Wire Line
	6250 7250 6250 7150
Wire Wire Line
	6250 7150 6700 7150
Connection ~ 6700 7150
Wire Wire Line
	6250 7450 6250 7550
Wire Wire Line
	6250 7550 6700 7550
Connection ~ 6700 7550
$Comp
L power:+3.3V #PWR0102
U 1 1 5F2C1360
P 6700 7050
F 0 "#PWR0102" H 6700 6900 50  0001 C CNN
F 1 "+3.3V" H 6715 7223 50  0000 C CNN
F 2 "" H 6700 7050 50  0001 C CNN
F 3 "" H 6700 7050 50  0001 C CNN
	1    6700 7050
	1    0    0    -1  
$EndComp
$Comp
L Connector_Generic:Conn_01x03 J1
U 1 1 5F3183BF
P 950 1300
F 0 "J1" H 868 975 50  0000 C CNN
F 1 "CHRG" H 868 1066 50  0000 C CNN
F 2 "Layout:Magnetic_Charger_Clip" H 950 1300 50  0001 C CNN
F 3 "~" H 950 1300 50  0001 C CNN
	1    950  1300
	-1   0    0    1   
$EndComp
Wire Wire Line
	1150 1200 1200 1200
Wire Wire Line
	1200 1200 1200 1400
Connection ~ 1200 1400
$Comp
L Device:R R4
U 1 1 5F32E29C
P 1750 2150
F 0 "R4" H 1820 2196 50  0000 L CNN
F 1 "10k" H 1820 2105 50  0000 L CNN
F 2 "Resistor_SMD:R_0402_1005Metric" V 1680 2150 50  0001 C CNN
F 3 "~" H 1750 2150 50  0001 C CNN
F 4 "CRCW060310K0JNEAC" H 1750 2150 50  0001 C CNN "MPN"
	1    1750 2150
	1    0    0    -1  
$EndComp
$Comp
L Device:R R9
U 1 1 5F32EEB3
P 3150 2150
F 0 "R9" H 3220 2196 50  0000 L CNN
F 1 "10k" H 3220 2105 50  0000 L CNN
F 2 "Resistor_SMD:R_0402_1005Metric" V 3080 2150 50  0001 C CNN
F 3 "~" H 3150 2150 50  0001 C CNN
F 4 "CRCW060310K0JNEAC" H 3150 2150 50  0001 C CNN "MPN"
	1    3150 2150
	1    0    0    -1  
$EndComp
Wire Wire Line
	3150 2300 3150 2350
Wire Wire Line
	3150 2350 2850 2350
Connection ~ 2850 2350
Wire Wire Line
	3150 2000 3150 1850
Wire Wire Line
	2850 1850 3150 1850
Connection ~ 2850 1850
Wire Wire Line
	1750 1850 1750 2000
$Comp
L Connector:USB_B_Micro J5
U 1 1 5F3DABF5
P 1500 7250
F 0 "J5" H 1557 7717 50  0000 C CNN
F 1 "USB_B_Micro" H 1557 7626 50  0000 C CNN
F 2 "Connector_USB:USB_Micro-B_Amphenol_10104110_Horizontal" H 1650 7200 50  0001 C CNN
F 3 "~" H 1650 7200 50  0001 C CNN
F 4 "10104110-0001LF" H 1500 7250 50  0001 C CNN "MPN"
	1    1500 7250
	1    0    0    -1  
$EndComp
$Comp
L power:+5V #PWR0103
U 1 1 5F3DD398
P 1850 7000
F 0 "#PWR0103" H 1850 6850 50  0001 C CNN
F 1 "+5V" H 1865 7173 50  0000 C CNN
F 2 "" H 1850 7000 50  0001 C CNN
F 3 "" H 1850 7000 50  0001 C CNN
	1    1850 7000
	-1   0    0    -1  
$EndComp
Wire Wire Line
	1850 7000 1850 7050
Wire Wire Line
	1850 7050 1800 7050
Text Label 13700 4300 2    50   ~ 0
SWDIO
Text Label 13700 4400 2    50   ~ 0
SWDCLK
$Comp
L power:GND #PWR0104
U 1 1 5F478CA3
P 15000 9200
F 0 "#PWR0104" H 15000 8950 50  0001 C CNN
F 1 "GND" H 15005 9027 50  0000 C CNN
F 2 "" H 15000 9200 50  0001 C CNN
F 3 "" H 15000 9200 50  0001 C CNN
	1    15000 9200
	-1   0    0    -1  
$EndComp
Wire Wire Line
	15000 9200 15050 9200
Wire Wire Line
	13200 4300 13700 4300
Wire Wire Line
	13200 4400 13700 4400
Text Label 2150 7250 2    50   ~ 0
USB+
Text Label 2150 7350 2    50   ~ 0
USB-
Wire Wire Line
	12800 4200 13700 4200
Wire Wire Line
	12800 4100 13700 4100
Text Label 13700 4200 2    50   ~ 0
USB+
$Comp
L Device:R R12
U 1 1 5F5BC3E9
P 13050 4300
F 0 "R12" V 13000 4450 50  0000 C CNN
F 1 "100" V 13050 4300 50  0000 C CNN
F 2 "Resistor_SMD:R_0402_1005Metric" V 12980 4300 50  0001 C CNN
F 3 "~" H 13050 4300 50  0001 C CNN
F 4 "AC0603FR-13100RL" H 13050 4300 50  0001 C CNN "MPN"
	1    13050 4300
	0    1    1    0   
$EndComp
$Comp
L Device:R R16
U 1 1 5F5BC3F3
P 13050 4400
F 0 "R16" V 13000 4550 50  0000 C CNN
F 1 "100" V 13050 4400 50  0000 C CNN
F 2 "Resistor_SMD:R_0402_1005Metric" V 12980 4400 50  0001 C CNN
F 3 "~" H 13050 4400 50  0001 C CNN
F 4 "AC0603FR-13100RL" H 13050 4400 50  0001 C CNN "MPN"
	1    13050 4400
	0    1    1    0   
$EndComp
Wire Wire Line
	12900 4300 12800 4300
Wire Wire Line
	13850 2900 13850 2950
$Comp
L power:+3.3V #PWR023
U 1 1 5EDFAA38
P 13850 2900
F 0 "#PWR023" H 13850 2750 50  0001 C CNN
F 1 "+3.3V" H 13865 3073 50  0000 C CNN
F 2 "" H 13850 2900 50  0001 C CNN
F 3 "" H 13850 2900 50  0001 C CNN
	1    13850 2900
	-1   0    0    -1  
$EndComp
Wire Wire Line
	13850 3250 13850 3350
$Comp
L Device:R R6
U 1 1 5EDEE4FA
P 13850 3100
F 0 "R6" H 13920 3146 50  0000 L CNN
F 1 "1k" H 13920 3055 50  0000 L CNN
F 2 "Resistor_SMD:R_0402_1005Metric" V 13780 3100 50  0001 C CNN
F 3 "~" H 13850 3100 50  0001 C CNN
F 4 " CRCW06031K00JNEAC" H 13850 3100 50  0001 C CNN "MPN"
	1    13850 3100
	1    0    0    -1  
$EndComp
$Comp
L Device:LED D1
U 1 1 5EDEDC13
P 13850 3500
F 0 "D1" V 13889 3382 50  0000 R CNN
F 1 "STATUS" V 13798 3382 50  0000 R CNN
F 2 "LED_SMD:LED_0603_1608Metric_Castellated" H 13850 3500 50  0001 C CNN
F 3 "~" H 13850 3500 50  0001 C CNN
F 4 "150060VS75000" H 13850 3500 50  0001 C CNN "MPN"
	1    13850 3500
	0    -1   -1   0   
$EndComp
Wire Wire Line
	6550 10000 6550 9950
$Comp
L power:GND #PWR026
U 1 1 5EAD4139
P 6550 10000
F 0 "#PWR026" H 6550 9750 50  0001 C CNN
F 1 "GND" H 6555 9827 50  0000 C CNN
F 2 "" H 6550 10000 50  0001 C CNN
F 3 "" H 6550 10000 50  0001 C CNN
	1    6550 10000
	-1   0    0    -1  
$EndComp
Wire Wire Line
	6550 9650 6550 9600
$Comp
L Device:R R5
U 1 1 5EACF8FA
P 6550 9800
F 0 "R5" H 6620 9846 50  0000 L CNN
F 1 "1k" H 6620 9755 50  0000 L CNN
F 2 "Resistor_SMD:R_0402_1005Metric" V 6480 9800 50  0001 C CNN
F 3 "~" H 6550 9800 50  0001 C CNN
F 4 " CRCW06031K00JNEAC" H 6550 9800 50  0001 C CNN "MPN"
	1    6550 9800
	-1   0    0    -1  
$EndComp
Wire Wire Line
	13850 3800 13850 3650
Wire Wire Line
	1150 1300 1550 1300
$Comp
L battery_nobom:Battery_Cell BT1
U 1 1 5F23ABE9
P 1000 3700
F 0 "BT1" H 1118 3825 50  0000 L CNN
F 1 "302323" H 1118 3734 50  0000 L CNN
F 2 "Layout:LiPo_302323" V 1000 3760 50  0001 C CNN
F 3 "~" V 1000 3760 50  0001 C CNN
	1    1000 3700
	1    0    0    -1  
$EndComp
Wire Notes Line
	4350 4400 550  4400
Wire Notes Line
	550  4400 550  550 
Wire Notes Line
	550  550  4350 550 
Wire Notes Line
	4350 550  4350 4400
Wire Wire Line
	1600 9350 1600 9600
Wire Wire Line
	1500 7650 1500 7700
Wire Wire Line
	1500 7700 1400 7700
Wire Wire Line
	1400 7700 1400 7650
Connection ~ 1500 7700
$Comp
L Connector:Conn_01x01_Male J9
U 1 1 5F3002C2
P 15250 9200
F 0 "J9" H 15358 9381 50  0000 C CNN
F 1 "GND" H 15358 9290 50  0000 C CNN
F 2 "TestPoint:TestPoint_THTPad_1.0x1.0mm_Drill0.5mm" H 15250 9200 50  0001 C CNN
F 3 "~" H 15250 9200 50  0001 C CNN
	1    15250 9200
	-1   0    0    -1  
$EndComp
Wire Wire Line
	9800 9750 9650 9750
$Comp
L Switch:SW_Push SW1
U 1 1 5FC43BE4
P 6550 9250
F 0 "SW1" V 6504 9398 50  0000 L CNN
F 1 "SW_Push" V 6595 9398 50  0000 L CNN
F 2 "Button_Switch_SMD:SW_Push_1P1T-MP_NO_Horizontal_Alps_SKRTLAE010" H 6550 9450 50  0001 C CNN
F 3 "~" H 6550 9450 50  0001 C CNN
	1    6550 9250
	0    -1   1    0   
$EndComp
$Comp
L power:+3.3V #PWR048
U 1 1 5FC44D04
P 6550 8950
F 0 "#PWR048" H 6550 8800 50  0001 C CNN
F 1 "+3.3V" H 6565 9123 50  0000 C CNN
F 2 "" H 6550 8950 50  0001 C CNN
F 3 "" H 6550 8950 50  0001 C CNN
	1    6550 8950
	1    0    0    -1  
$EndComp
Wire Wire Line
	6550 8950 6550 9050
Wire Wire Line
	6550 9450 6550 9600
Connection ~ 6550 9600
$Comp
L Switch:SW_Push SW2
U 1 1 5FC64E95
P 7350 9600
F 0 "SW2" H 7350 9885 50  0000 C CNN
F 1 "SW_Push" H 7350 9794 50  0000 C CNN
F 2 "Button_Switch_SMD:SW_Push_1P1T-MP_NO_Horizontal_Alps_SKRTLAE010" H 7350 9800 50  0001 C CNN
F 3 "~" H 7350 9800 50  0001 C CNN
	1    7350 9600
	1    0    0    -1  
$EndComp
Wire Wire Line
	10400 6550 10450 6550
$Comp
L Device:Antenna AE2
U 1 1 5FD540A8
P 10400 6200
F 0 "AE2" H 10350 6450 50  0000 L CNN
F 1 "LORA" H 10450 6200 50  0000 L CNN
F 2 "Layout:SR4C033_R" H 10400 6200 50  0001 C CNN
F 3 "~" H 10400 6200 50  0001 C CNN
F 4 "" H 10400 6200 50  0001 C CNN "MPN"
	1    10400 6200
	-1   0    0    -1  
$EndComp
Wire Wire Line
	10400 6400 10400 6550
$Comp
L Device:C C24
U 1 1 5FD540B4
P 10400 6700
F 0 "C24" H 10515 6746 50  0000 L CNN
F 1 "?" H 10515 6655 50  0000 L CNN
F 2 "Capacitor_SMD:C_0402_1005Metric" H 10438 6550 50  0001 C CNN
F 3 "~" H 10400 6700 50  0001 C CNN
F 4 "0603N0R3C500CT" H 10400 6700 50  0001 C CNN "MPN"
	1    10400 6700
	-1   0    0    -1  
$EndComp
$Comp
L Device:C C25
U 1 1 5FD540C0
P 10950 6700
F 0 "C25" H 11065 6746 50  0000 L CNN
F 1 "?" H 11065 6655 50  0000 L CNN
F 2 "Capacitor_SMD:C_0402_1005Metric" H 10988 6550 50  0001 C CNN
F 3 "~" H 10950 6700 50  0001 C CNN
F 4 "CC0603CRNPO9BN3R9" H 10950 6700 50  0001 C CNN "MPN"
	1    10950 6700
	-1   0    0    -1  
$EndComp
Connection ~ 10950 6550
Wire Wire Line
	10950 6550 10950 6000
Wire Wire Line
	10750 6550 10950 6550
$Comp
L power:GND #PWR046
U 1 1 5FD540D8
P 10950 6850
F 0 "#PWR046" H 10950 6600 50  0001 C CNN
F 1 "GND" H 10955 6677 50  0000 C CNN
F 2 "" H 10950 6850 50  0001 C CNN
F 3 "" H 10950 6850 50  0001 C CNN
	1    10950 6850
	-1   0    0    -1  
$EndComp
$Comp
L power:GND #PWR045
U 1 1 5FD540E2
P 10400 6850
F 0 "#PWR045" H 10400 6600 50  0001 C CNN
F 1 "GND" H 10405 6677 50  0000 C CNN
F 2 "" H 10400 6850 50  0001 C CNN
F 3 "" H 10400 6850 50  0001 C CNN
	1    10400 6850
	-1   0    0    -1  
$EndComp
NoConn ~ 1800 7450
Wire Wire Line
	12900 5600 12900 5700
$Comp
L power:GND #PWR047
U 1 1 5FEEE879
P 12900 7300
F 0 "#PWR047" H 12900 7050 50  0001 C CNN
F 1 "GND" H 12905 7127 50  0000 C CNN
F 2 "" H 12900 7300 50  0001 C CNN
F 3 "" H 12900 7300 50  0001 C CNN
	1    12900 7300
	-1   0    0    -1  
$EndComp
Wire Wire Line
	12900 5600 12800 5600
Wire Wire Line
	12900 5700 12800 5700
Connection ~ 12900 5700
Wire Wire Line
	12900 5700 12900 5800
Wire Wire Line
	12900 5800 12800 5800
Connection ~ 12900 5800
Wire Wire Line
	12900 5800 12900 5900
Wire Wire Line
	12900 5900 12800 5900
Connection ~ 12900 5900
Wire Wire Line
	12900 5900 12900 6000
Wire Wire Line
	12900 6000 12800 6000
Connection ~ 12900 6000
Wire Wire Line
	12900 6000 12900 6100
Wire Wire Line
	12900 6100 12800 6100
Connection ~ 12900 6100
Wire Wire Line
	12900 6100 12900 6200
Wire Wire Line
	12900 6200 12800 6200
Connection ~ 12900 6200
Wire Wire Line
	12900 6200 12900 6300
Wire Wire Line
	12900 6300 12800 6300
Connection ~ 12900 6300
Wire Wire Line
	12900 6300 12900 6400
Wire Wire Line
	12900 6400 12800 6400
Connection ~ 12900 6400
Wire Wire Line
	12900 6400 12900 6500
Wire Wire Line
	12900 6500 12800 6500
Connection ~ 12900 6500
Wire Wire Line
	12900 6500 12900 6600
Wire Wire Line
	12900 6600 12800 6600
Connection ~ 12900 6600
Wire Wire Line
	12900 6600 12900 6700
Wire Wire Line
	12900 6700 12800 6700
Connection ~ 12900 6700
Wire Wire Line
	12900 6700 12900 6800
Wire Wire Line
	12900 6800 12800 6800
Connection ~ 12900 6800
Wire Wire Line
	12900 6800 12900 6900
Wire Wire Line
	12900 6900 12800 6900
Connection ~ 12900 6900
Wire Wire Line
	12900 6900 12900 7000
Wire Wire Line
	12900 7000 12800 7000
Connection ~ 12900 7000
Wire Wire Line
	12900 7000 12900 7100
Wire Wire Line
	12900 7100 12800 7100
Connection ~ 12900 7100
Wire Wire Line
	12900 7100 12900 7200
Wire Wire Line
	12900 7200 12800 7200
Connection ~ 12900 7200
Wire Wire Line
	12900 7200 12900 7300
NoConn ~ 11200 6700
NoConn ~ 11200 6800
NoConn ~ 11200 6900
NoConn ~ 11200 7000
NoConn ~ 11200 7100
NoConn ~ 11200 7200
$Comp
L power:+3.3V #PWR025
U 1 1 6012809C
P 11100 3000
F 0 "#PWR025" H 11100 2850 50  0001 C CNN
F 1 "+3.3V" H 11115 3173 50  0000 C CNN
F 2 "" H 11100 3000 50  0001 C CNN
F 3 "" H 11100 3000 50  0001 C CNN
	1    11100 3000
	1    0    0    -1  
$EndComp
Wire Wire Line
	11200 3000 11100 3000
Wire Wire Line
	11200 3100 10800 3100
Wire Wire Line
	10800 3100 10800 3000
Wire Wire Line
	12800 4400 12900 4400
Text Label 6850 9600 2    50   ~ 0
BOOT0
Wire Wire Line
	6550 9600 6850 9600
Text Label 10850 3300 0    50   ~ 0
BOOT0
Wire Wire Line
	10850 3300 11200 3300
Wire Wire Line
	6950 9600 6950 9700
Wire Wire Line
	7550 9600 7550 10000
Text Label 6950 9600 0    50   ~ 0
RESET
Wire Wire Line
	6950 10000 7550 10000
Wire Wire Line
	6950 9600 7150 9600
Connection ~ 6950 10000
Wire Wire Line
	10850 3400 11200 3400
Wire Wire Line
	11200 4000 10850 4000
Text Label 10850 4000 0    50   ~ 0
GPS_ON
Wire Wire Line
	12800 5300 13450 5300
Text Label 13450 5300 2    50   ~ 0
GPS_ON
$Comp
L Connector:Conn_01x01_Male TP3
U 1 1 6047C36E
P 10950 4500
F 0 "TP3" H 10850 4500 50  0000 C CNN
F 1 "TP" H 11058 4590 50  0001 C CNN
F 2 "Layout:PRG_PIN" H 10950 4500 50  0001 C CNN
F 3 "~" H 10950 4500 50  0001 C CNN
	1    10950 4500
	1    0    0    -1  
$EndComp
Wire Wire Line
	11150 4500 11200 4500
Text Label 13400 3000 2    50   ~ 0
SIGNAL
Wire Wire Line
	13400 3000 12800 3000
Wire Wire Line
	12800 3200 13400 3200
Text Label 13400 3200 2    50   ~ 0
VBAT_MEAS_U
Text Label 13400 3300 2    50   ~ 0
VBAT_MEAS_ON
Wire Wire Line
	12800 3300 13400 3300
Wire Wire Line
	12800 4800 13450 4800
Wire Wire Line
	12800 3800 13850 3800
Text Label 11000 9550 2    50   ~ 0
EEPROM_DI
Text Label 11000 9650 2    50   ~ 0
EEPROM_DO
Text Label 11000 9750 2    50   ~ 0
EEPROM_CLK
Text Label 11000 9850 2    50   ~ 0
EEPROM_CS
Wire Wire Line
	13400 3700 12800 3700
Wire Wire Line
	12800 3600 13400 3600
Wire Wire Line
	12800 3500 13400 3500
Wire Wire Line
	13400 3400 12800 3400
Text Label 13400 3700 2    50   ~ 0
EEPROM_DI
Text Label 13400 3600 2    50   ~ 0
EEPROM_DO
Text Label 13400 3500 2    50   ~ 0
EEPROM_CLK
Text Label 13400 3400 2    50   ~ 0
EEPROM_CS
$Comp
L Connector:Conn_01x01_Male TP1
U 1 1 607EC08C
P 13050 3100
F 0 "TP1" H 12950 3100 50  0000 C CNN
F 1 "TP" H 13158 3190 50  0001 C CNN
F 2 "Layout:PRG_PIN" H 13050 3100 50  0001 C CNN
F 3 "~" H 13050 3100 50  0001 C CNN
	1    13050 3100
	-1   0    0    -1  
$EndComp
$Comp
L Connector:Conn_01x01_Male TP2
U 1 1 607ECA01
P 10950 3800
F 0 "TP2" H 10850 3800 50  0000 C CNN
F 1 "TP" H 11058 3890 50  0001 C CNN
F 2 "Layout:PRG_PIN" H 10950 3800 50  0001 C CNN
F 3 "~" H 10950 3800 50  0001 C CNN
	1    10950 3800
	1    0    0    -1  
$EndComp
$Comp
L power:+1V8 #PWR027
U 1 1 6081076C
P 7450 3050
F 0 "#PWR027" H 7450 2900 50  0001 C CNN
F 1 "+1V8" H 7465 3223 50  0000 C CNN
F 2 "" H 7450 3050 50  0001 C CNN
F 3 "" H 7450 3050 50  0001 C CNN
	1    7450 3050
	1    0    0    -1  
$EndComp
Wire Wire Line
	7450 3050 7450 3100
Connection ~ 7450 3100
$Comp
L power:+1V8 #PWR019
U 1 1 608223FE
P 10800 3000
F 0 "#PWR019" H 10800 2850 50  0001 C CNN
F 1 "+1V8" H 10815 3173 50  0000 C CNN
F 2 "" H 10800 3000 50  0001 C CNN
F 3 "" H 10800 3000 50  0001 C CNN
	1    10800 3000
	1    0    0    -1  
$EndComp
$Comp
L Device:R R7
U 1 1 6085B2B9
P 6950 9300
F 0 "R7" H 7020 9346 50  0000 L CNN
F 1 "10k" H 7020 9255 50  0000 L CNN
F 2 "Resistor_SMD:R_0402_1005Metric" V 6880 9300 50  0001 C CNN
F 3 "~" H 6950 9300 50  0001 C CNN
F 4 "RC0603FR-132K4L" H 6950 9300 50  0001 C CNN "MPN"
	1    6950 9300
	1    0    0    -1  
$EndComp
Wire Wire Line
	6950 9450 6950 9600
Connection ~ 6950 9600
$Comp
L power:+3.3V #PWR049
U 1 1 6086CC5A
P 6950 8950
F 0 "#PWR049" H 6950 8800 50  0001 C CNN
F 1 "+3.3V" H 6965 9123 50  0000 C CNN
F 2 "" H 6950 8950 50  0001 C CNN
F 3 "" H 6950 8950 50  0001 C CNN
	1    6950 8950
	1    0    0    -1  
$EndComp
Wire Wire Line
	6950 8950 6950 9150
$Comp
L Device:Crystal_Small Y1
U 1 1 6087F585
P 10100 3550
F 0 "Y1" V 10146 3462 50  0000 R CNN
F 1 "ECS-.327-7-1210-TR" V 10055 3462 50  0000 R CNN
F 2 "Layout:ECS-.327-7-1210-TR" H 10100 3550 50  0001 C CNN
F 3 "~" H 10100 3550 50  0001 C CNN
	1    10100 3550
	0    -1   -1   0   
$EndComp
Wire Wire Line
	11200 3500 10750 3500
Wire Wire Line
	10750 3500 10750 3400
Wire Wire Line
	10750 3400 10100 3400
Wire Wire Line
	10100 3400 10100 3450
Wire Wire Line
	11200 3600 11150 3600
Wire Wire Line
	11150 3600 11150 3700
Wire Wire Line
	11150 3700 10100 3700
Wire Wire Line
	10100 3700 10100 3650
$Comp
L Device:C C14
U 1 1 608A4C09
P 9900 3350
F 0 "C14" H 10015 3396 50  0000 L CNN
F 1 "12p" H 10015 3305 50  0000 L CNN
F 2 "Capacitor_SMD:C_0402_1005Metric" H 9938 3200 50  0001 C CNN
F 3 "~" H 9900 3350 50  0001 C CNN
F 4 "C1608X7R1V105K080AC" H 9900 3350 50  0001 C CNN "MPN"
	1    9900 3350
	0    1    1    0   
$EndComp
$Comp
L Device:C C16
U 1 1 608A5956
P 9900 3750
F 0 "C16" H 10015 3796 50  0000 L CNN
F 1 "12p" H 10015 3705 50  0000 L CNN
F 2 "Capacitor_SMD:C_0402_1005Metric" H 9938 3600 50  0001 C CNN
F 3 "~" H 9900 3750 50  0001 C CNN
F 4 "C1608X7R1V105K080AC" H 9900 3750 50  0001 C CNN "MPN"
	1    9900 3750
	0    1    1    0   
$EndComp
Wire Wire Line
	10050 3350 10100 3350
Wire Wire Line
	10100 3350 10100 3400
Connection ~ 10100 3400
Wire Wire Line
	10050 3750 10100 3750
Wire Wire Line
	10100 3750 10100 3700
Connection ~ 10100 3700
Wire Wire Line
	9750 3350 9700 3350
Wire Wire Line
	9700 3350 9700 3750
Wire Wire Line
	9750 3750 9700 3750
Connection ~ 9700 3750
Wire Wire Line
	9700 3750 9700 3800
$Comp
L power:GND #PWR030
U 1 1 608F3948
P 9700 3800
F 0 "#PWR030" H 9700 3550 50  0001 C CNN
F 1 "GND" H 9705 3627 50  0000 C CNN
F 2 "" H 9700 3800 50  0001 C CNN
F 3 "" H 9700 3800 50  0001 C CNN
	1    9700 3800
	1    0    0    -1  
$EndComp
Text Label 13700 4100 2    50   ~ 0
USB-
$Comp
L Device:C C22
U 1 1 608F536C
P 10600 5300
F 0 "C22" H 10715 5346 50  0000 L CNN
F 1 "33p" H 10715 5255 50  0000 L CNN
F 2 "Capacitor_SMD:C_0402_1005Metric" H 10638 5150 50  0001 C CNN
F 3 "~" H 10600 5300 50  0001 C CNN
F 4 "CC0603CRNPO9BN3R9" H 10600 5300 50  0001 C CNN "MPN"
	1    10600 5300
	0    -1   1    0   
$EndComp
$Comp
L Device:C C23
U 1 1 608F5919
P 10600 6550
F 0 "C23" H 10715 6596 50  0000 L CNN
F 1 "47p" H 10715 6505 50  0000 L CNN
F 2 "Capacitor_SMD:C_0402_1005Metric" H 10638 6400 50  0001 C CNN
F 3 "~" H 10600 6550 50  0001 C CNN
F 4 "CC0603CRNPO9BN3R9" H 10600 6550 50  0001 C CNN "MPN"
	1    10600 6550
	0    -1   1    0   
$EndComp
Connection ~ 10400 6550
Wire Wire Line
	10950 6000 11200 6000
Wire Wire Line
	5250 3100 4600 3100
Wire Wire Line
	4600 3100 4600 1300
Connection ~ 4600 1300
Wire Wire Line
	4600 1300 5200 1300
$Comp
L power:GND #PWR035
U 1 1 60C4D0E8
P 6700 4150
F 0 "#PWR035" H 6700 3900 50  0001 C CNN
F 1 "GND" H 6705 3977 50  0000 C CNN
F 2 "" H 6700 4150 50  0001 C CNN
F 3 "" H 6700 4150 50  0001 C CNN
	1    6700 4150
	1    0    0    -1  
$EndComp
Wire Wire Line
	6700 4150 6700 4100
Wire Wire Line
	6700 4100 6650 4100
$Comp
L power:GND #PWR034
U 1 1 60C60E6D
P 5200 3950
F 0 "#PWR034" H 5200 3700 50  0001 C CNN
F 1 "GND" H 5205 3777 50  0000 C CNN
F 2 "" H 5200 3950 50  0001 C CNN
F 3 "" H 5200 3950 50  0001 C CNN
	1    5200 3950
	1    0    0    -1  
$EndComp
Wire Wire Line
	5250 3900 5200 3900
Wire Wire Line
	5200 3900 5200 3950
Text Notes 4750 4250 0    50   ~ 0
1,8V set to GND
Wire Wire Line
	5250 3500 5200 3500
Wire Wire Line
	5250 3300 4950 3300
Wire Wire Line
	5250 3700 5200 3700
Wire Wire Line
	5200 3700 5200 3900
Connection ~ 5200 3900
$Comp
L Device:L L2
U 1 1 60CC8C54
P 6900 3100
F 0 "L2" V 7090 3100 50  0000 C CNN
F 1 "2.2u 740mA" V 6999 3100 50  0000 C CNN
F 2 "Inductor_SMD:L_0805_2012Metric" H 6900 3100 50  0001 C CNN
F 3 "~" H 6900 3100 50  0001 C CNN
F 4 "AISC-0805F-2R2G-T" H 6900 3100 50  0001 C CNN "MPN"
	1    6900 3100
	0    -1   -1   0   
$EndComp
Wire Wire Line
	6750 3100 6650 3100
Wire Wire Line
	6650 3200 7200 3200
Wire Wire Line
	7200 3200 7200 3100
Wire Wire Line
	7200 3100 7050 3100
Wire Wire Line
	5200 3700 5200 3500
Connection ~ 5200 3700
Wire Wire Line
	7450 3100 7200 3100
Connection ~ 7200 3100
Wire Wire Line
	6650 1900 7050 1900
$Comp
L power:PWR_FLAG #FLG01
U 1 1 60D9360E
P 7850 3050
F 0 "#FLG01" H 7850 3125 50  0001 C CNN
F 1 "PWR_FLAG" H 7850 3223 50  0000 C CNN
F 2 "" H 7850 3050 50  0001 C CNN
F 3 "~" H 7850 3050 50  0001 C CNN
	1    7850 3050
	1    0    0    -1  
$EndComp
Wire Wire Line
	7850 3050 7850 3100
Text Label 7050 1800 2    50   ~ 0
PWR_GOOD
Wire Wire Line
	6650 1800 7050 1800
Text Label 13450 4800 2    50   ~ 0
PWR_GOOD
Text Label 4950 3300 0    50   ~ 0
GPS_ON
Connection ~ 3650 1300
Wire Notes Line
	1900 5700 1900 5350
Wire Notes Line
	2150 5500 2150 5650
Wire Notes Line
	2700 5750 2700 6100
Wire Notes Line
	2700 6100 3200 6100
Wire Notes Line
	3200 6100 3200 5750
Wire Notes Line
	3200 5750 2700 5750
Text Notes 2750 5950 0    50   ~ 0
DCDC 1V8
Wire Notes Line
	3200 5900 3350 5900
Wire Notes Line
	2550 5500 2550 5900
Wire Notes Line
	2550 5900 2700 5900
Wire Notes Line
	3650 5500 3650 4850
Wire Notes Line
	3750 6000 3750 6500
Wire Notes Line
	3750 6500 4250 6500
Wire Notes Line
	4250 6500 4250 6000
Wire Notes Line
	4250 6000 3750 6000
Text Notes 3950 6300 0    50   ~ 0
FLASH
Wire Notes Line
	3650 6150 3750 6150
Wire Notes Line
	3650 5600 3650 6150
Wire Notes Line
	3200 5600 3650 5600
$Comp
L Connector:Conn_01x01_Male TP5
U 1 1 5FF9BFFF
P 10950 4900
F 0 "TP5" H 10850 4900 50  0000 C CNN
F 1 "TP" H 11058 4990 50  0001 C CNN
F 2 "Layout:PRG_PIN" H 10950 4900 50  0001 C CNN
F 3 "~" H 10950 4900 50  0001 C CNN
	1    10950 4900
	1    0    0    -1  
$EndComp
$Comp
L Connector:Conn_01x01_Male TP4
U 1 1 5FF9C4E8
P 10950 4800
F 0 "TP4" H 10850 4800 50  0000 C CNN
F 1 "TP" H 11058 4890 50  0001 C CNN
F 2 "Layout:PRG_PIN" H 10950 4800 50  0001 C CNN
F 3 "~" H 10950 4800 50  0001 C CNN
	1    10950 4800
	1    0    0    -1  
$EndComp
$Comp
L Device:L_Small 33nH1
U 1 1 5FFCCB6B
P 9950 4950
F 0 "33nH1" H 9998 4996 50  0000 L CNN
F 1 "L_Small" H 9998 4905 50  0000 L CNN
F 2 "Inductor_SMD:L_0402_1005Metric" H 9950 4950 50  0001 C CNN
F 3 "~" H 9950 4950 50  0001 C CNN
	1    9950 4950
	1    0    0    -1  
$EndComp
$Comp
L power:+3.3V #PWR043
U 1 1 5FFCDB34
P 9950 4700
F 0 "#PWR043" H 9950 4550 50  0001 C CNN
F 1 "+3.3V" H 9965 4873 50  0000 C CNN
F 2 "" H 9950 4700 50  0001 C CNN
F 3 "" H 9950 4700 50  0001 C CNN
	1    9950 4700
	1    0    0    -1  
$EndComp
Wire Wire Line
	9950 4750 9950 4850
Wire Wire Line
	9650 5300 9950 5300
Wire Wire Line
	9950 5050 9950 5300
Connection ~ 9950 5300
Wire Wire Line
	9950 5300 10450 5300
$Comp
L power:GND #PWR028
U 1 1 5EB0220A
P 10950 5600
F 0 "#PWR028" H 10950 5350 50  0001 C CNN
F 1 "GND" H 10955 5427 50  0000 C CNN
F 2 "" H 10950 5600 50  0001 C CNN
F 3 "" H 10950 5600 50  0001 C CNN
	1    10950 5600
	-1   0    0    -1  
$EndComp
$Comp
L S76G:S76G U3
U 1 1 6005832A
P 12000 3000
F 0 "U3" H 12000 3265 50  0000 C CNN
F 1 "S76G" H 12000 3174 50  0000 C CNN
F 2 "Layout:S76G" H 12000 3000 50  0001 C CNN
F 3 "" H 12000 3000 50  0001 C CNN
	1    12000 3000
	1    0    0    -1  
$EndComp
$Comp
L Device:C C17
U 1 1 6005BE14
P 10350 4900
F 0 "C17" H 10465 4946 50  0000 L CNN
F 1 "100n" H 10465 4855 50  0000 L CNN
F 2 "Capacitor_SMD:C_0402_1005Metric" H 10388 4750 50  0001 C CNN
F 3 "~" H 10350 4900 50  0001 C CNN
F 4 "C1608X7R1V105K080AC" H 10350 4900 50  0001 C CNN "MPN"
	1    10350 4900
	1    0    0    -1  
$EndComp
$Comp
L power:GND #PWR044
U 1 1 6005D16C
P 10350 5050
F 0 "#PWR044" H 10350 4800 50  0001 C CNN
F 1 "GND" H 10355 4877 50  0000 C CNN
F 2 "" H 10350 5050 50  0001 C CNN
F 3 "" H 10350 5050 50  0001 C CNN
	1    10350 5050
	-1   0    0    -1  
$EndComp
Wire Wire Line
	10350 4750 9950 4750
Connection ~ 9950 4750
Wire Wire Line
	9950 4700 9950 4750
Wire Wire Line
	11150 4800 11200 4800
Wire Wire Line
	11150 4900 11200 4900
Wire Wire Line
	11150 3800 11200 3800
Wire Wire Line
	12850 3100 12800 3100
$Comp
L Connector_Generic:Conn_01x03 J3
U 1 1 60462A80
P 14700 4000
F 0 "J3" H 14618 3675 50  0000 C CNN
F 1 "UART" H 14618 3766 50  0000 C CNN
F 2 "Connector_PinSocket_2.00mm:PinSocket_1x03_P2.00mm_Vertical" H 14700 4000 50  0001 C CNN
F 3 "~" H 14700 4000 50  0001 C CNN
	1    14700 4000
	1    0    0    1   
$EndComp
$Comp
L power:GND #PWR040
U 1 1 6047A077
P 14450 4150
F 0 "#PWR040" H 14450 3900 50  0001 C CNN
F 1 "GND" H 14455 3977 50  0000 C CNN
F 2 "" H 14450 4150 50  0001 C CNN
F 3 "" H 14450 4150 50  0001 C CNN
	1    14450 4150
	-1   0    0    -1  
$EndComp
Wire Wire Line
	14500 4100 14450 4100
Wire Wire Line
	14450 4100 14450 4150
Wire Wire Line
	14500 4000 12800 4000
Wire Wire Line
	12800 3900 14500 3900
$Comp
L TC2030-IDC:TC2030-IDC TC1
U 1 1 604DAE0A
P 13950 9000
F 0 "TC1" H 14000 8630 50  0000 C CNN
F 1 "TC2030-IDC" H 14000 8721 50  0000 C CNN
F 2 "Layout:TC2030-IDC-NL" H 13950 9000 50  0001 C CNN
F 3 "" H 13950 9000 50  0001 L BNN
	1    13950 9000
	1    0    0    1   
$EndComp
Text Label 14900 9000 2    50   ~ 0
RESET
Wire Wire Line
	14550 9000 14900 9000
$Comp
L Connector:Conn_01x01_Male J4
U 1 1 5F30208F
P 15250 8900
F 0 "J4" H 15358 9081 50  0000 C CNN
F 1 "3V3" H 15358 8990 50  0000 C CNN
F 2 "TestPoint:TestPoint_THTPad_1.0x1.0mm_Drill0.5mm" H 15250 8900 50  0001 C CNN
F 3 "~" H 15250 8900 50  0001 C CNN
	1    15250 8900
	-1   0    0    -1  
$EndComp
Wire Wire Line
	15000 8900 14550 8900
Connection ~ 15000 8900
Wire Wire Line
	15000 9200 14750 9200
Connection ~ 15000 9200
Wire Wire Line
	14750 9200 14750 9100
Wire Wire Line
	14750 9100 14550 9100
Wire Wire Line
	13000 9000 13450 9000
$Comp
L Connector:Conn_01x01_Male TP6
U 1 1 6070CBCE
P 10950 4300
F 0 "TP6" H 10850 4300 50  0000 C CNN
F 1 "TP" H 11058 4390 50  0001 C CNN
F 2 "Layout:PRG_PIN" H 10950 4300 50  0001 C CNN
F 3 "~" H 10950 4300 50  0001 C CNN
	1    10950 4300
	1    0    0    -1  
$EndComp
Wire Wire Line
	11150 4300 11200 4300
$Comp
L Connector:Conn_01x01_Male TP7
U 1 1 607253A4
P 10350 4400
F 0 "TP7" H 10250 4400 50  0000 C CNN
F 1 "TP" H 10458 4490 50  0001 C CNN
F 2 "Layout:PRG_PIN" H 10350 4400 50  0001 C CNN
F 3 "~" H 10350 4400 50  0001 C CNN
	1    10350 4400
	1    0    0    -1  
$EndComp
Wire Wire Line
	10550 4400 11200 4400
$Comp
L Connector:Conn_01x01_Male TP9
U 1 1 6073DEDD
P 10950 4700
F 0 "TP9" H 10850 4700 50  0000 C CNN
F 1 "TP" H 11058 4790 50  0001 C CNN
F 2 "Layout:PRG_PIN" H 10950 4700 50  0001 C CNN
F 3 "~" H 10950 4700 50  0001 C CNN
	1    10950 4700
	1    0    0    -1  
$EndComp
Wire Wire Line
	11150 4700 11200 4700
$Comp
L Connector:Conn_01x01_Male TP8
U 1 1 6073DEE8
P 10950 4600
F 0 "TP8" H 10850 4600 50  0000 C CNN
F 1 "TP" H 11058 4690 50  0001 C CNN
F 2 "Layout:PRG_PIN" H 10950 4600 50  0001 C CNN
F 3 "~" H 10950 4600 50  0001 C CNN
	1    10950 4600
	1    0    0    -1  
$EndComp
Wire Wire Line
	11150 4600 11200 4600
NoConn ~ 13450 9100
Text Label 7050 1900 2    50   ~ 0
GPS_ON
$Comp
L TPS62840DLCR:TPS62840DLCR U5
U 1 1 607ECA1E
P 5950 3600
F 0 "U5" H 5950 4367 50  0000 C CNN
F 1 "TPS62840DLCR" H 5950 4276 50  0000 C CNN
F 2 "SON50P200X150X100-8N" H 5950 3600 50  0001 L BNN
F 3 "" H 5950 3600 50  0001 L BNN
F 4 "TPS62840DLCR" H 5950 3600 50  0001 L BNN "MP"
F 5 "https://snapeda.com/shop?store=Texas+Instruments&id=4216699" H 5950 3600 50  0001 L BNN "TEXAS_INSTRUMENTS-PURCHASE-URL"
F 6 "VSON-HR-8 Texas Instruments" H 5950 3600 50  0001 L BNN "PACKAGE"
F 7 "Texas Instruments" H 5950 3600 50  0001 L BNN "MF"
F 8 "60-nA IQ, 1.8-V to 6.5-VIN, high-efficiency 750-mA step-down converter 8-VSON-HR -40 to 125" H 5950 3600 50  0001 L BNN "DESCRIPTION"
F 9 "https://snapeda.com/shop?store=Mouser&id=4216699" H 5950 3600 50  0001 L BNN "MOUSER-PURCHASE-URL"
F 10 "None" H 5950 3600 50  0001 L BNN "PRICE"
F 11 "Warning" H 5950 3600 50  0001 L BNN "AVAILABILITY"
	1    5950 3600
	1    0    0    -1  
$EndComp
$Comp
L power:+VSW #PWR050
U 1 1 607EEB8A
P 9250 9550
F 0 "#PWR050" H 9250 9400 50  0001 C CNN
F 1 "+VSW" H 9265 9723 50  0000 C CNN
F 2 "" H 9250 9550 50  0001 C CNN
F 3 "" H 9250 9550 50  0001 C CNN
	1    9250 9550
	-1   0    0    -1  
$EndComp
Wire Wire Line
	9350 9750 9250 9750
$Comp
L Device:R R8
U 1 1 60808018
P 9500 9750
F 0 "R8" V 9450 9900 50  0000 C CNN
F 1 "0" V 9500 9750 50  0000 C CNN
F 2 "Resistor_SMD:R_0402_1005Metric" V 9430 9750 50  0001 C CNN
F 3 "~" H 9500 9750 50  0001 C CNN
F 4 "CRCW06030000Z0EAC" H 9500 9750 50  0001 C CNN "MPN"
	1    9500 9750
	0    1    1    0   
$EndComp
Wire Wire Line
	9350 9650 9250 9650
Wire Wire Line
	9250 9750 9250 9650
Wire Wire Line
	9250 9650 9250 9550
Connection ~ 9250 9650
Wire Wire Line
	13000 8900 13450 8900
$Comp
L power:+1V8 #PWR051
U 1 1 60930461
P 8850 3400
F 0 "#PWR051" H 8850 3250 50  0001 C CNN
F 1 "+1V8" H 8865 3573 50  0000 C CNN
F 2 "" H 8850 3400 50  0001 C CNN
F 3 "" H 8850 3400 50  0001 C CNN
	1    8850 3400
	1    0    0    -1  
$EndComp
Connection ~ 11150 4300
Wire Wire Line
	11150 4200 11150 4300
$Comp
L Oscillator:ASCO X1
U 1 1 60A2729F
P 8850 4200
F 0 "X1" H 9294 4246 50  0000 L CNN
F 1 "815-ASCO2-26-EKT3 " H 9294 4155 50  0000 L CNN
F 2 "Oscillator:Oscillator_SMD_Abracon_ASCO-4Pin_1.6x1.2mm" H 8950 3850 50  0001 C CNN
F 3 "" H 8625 4325 50  0001 C CNN
F 4 "815-ASCO2-26-EKT3" H 8850 4200 50  0001 C CNN "MPN"
	1    8850 4200
	1    0    0    -1  
$EndComp
Wire Wire Line
	8850 4500 8850 4550
$Comp
L power:GND #PWR053
U 1 1 608FC74C
P 8850 4550
F 0 "#PWR053" H 8850 4300 50  0001 C CNN
F 1 "GND" H 8855 4377 50  0000 C CNN
F 2 "" H 8850 4550 50  0001 C CNN
F 3 "" H 8850 4550 50  0001 C CNN
	1    8850 4550
	1    0    0    -1  
$EndComp
$Comp
L Device:C C26
U 1 1 60A90C07
P 9100 3600
F 0 "C26" H 9215 3646 50  0000 L CNN
F 1 "100n" H 9215 3555 50  0000 L CNN
F 2 "Capacitor_SMD:C_0402_1005Metric" H 9138 3450 50  0001 C CNN
F 3 "~" H 9100 3600 50  0001 C CNN
F 4 "C1608X7R1V105K080AC" H 9100 3600 50  0001 C CNN "MPN"
	1    9100 3600
	1    0    0    -1  
$EndComp
$Comp
L power:GND #PWR052
U 1 1 60A910FF
P 9100 3750
F 0 "#PWR052" H 9100 3500 50  0001 C CNN
F 1 "GND" H 9105 3577 50  0000 C CNN
F 2 "" H 9100 3750 50  0001 C CNN
F 3 "" H 9100 3750 50  0001 C CNN
	1    9100 3750
	1    0    0    -1  
$EndComp
Wire Wire Line
	9100 3450 8850 3450
Wire Wire Line
	8850 3450 8850 3900
Wire Wire Line
	8850 3400 8850 3450
Connection ~ 8850 3450
Text Label 10550 4400 0    50   ~ 0
GPS_TCXO_EN
Text Label 7950 4200 0    50   ~ 0
GPS_TCXO_EN
Wire Wire Line
	8450 4200 7950 4200
Wire Wire Line
	9250 4200 11150 4200
$Comp
L Device:C C27
U 1 1 5FDF647F
P 4600 3250
F 0 "C27" H 4715 3296 50  0000 L CNN
F 1 "10u" H 4715 3205 50  0000 L CNN
F 2 "Capacitor_SMD:C_0603_1608Metric" H 4638 3100 50  0001 C CNN
F 3 "~" H 4600 3250 50  0001 C CNN
F 4 "GRM188R60J106ME84J" H 4600 3250 50  0001 C CNN "MPN"
	1    4600 3250
	1    0    0    -1  
$EndComp
Connection ~ 4600 3100
$Comp
L power:GND #PWR054
U 1 1 5FDF69B9
P 4600 3400
F 0 "#PWR054" H 4600 3150 50  0001 C CNN
F 1 "GND" H 4605 3227 50  0000 C CNN
F 2 "" H 4600 3400 50  0001 C CNN
F 3 "" H 4600 3400 50  0001 C CNN
	1    4600 3400
	1    0    0    -1  
$EndComp
Wire Wire Line
	1800 7250 2150 7250
Wire Wire Line
	1800 7350 2150 7350
Wire Wire Line
	7450 3100 7450 3150
$Comp
L power:GND #PWR012
U 1 1 602E94CC
P 7450 3550
F 0 "#PWR012" H 7450 3300 50  0001 C CNN
F 1 "GND" H 7455 3377 50  0000 C CNN
F 2 "" H 7450 3550 50  0001 C CNN
F 3 "" H 7450 3550 50  0001 C CNN
	1    7450 3550
	1    0    0    -1  
$EndComp
Wire Wire Line
	7450 3550 7450 3500
Connection ~ 7450 3500
Wire Wire Line
	7850 3500 7450 3500
Connection ~ 7850 3500
Wire Wire Line
	7850 3500 7850 3450
Wire Wire Line
	7450 3500 7450 3450
Wire Wire Line
	8250 3500 7850 3500
Wire Wire Line
	8250 3450 8250 3500
Wire Wire Line
	7850 3100 8250 3100
Wire Wire Line
	7850 3150 7850 3100
Wire Wire Line
	8250 3100 8250 3150
$Comp
L Device:C C13
U 1 1 5EB1BECA
P 8250 3300
F 0 "C13" H 8365 3346 50  0000 L CNN
F 1 "100n" H 8365 3255 50  0000 L CNN
F 2 "Capacitor_SMD:C_0402_1005Metric" H 8288 3150 50  0001 C CNN
F 3 "~" H 8250 3300 50  0001 C CNN
F 4 "C1608X7R1V105K080AC" H 8250 3300 50  0001 C CNN "MPN"
	1    8250 3300
	1    0    0    -1  
$EndComp
$Comp
L Device:C C12
U 1 1 5EB1BEC4
P 7850 3300
F 0 "C12" H 7965 3346 50  0000 L CNN
F 1 "1u" H 7965 3255 50  0000 L CNN
F 2 "Capacitor_SMD:C_0402_1005Metric" H 7888 3150 50  0001 C CNN
F 3 "~" H 7850 3300 50  0001 C CNN
F 4 "0603DC105MAT2A" H 7850 3300 50  0001 C CNN "MPN"
	1    7850 3300
	1    0    0    -1  
$EndComp
$Comp
L Device:C C11
U 1 1 5EB1BEBE
P 7450 3300
F 0 "C11" H 7565 3346 50  0000 L CNN
F 1 "10u" H 7565 3255 50  0000 L CNN
F 2 "Capacitor_SMD:C_0603_1608Metric" H 7488 3150 50  0001 C CNN
F 3 "~" H 7450 3300 50  0001 C CNN
F 4 "GRM188R60J106ME84J" H 7450 3300 50  0001 C CNN "MPN"
	1    7450 3300
	1    0    0    -1  
$EndComp
Connection ~ 7850 3100
$EndSCHEMATC
