%TF.GenerationSoftware,KiCad,Pcbnew,5.1.6-c6e7f7d~87~ubuntu20.04.1*%
%TF.CreationDate,2020-08-05T20:13:05+02:00*%
%TF.ProjectId,cat-usb-programmer,6361742d-7573-4622-9d70-726f6772616d,rev?*%
%TF.SameCoordinates,Original*%
%TF.FileFunction,Legend,Bot*%
%TF.FilePolarity,Positive*%
%FSLAX46Y46*%
G04 Gerber Fmt 4.6, Leading zero omitted, Abs format (unit mm)*
G04 Created by KiCad (PCBNEW 5.1.6-c6e7f7d~87~ubuntu20.04.1) date 2020-08-05 20:13:05*
%MOMM*%
%LPD*%
G01*
G04 APERTURE LIST*
%ADD10C,0.150000*%
G04 APERTURE END LIST*
D10*
X80733333Y-98632142D02*
X80780952Y-98679761D01*
X80923809Y-98727380D01*
X81019047Y-98727380D01*
X81161904Y-98679761D01*
X81257142Y-98584523D01*
X81304761Y-98489285D01*
X81352380Y-98298809D01*
X81352380Y-98155952D01*
X81304761Y-97965476D01*
X81257142Y-97870238D01*
X81161904Y-97775000D01*
X81019047Y-97727380D01*
X80923809Y-97727380D01*
X80780952Y-97775000D01*
X80733333Y-97822619D01*
X80352380Y-98441666D02*
X79876190Y-98441666D01*
X80447619Y-98727380D02*
X80114285Y-97727380D01*
X79780952Y-98727380D01*
X79590476Y-97727380D02*
X79019047Y-97727380D01*
X79304761Y-98727380D02*
X79304761Y-97727380D01*
X78685714Y-98727380D02*
X78685714Y-98060714D01*
X78685714Y-98251190D02*
X78638095Y-98155952D01*
X78590476Y-98108333D01*
X78495238Y-98060714D01*
X78399999Y-98060714D01*
X77638095Y-98727380D02*
X77638095Y-98203571D01*
X77685714Y-98108333D01*
X77780952Y-98060714D01*
X77971428Y-98060714D01*
X78066666Y-98108333D01*
X77638095Y-98679761D02*
X77733333Y-98727380D01*
X77971428Y-98727380D01*
X78066666Y-98679761D01*
X78114285Y-98584523D01*
X78114285Y-98489285D01*
X78066666Y-98394047D01*
X77971428Y-98346428D01*
X77733333Y-98346428D01*
X77638095Y-98298809D01*
X76733333Y-98679761D02*
X76828571Y-98727380D01*
X77019047Y-98727380D01*
X77114285Y-98679761D01*
X77161904Y-98632142D01*
X77209523Y-98536904D01*
X77209523Y-98251190D01*
X77161904Y-98155952D01*
X77114285Y-98108333D01*
X77019047Y-98060714D01*
X76828571Y-98060714D01*
X76733333Y-98108333D01*
X76304761Y-98727380D02*
X76304761Y-97727380D01*
X76209523Y-98346428D02*
X75923809Y-98727380D01*
X75923809Y-98060714D02*
X76304761Y-98441666D01*
X75114285Y-98679761D02*
X75209523Y-98727380D01*
X75399999Y-98727380D01*
X75495238Y-98679761D01*
X75542857Y-98584523D01*
X75542857Y-98203571D01*
X75495238Y-98108333D01*
X75399999Y-98060714D01*
X75209523Y-98060714D01*
X75114285Y-98108333D01*
X75066666Y-98203571D01*
X75066666Y-98298809D01*
X75542857Y-98394047D01*
X74638095Y-98727380D02*
X74638095Y-98060714D01*
X74638095Y-98251190D02*
X74590476Y-98155952D01*
X74542857Y-98108333D01*
X74447619Y-98060714D01*
X74352380Y-98060714D01*
X84328571Y-99377380D02*
X84328571Y-100186904D01*
X84280952Y-100282142D01*
X84233333Y-100329761D01*
X84138095Y-100377380D01*
X83947619Y-100377380D01*
X83852380Y-100329761D01*
X83804761Y-100282142D01*
X83757142Y-100186904D01*
X83757142Y-99377380D01*
X83328571Y-100329761D02*
X83185714Y-100377380D01*
X82947619Y-100377380D01*
X82852380Y-100329761D01*
X82804761Y-100282142D01*
X82757142Y-100186904D01*
X82757142Y-100091666D01*
X82804761Y-99996428D01*
X82852380Y-99948809D01*
X82947619Y-99901190D01*
X83138095Y-99853571D01*
X83233333Y-99805952D01*
X83280952Y-99758333D01*
X83328571Y-99663095D01*
X83328571Y-99567857D01*
X83280952Y-99472619D01*
X83233333Y-99425000D01*
X83138095Y-99377380D01*
X82900000Y-99377380D01*
X82757142Y-99425000D01*
X81995238Y-99853571D02*
X81852380Y-99901190D01*
X81804761Y-99948809D01*
X81757142Y-100044047D01*
X81757142Y-100186904D01*
X81804761Y-100282142D01*
X81852380Y-100329761D01*
X81947619Y-100377380D01*
X82328571Y-100377380D01*
X82328571Y-99377380D01*
X81995238Y-99377380D01*
X81900000Y-99425000D01*
X81852380Y-99472619D01*
X81804761Y-99567857D01*
X81804761Y-99663095D01*
X81852380Y-99758333D01*
X81900000Y-99805952D01*
X81995238Y-99853571D01*
X82328571Y-99853571D01*
X81328571Y-99996428D02*
X80566666Y-99996428D01*
X80090476Y-100377380D02*
X80090476Y-99377380D01*
X79709523Y-99377380D01*
X79614285Y-99425000D01*
X79566666Y-99472619D01*
X79519047Y-99567857D01*
X79519047Y-99710714D01*
X79566666Y-99805952D01*
X79614285Y-99853571D01*
X79709523Y-99901190D01*
X80090476Y-99901190D01*
X79090476Y-100377380D02*
X79090476Y-99710714D01*
X79090476Y-99901190D02*
X79042857Y-99805952D01*
X78995238Y-99758333D01*
X78900000Y-99710714D01*
X78804761Y-99710714D01*
X78328571Y-100377380D02*
X78423809Y-100329761D01*
X78471428Y-100282142D01*
X78519047Y-100186904D01*
X78519047Y-99901190D01*
X78471428Y-99805952D01*
X78423809Y-99758333D01*
X78328571Y-99710714D01*
X78185714Y-99710714D01*
X78090476Y-99758333D01*
X78042857Y-99805952D01*
X77995238Y-99901190D01*
X77995238Y-100186904D01*
X78042857Y-100282142D01*
X78090476Y-100329761D01*
X78185714Y-100377380D01*
X78328571Y-100377380D01*
X77138095Y-99710714D02*
X77138095Y-100520238D01*
X77185714Y-100615476D01*
X77233333Y-100663095D01*
X77328571Y-100710714D01*
X77471428Y-100710714D01*
X77566666Y-100663095D01*
X77138095Y-100329761D02*
X77233333Y-100377380D01*
X77423809Y-100377380D01*
X77519047Y-100329761D01*
X77566666Y-100282142D01*
X77614285Y-100186904D01*
X77614285Y-99901190D01*
X77566666Y-99805952D01*
X77519047Y-99758333D01*
X77423809Y-99710714D01*
X77233333Y-99710714D01*
X77138095Y-99758333D01*
X76661904Y-100377380D02*
X76661904Y-99710714D01*
X76661904Y-99901190D02*
X76614285Y-99805952D01*
X76566666Y-99758333D01*
X76471428Y-99710714D01*
X76376190Y-99710714D01*
X75614285Y-100377380D02*
X75614285Y-99853571D01*
X75661904Y-99758333D01*
X75757142Y-99710714D01*
X75947619Y-99710714D01*
X76042857Y-99758333D01*
X75614285Y-100329761D02*
X75709523Y-100377380D01*
X75947619Y-100377380D01*
X76042857Y-100329761D01*
X76090476Y-100234523D01*
X76090476Y-100139285D01*
X76042857Y-100044047D01*
X75947619Y-99996428D01*
X75709523Y-99996428D01*
X75614285Y-99948809D01*
X75138095Y-100377380D02*
X75138095Y-99710714D01*
X75138095Y-99805952D02*
X75090476Y-99758333D01*
X74995238Y-99710714D01*
X74852380Y-99710714D01*
X74757142Y-99758333D01*
X74709523Y-99853571D01*
X74709523Y-100377380D01*
X74709523Y-99853571D02*
X74661904Y-99758333D01*
X74566666Y-99710714D01*
X74423809Y-99710714D01*
X74328571Y-99758333D01*
X74280952Y-99853571D01*
X74280952Y-100377380D01*
X73804761Y-100377380D02*
X73804761Y-99710714D01*
X73804761Y-99805952D02*
X73757142Y-99758333D01*
X73661904Y-99710714D01*
X73519047Y-99710714D01*
X73423809Y-99758333D01*
X73376190Y-99853571D01*
X73376190Y-100377380D01*
X73376190Y-99853571D02*
X73328571Y-99758333D01*
X73233333Y-99710714D01*
X73090476Y-99710714D01*
X72995238Y-99758333D01*
X72947619Y-99853571D01*
X72947619Y-100377380D01*
X72090476Y-100329761D02*
X72185714Y-100377380D01*
X72376190Y-100377380D01*
X72471428Y-100329761D01*
X72519047Y-100234523D01*
X72519047Y-99853571D01*
X72471428Y-99758333D01*
X72376190Y-99710714D01*
X72185714Y-99710714D01*
X72090476Y-99758333D01*
X72042857Y-99853571D01*
X72042857Y-99948809D01*
X72519047Y-100044047D01*
X71614285Y-100377380D02*
X71614285Y-99710714D01*
X71614285Y-99901190D02*
X71566666Y-99805952D01*
X71519047Y-99758333D01*
X71423809Y-99710714D01*
X71328571Y-99710714D01*
M02*
